EESchema Schematic File Version 4
EELAYER 30 0
EELAYER END
$Descr A4 11693 8268
encoding utf-8
Sheet 1 1
Title ""
Date ""
Rev ""
Comp ""
Comment1 ""
Comment2 ""
Comment3 ""
Comment4 ""
$EndDescr
$Comp
L Timer:LM555 U?
U 1 1 64EDE340
P 5450 2800
F 0 "U?" H 5450 3381 50  0000 C CNN
F 1 "LM555" H 5450 3290 50  0000 C CNN
F 2 "" H 5450 2800 50  0001 C CNN
F 3 "http://www.ti.com/lit/ds/symlink/lm555.pdf" H 5450 2800 50  0001 C CNN
	1    5450 2800
	1    0    0    -1  
$EndComp
$Comp
L power:+5V #PWR?
U 1 1 64EDED1C
P 5450 2400
F 0 "#PWR?" H 5450 2250 50  0001 C CNN
F 1 "+5V" H 5465 2573 50  0000 C CNN
F 2 "" H 5450 2400 50  0001 C CNN
F 3 "" H 5450 2400 50  0001 C CNN
	1    5450 2400
	1    0    0    -1  
$EndComp
$Comp
L power:+5V #PWR?
U 1 1 64EDF009
P 4950 3000
F 0 "#PWR?" H 4950 2850 50  0001 C CNN
F 1 "+5V" V 4965 3128 50  0000 L CNN
F 2 "" H 4950 3000 50  0001 C CNN
F 3 "" H 4950 3000 50  0001 C CNN
	1    4950 3000
	0    -1   -1   0   
$EndComp
$Comp
L power:Earth #PWR?
U 1 1 64EDF63E
P 5450 3200
F 0 "#PWR?" H 5450 2950 50  0001 C CNN
F 1 "Earth" H 5450 3050 50  0001 C CNN
F 2 "" H 5450 3200 50  0001 C CNN
F 3 "~" H 5450 3200 50  0001 C CNN
	1    5450 3200
	1    0    0    -1  
$EndComp
Wire Wire Line
	4950 2800 4450 2800
Wire Wire Line
	4450 2800 4450 3200
$Comp
L Device:C C?
U 1 1 64EE002C
P 4900 3200
F 0 "C?" V 4648 3200 50  0000 C CNN
F 1 "C" V 4739 3200 50  0000 C CNN
F 2 "" H 4938 3050 50  0001 C CNN
F 3 "~" H 4900 3200 50  0001 C CNN
	1    4900 3200
	0    1    1    0   
$EndComp
Wire Wire Line
	4450 3200 4750 3200
Wire Wire Line
	5050 3200 5450 3200
Connection ~ 5450 3200
Wire Wire Line
	4950 2600 4800 2600
Wire Wire Line
	4250 2600 4250 2900
$Comp
L Device:C C?
U 1 1 64EE08F1
P 4250 3050
F 0 "C?" H 4365 3096 50  0000 L CNN
F 1 "C" H 4365 3005 50  0000 L CNN
F 2 "" H 4288 2900 50  0001 C CNN
F 3 "~" H 4250 3050 50  0001 C CNN
	1    4250 3050
	1    0    0    -1  
$EndComp
$Comp
L power:Earth #PWR?
U 1 1 64EE0D67
P 4250 3200
F 0 "#PWR?" H 4250 2950 50  0001 C CNN
F 1 "Earth" H 4250 3050 50  0001 C CNN
F 2 "" H 4250 3200 50  0001 C CNN
F 3 "~" H 4250 3200 50  0001 C CNN
	1    4250 3200
	1    0    0    -1  
$EndComp
$Comp
L Device:R R?
U 1 1 64EE127C
P 4250 2450
F 0 "R?" H 4320 2496 50  0000 L CNN
F 1 "R" H 4320 2405 50  0000 L CNN
F 2 "" V 4180 2450 50  0001 C CNN
F 3 "~" H 4250 2450 50  0001 C CNN
	1    4250 2450
	1    0    0    -1  
$EndComp
Connection ~ 4250 2600
$Comp
L Device:R_POT RV?
U 1 1 64EE26A2
P 4250 2150
F 0 "RV?" H 4181 2196 50  0000 R CNN
F 1 "R_POT" H 4181 2105 50  0000 R CNN
F 2 "" H 4250 2150 50  0001 C CNN
F 3 "~" H 4250 2150 50  0001 C CNN
	1    4250 2150
	1    0    0    -1  
$EndComp
Wire Wire Line
	4400 2150 4600 2150
$Comp
L Device:R R?
U 1 1 64EE2D3A
P 4600 2000
F 0 "R?" H 4670 2046 50  0000 L CNN
F 1 "R" H 4670 1955 50  0000 L CNN
F 2 "" V 4530 2000 50  0001 C CNN
F 3 "~" H 4600 2000 50  0001 C CNN
	1    4600 2000
	1    0    0    -1  
$EndComp
Wire Wire Line
	4600 2150 6100 2150
Wire Wire Line
	6100 2150 6100 2800
Wire Wire Line
	6100 2800 5950 2800
Connection ~ 4600 2150
Wire Wire Line
	5950 3000 6200 3000
Wire Wire Line
	6200 3000 6200 2050
Wire Wire Line
	6200 2050 4800 2050
Wire Wire Line
	4800 2050 4800 2600
Connection ~ 4800 2600
Wire Wire Line
	4800 2600 4250 2600
$Comp
L power:+5V #PWR?
U 1 1 64EE3758
P 4600 1850
F 0 "#PWR?" H 4600 1700 50  0001 C CNN
F 1 "+5V" H 4615 2023 50  0000 C CNN
F 2 "" H 4600 1850 50  0001 C CNN
F 3 "" H 4600 1850 50  0001 C CNN
	1    4600 1850
	1    0    0    -1  
$EndComp
Wire Wire Line
	5950 2600 6350 2600
$Comp
L Transistor_BJT:2N2219 Q?
U 1 1 64EE4B0C
P 6650 2600
F 0 "Q?" H 6840 2646 50  0000 L CNN
F 1 "2N2219" H 6840 2555 50  0000 L CNN
F 2 "Package_TO_SOT_THT:TO-39-3" H 6850 2525 50  0001 L CIN
F 3 "http://www.onsemi.com/pub_link/Collateral/2N2219-D.PDF" H 6650 2600 50  0001 L CNN
	1    6650 2600
	1    0    0    -1  
$EndComp
$Comp
L Connector:Conn_01x01_Female J?
U 1 1 64EE549D
P 6750 3000
F 0 "J?" V 6596 3048 50  0000 L CNN
F 1 "Conn_01x01_Female" V 6687 3048 50  0000 L CNN
F 2 "" H 6750 3000 50  0001 C CNN
F 3 "~" H 6750 3000 50  0001 C CNN
	1    6750 3000
	0    1    1    0   
$EndComp
$Comp
L power:+5V #PWR?
U 1 1 64EE6286
P 6750 2400
F 0 "#PWR?" H 6750 2250 50  0001 C CNN
F 1 "+5V" H 6765 2573 50  0000 C CNN
F 2 "" H 6750 2400 50  0001 C CNN
F 3 "" H 6750 2400 50  0001 C CNN
	1    6750 2400
	1    0    0    -1  
$EndComp
Wire Wire Line
	6350 2600 6350 3200
Connection ~ 6350 2600
Wire Wire Line
	6350 2600 6450 2600
$Comp
L Connector:Conn_01x02_Female J?
U 1 1 64EE77C2
P 6700 3200
F 0 "J?" H 6728 3176 50  0000 L CNN
F 1 "Conn_01x02_Female" H 6728 3085 50  0000 L CNN
F 2 "" H 6700 3200 50  0001 C CNN
F 3 "~" H 6700 3200 50  0001 C CNN
	1    6700 3200
	1    0    0    -1  
$EndComp
Wire Wire Line
	6350 3200 6500 3200
$Comp
L Device:C C?
U 1 1 64EE8753
P 6350 3350
F 0 "C?" H 6465 3396 50  0000 L CNN
F 1 "C" H 6465 3305 50  0000 L CNN
F 2 "" H 6388 3200 50  0001 C CNN
F 3 "~" H 6350 3350 50  0001 C CNN
	1    6350 3350
	1    0    0    -1  
$EndComp
Connection ~ 6350 3200
Wire Wire Line
	6500 3500 6350 3500
Wire Wire Line
	6500 3300 6500 3500
$Comp
L power:Earth #PWR?
U 1 1 64EE9C2D
P 6350 3500
F 0 "#PWR?" H 6350 3250 50  0001 C CNN
F 1 "Earth" H 6350 3350 50  0001 C CNN
F 2 "" H 6350 3500 50  0001 C CNN
F 3 "~" H 6350 3500 50  0001 C CNN
	1    6350 3500
	1    0    0    -1  
$EndComp
Connection ~ 6350 3500
$EndSCHEMATC
