<?xml version="1.0" standalone="no"?>
 <!DOCTYPE svg PUBLIC "-//W3C//DTD SVG 1.1//EN" 
 "http://www.w3.org/Graphics/SVG/1.1/DTD/svg11.dtd"> 
<svg xmlns="http://www.w3.org/2000/svg" version="1.1" 
    width="29.7002cm" height="21.0007cm" viewBox="0 0 116930 82680 ">
<title>SVG Picture created as amp-B_Mask.svg date 2024/06/24 10:52:33 </title>
  <desc>Picture generated by PCBNEW </desc>
<g style="fill:#000000; fill-opacity:1;stroke:#000000; stroke-opacity:1;
stroke-linecap:round; stroke-linejoin:round; "
 transform="translate(0 0) scale(1 1)">
</g>
<g style="fill:#000000; fill-opacity:0.0; 
stroke:#000000; stroke-width:-0.000393701; stroke-opacity:1; 
stroke-linecap:round; stroke-linejoin:round;">
</g>
<g style="fill:#000000; fill-opacity:1.0; 
stroke:#000000; stroke-width:0; stroke-opacity:1; 
stroke-linecap:round; stroke-linejoin:round;">
<path style="fill:#000000; fill-opacity:1.0; 
stroke:#000000; stroke-width:0; stroke-opacity:1; 
stroke-linecap:round; stroke-linejoin:round;fill-rule:evenodd;"
d="M 64611.6,-5258.3
64670.4,-5246.6
64735,-5219.86
64793.1,-5181.04
64842.5,-5131.64
64881.3,-5073.54
64908,-5008.98
64921.7,-4940.45
64921.7,-4870.57
64908,-4802.04
64881.3,-4737.49
64842.5,-4679.39
64793.1,-4629.98
64735,-4591.16
64670.4,-4564.42
64611.6,-4552.73
64601.9,-4550.79
64532,-4550.79
64522.2,-4552.73
64463.5,-4564.42
64398.9,-4591.16
64340.8,-4629.98
64291.4,-4679.39
64252.6,-4737.49
64225.8,-4802.04
64212.2,-4870.57
64212.2,-4940.45
64225.8,-5008.98
64252.6,-5073.54
64291.4,-5131.64
64340.8,-5181.04
64398.9,-5219.86
64463.5,-5246.6
64522.2,-5258.3
64532,-5260.24
64601.9,-5260.24
Z" /> 
<path style="fill:#000000; fill-opacity:1.0; 
stroke:#000000; stroke-width:0; stroke-opacity:1; 
stroke-linecap:round; stroke-linejoin:round;fill-rule:evenodd;"
d="M 61908.8,-6030.83
61969.7,-6005.57
62024.6,-5968.9
62071.3,-5922.24
62107.9,-5867.36
62133.2,-5806.39
62146.1,-5741.66
62146.1,-5675.66
62133.2,-5610.93
62107.9,-5549.96
62071.3,-5495.09
62024.6,-5448.42
61969.7,-5411.75
61908.8,-5386.5
61844,-5373.62
61778,-5373.62
61713.3,-5386.5
61652.3,-5411.75
61597.4,-5448.42
61550.8,-5495.09
61514.1,-5549.96
61488.9,-5610.93
61476,-5675.66
61476,-5741.66
61488.9,-5806.39
61514.1,-5867.36
61550.8,-5922.24
61597.4,-5968.9
61652.3,-6005.57
61713.3,-6030.83
61778,-6043.7
61844,-6043.7
Z" /> 
<path style="fill:#000000; fill-opacity:1.0; 
stroke:#000000; stroke-width:0; stroke-opacity:1; 
stroke-linecap:round; stroke-linejoin:round;fill-rule:evenodd;"
d="M 60924.5,-6030.83
60985.5,-6005.57
61040.3,-5968.9
61087,-5922.24
61123.7,-5867.36
61148.9,-5806.39
61161.8,-5741.66
61161.8,-5675.66
61148.9,-5610.93
61123.7,-5549.96
61087,-5495.09
61040.3,-5448.42
60985.5,-5411.75
60924.5,-5386.5
60859.8,-5373.62
60793.8,-5373.62
60729,-5386.5
60668.1,-5411.75
60613.2,-5448.42
60566.5,-5495.09
60529.9,-5549.96
60504.6,-5610.93
60491.7,-5675.66
60491.7,-5741.66
60504.6,-5806.39
60529.9,-5867.36
60566.5,-5922.24
60613.2,-5968.9
60668.1,-6005.57
60729,-6030.83
60793.8,-6043.7
60859.8,-6043.7
Z" /> 
<path style="fill:#000000; fill-opacity:1.0; 
stroke:#000000; stroke-width:0; stroke-opacity:1; 
stroke-linecap:round; stroke-linejoin:round;fill-rule:evenodd;"
d="M 64921.7,-5550.79
64212.2,-5550.79
64212.2,-6260.24
64921.7,-6260.24
Z" /> 
<path style="fill:#000000; fill-opacity:1.0; 
stroke:#000000; stroke-width:0; stroke-opacity:1; 
stroke-linecap:round; stroke-linejoin:round;fill-rule:evenodd;"
d="M 56396.9,-6522.95
56457.9,-6497.7
56512.8,-6461.03
56559.5,-6414.36
56596.1,-6359.49
56621.4,-6298.51
56634.3,-6233.79
56634.3,-6167.79
56621.4,-6103.06
56596.1,-6042.09
56559.5,-5987.21
56512.8,-5940.55
56457.9,-5903.88
56396.9,-5878.62
56332.2,-5865.75
56266.2,-5865.75
56201.5,-5878.62
56140.5,-5903.88
56085.6,-5940.55
56039,-5987.21
56002.3,-6042.09
55977,-6103.06
55964.2,-6167.79
55964.2,-6233.79
55977,-6298.51
56002.3,-6359.49
56039,-6414.36
56085.6,-6461.03
56140.5,-6497.7
56201.5,-6522.95
56266.2,-6535.83
56332.2,-6535.83
Z" /> 
<path style="fill:#000000; fill-opacity:1.0; 
stroke:#000000; stroke-width:0; stroke-opacity:1; 
stroke-linecap:round; stroke-linejoin:round;fill-rule:evenodd;"
d="M 58365.4,-6522.95
58426.4,-6497.7
58481.3,-6461.03
58528,-6414.36
58564.6,-6359.49
58589.9,-6298.51
58602.8,-6233.79
58602.8,-6167.79
58589.9,-6103.06
58564.6,-6042.09
58528,-5987.21
58481.3,-5940.55
58426.4,-5903.88
58365.4,-5878.62
58300.7,-5865.75
58234.7,-5865.75
58170,-5878.62
58109,-5903.88
58054.1,-5940.55
58007.5,-5987.21
57970.8,-6042.09
57945.6,-6103.06
57932.7,-6167.79
57932.7,-6233.79
57945.6,-6298.51
57970.8,-6359.49
58007.5,-6414.36
58054.1,-6461.03
58109,-6497.7
58170,-6522.95
58234.7,-6535.83
58300.7,-6535.83
Z" /> 
<path style="fill:#000000; fill-opacity:1.0; 
stroke:#000000; stroke-width:0; stroke-opacity:1; 
stroke-linecap:round; stroke-linejoin:round;fill-rule:evenodd;"
d="M 64611.6,-8714.99
64670.4,-8703.3
64735,-8676.56
64793.1,-8637.74
64842.5,-8588.33
64881.3,-8530.23
64908,-8465.67
64921.7,-8397.14
64921.7,-8327.27
64908,-8258.74
64881.3,-8194.18
64842.5,-8136.08
64793.1,-8086.67
64735,-8047.85
64670.4,-8021.11
64611.6,-8009.42
64601.9,-8007.48
64532,-8007.48
64522.2,-8009.42
64463.5,-8021.11
64398.9,-8047.85
64340.8,-8086.67
64291.4,-8136.08
64252.6,-8194.18
64225.8,-8258.74
64212.2,-8327.27
64212.2,-8397.14
64225.8,-8465.67
64252.6,-8530.23
64291.4,-8588.33
64340.8,-8637.74
64398.9,-8676.56
64463.5,-8703.3
64522.2,-8714.99
64532,-8716.93
64601.9,-8716.93
Z" /> 
<path style="fill:#000000; fill-opacity:1.0; 
stroke:#000000; stroke-width:0; stroke-opacity:1; 
stroke-linecap:round; stroke-linejoin:round;fill-rule:evenodd;"
d="M 60924.5,-8830.04
60985.5,-8804.78
61040.3,-8768.12
61087,-8721.45
61123.7,-8666.57
61148.9,-8605.6
61161.8,-8540.87
61161.8,-8474.88
61148.9,-8410.15
61123.7,-8349.17
61087,-8294.3
61040.3,-8247.63
60985.5,-8210.97
60924.5,-8185.71
60859.8,-8172.83
60793.8,-8172.83
60729,-8185.71
60668.1,-8210.97
60613.2,-8247.63
60566.5,-8294.3
60529.9,-8349.17
60504.6,-8410.15
60491.7,-8474.88
60491.7,-8540.87
60504.6,-8605.6
60529.9,-8666.57
60566.5,-8721.45
60613.2,-8768.12
60668.1,-8804.78
60729,-8830.04
60793.8,-8842.91
60859.8,-8842.91
Z" /> 
<path style="fill:#000000; fill-opacity:1.0; 
stroke:#000000; stroke-width:0; stroke-opacity:1; 
stroke-linecap:round; stroke-linejoin:round;fill-rule:evenodd;"
d="M 61908.8,-8830.04
61969.7,-8804.78
62024.6,-8768.12
62071.3,-8721.45
62107.9,-8666.57
62133.2,-8605.6
62146.1,-8540.87
62146.1,-8474.88
62133.2,-8410.15
62107.9,-8349.17
62071.3,-8294.3
62024.6,-8247.63
61969.7,-8210.97
61908.8,-8185.71
61844,-8172.83
61778,-8172.83
61713.3,-8185.71
61652.3,-8210.97
61597.4,-8247.63
61550.8,-8294.3
61514.1,-8349.17
61488.9,-8410.15
61476,-8474.88
61476,-8540.87
61488.9,-8605.6
61514.1,-8666.57
61550.8,-8721.45
61597.4,-8768.12
61652.3,-8804.78
61713.3,-8830.04
61778,-8842.91
61844,-8842.91
Z" /> 
<path style="fill:#000000; fill-opacity:1.0; 
stroke:#000000; stroke-width:0; stroke-opacity:1; 
stroke-linecap:round; stroke-linejoin:round;fill-rule:evenodd;"
d="M 54470.9,-9517.35
54507.2,-9502.34
54558.4,-9481.12
54637.1,-9428.51
54704.1,-9361.55
54756.7,-9282.82
54792.9,-9195.34
54811.4,-9102.46
54811.4,-9007.77
54792.9,-8914.9
54756.7,-8827.42
54704.1,-8748.68
54637.1,-8681.73
54558.4,-8629.12
54507.2,-8607.89
54470.9,-8592.88
54448,-8588.33
54378.1,-8574.41
54283.4,-8574.41
54213.4,-8588.33
54190.5,-8592.88
54154.3,-8607.89
54103,-8629.12
54024.3,-8681.73
53957.3,-8748.68
53904.7,-8827.42
53868.5,-8914.9
53850,-9007.77
53850,-9102.46
53868.5,-9195.34
53904.7,-9282.82
53957.3,-9361.55
54024.3,-9428.51
54103,-9481.12
54154.3,-9502.34
54190.5,-9517.35
54236.9,-9526.59
54283.4,-9535.83
54378.1,-9535.83
Z" /> 
<path style="fill:#000000; fill-opacity:1.0; 
stroke:#000000; stroke-width:0; stroke-opacity:1; 
stroke-linecap:round; stroke-linejoin:round;fill-rule:evenodd;"
d="M 64921.7,-9007.48
64212.2,-9007.48
64212.2,-9716.93
64921.7,-9716.93
Z" /> 
<path style="fill:#000000; fill-opacity:1.0; 
stroke:#000000; stroke-width:0; stroke-opacity:1; 
stroke-linecap:round; stroke-linejoin:round;fill-rule:evenodd;"
d="M 59038.7,-10117.4
59099.6,-10092.2
59154.5,-10055.5
59201.2,-10008.9
59237.9,-9953.98
59263.1,-9893
59276,-9828.27
59276,-9762.28
59263.1,-9697.55
59237.9,-9636.57
59201.2,-9581.7
59154.5,-9535.03
59099.6,-9498.37
59038.7,-9473.11
58973.9,-9460.24
58907.9,-9460.24
58843.2,-9473.11
58782.2,-9498.37
58727.4,-9535.03
58680.7,-9581.7
58644,-9636.57
58618.8,-9697.55
58605.9,-9762.28
58605.9,-9828.27
58618.8,-9893
58644,-9953.98
58680.7,-10008.9
58727.4,-10055.5
58782.2,-10092.2
58843.2,-10117.4
58907.9,-10130.3
58973.9,-10130.3
Z" /> 
<path style="fill:#000000; fill-opacity:1.0; 
stroke:#000000; stroke-width:0; stroke-opacity:1; 
stroke-linecap:round; stroke-linejoin:round;fill-rule:evenodd;"
d="M 56038.7,-10117.4
56099.6,-10092.2
56154.5,-10055.5
56201.2,-10008.9
56237.9,-9953.98
56263.1,-9893
56276,-9828.27
56276,-9762.28
56263.1,-9697.55
56237.9,-9636.57
56201.2,-9581.7
56154.5,-9535.03
56099.6,-9498.37
56038.7,-9473.11
55973.9,-9460.24
55907.9,-9460.24
55843.2,-9473.11
55782.2,-9498.37
55727.4,-9535.03
55680.7,-9581.7
55644,-9636.57
55618.8,-9697.55
55605.9,-9762.28
55605.9,-9828.27
55618.8,-9893
55644,-9953.98
55680.7,-10008.9
55727.4,-10055.5
55782.2,-10092.2
55843.2,-10117.4
55907.9,-10130.3
55973.9,-10130.3
Z" /> 
<path style="fill:#000000; fill-opacity:1.0; 
stroke:#000000; stroke-width:0; stroke-opacity:1; 
stroke-linecap:round; stroke-linejoin:round;fill-rule:evenodd;"
d="M 62696.2,-11003.3
62757.1,-10978
62812,-10941.3
62858.7,-10894.7
62895.3,-10839.8
62920.6,-10778.8
62933.5,-10714.1
62933.5,-10648.1
62920.6,-10583.4
62895.3,-10522.4
62858.7,-10467.5
62812,-10420.9
62757.1,-10384.2
62696.2,-10358.9
62631.4,-10346.1
62565.4,-10346.1
62500.7,-10358.9
62439.7,-10384.2
62384.8,-10420.9
62338.2,-10467.5
62301.5,-10522.4
62276.3,-10583.4
62263.4,-10648.1
62263.4,-10714.1
62276.3,-10778.8
62301.5,-10839.8
62338.2,-10894.7
62384.8,-10941.3
62439.7,-10978
62500.7,-11003.3
62565.4,-11016.1
62631.4,-11016.1
Z" /> 
<path style="fill:#000000; fill-opacity:1.0; 
stroke:#000000; stroke-width:0; stroke-opacity:1; 
stroke-linecap:round; stroke-linejoin:round;fill-rule:evenodd;"
d="M 60727.6,-11003.3
60788.6,-10978
60843.5,-10941.3
60890.2,-10894.7
60926.8,-10839.8
60952.1,-10778.8
60965,-10714.1
60965,-10648.1
60952.1,-10583.4
60926.8,-10522.4
60890.2,-10467.5
60843.5,-10420.9
60788.6,-10384.2
60727.6,-10358.9
60662.9,-10346.1
60596.9,-10346.1
60532.2,-10358.9
60471.2,-10384.2
60416.3,-10420.9
60369.7,-10467.5
60333,-10522.4
60307.8,-10583.4
60294.9,-10648.1
60294.9,-10714.1
60307.8,-10778.8
60333,-10839.8
60369.7,-10894.7
60416.3,-10941.3
60471.2,-10978
60532.2,-11003.3
60596.9,-11016.1
60662.9,-11016.1
Z" /> 
<path style="fill:#000000; fill-opacity:1.0; 
stroke:#000000; stroke-width:0; stroke-opacity:1; 
stroke-linecap:round; stroke-linejoin:round;fill-rule:evenodd;"
d="M 59038.7,-11117.4
59099.6,-11092.2
59154.5,-11055.5
59201.2,-11008.9
59237.9,-10954
59263.1,-10893
59276,-10828.3
59276,-10762.3
59263.1,-10697.5
59237.9,-10636.6
59201.2,-10581.7
59154.5,-10535
59099.6,-10498.4
59038.7,-10473.1
58973.9,-10460.2
58907.9,-10460.2
58843.2,-10473.1
58782.2,-10498.4
58727.4,-10535
58680.7,-10581.7
58644,-10636.6
58618.8,-10697.5
58605.9,-10762.3
58605.9,-10828.3
58618.8,-10893
58644,-10954
58680.7,-11008.9
58727.4,-11055.5
58782.2,-11092.2
58843.2,-11117.4
58907.9,-11130.3
58973.9,-11130.3
Z" /> 
<path style="fill:#000000; fill-opacity:1.0; 
stroke:#000000; stroke-width:0; stroke-opacity:1; 
stroke-linecap:round; stroke-linejoin:round;fill-rule:evenodd;"
d="M 56038.7,-11117.4
56099.6,-11092.2
56154.5,-11055.5
56201.2,-11008.9
56237.9,-10954
56263.1,-10893
56276,-10828.3
56276,-10762.3
56263.1,-10697.5
56237.9,-10636.6
56201.2,-10581.7
56154.5,-10535
56099.6,-10498.4
56038.7,-10473.1
55973.9,-10460.2
55907.9,-10460.2
55843.2,-10473.1
55782.2,-10498.4
55727.4,-10535
55680.7,-10581.7
55644,-10636.6
55618.8,-10697.5
55605.9,-10762.3
55605.9,-10828.3
55618.8,-10893
55644,-10954
55680.7,-11008.9
55727.4,-11055.5
55782.2,-11092.2
55843.2,-11117.4
55907.9,-11130.3
55973.9,-11130.3
Z" /> 
<path style="fill:#000000; fill-opacity:1.0; 
stroke:#000000; stroke-width:0; stroke-opacity:1; 
stroke-linecap:round; stroke-linejoin:round;fill-rule:evenodd;"
d="M 54408,-11498.4
54470.9,-11485.9
54501.7,-11473.1
54558.4,-11449.6
54637.1,-11397
54704.1,-11330.1
54756.7,-11251.3
54777.9,-11200.1
54792.9,-11163.8
54811.4,-11071
54811.4,-10976.3
54794.9,-10893
54792.9,-10883.4
54756.7,-10795.9
54704.1,-10717.2
54637.1,-10650.2
54558.4,-10597.6
54520,-10581.7
54470.9,-10561.4
54378.1,-10542.9
54283.4,-10542.9
54190.5,-10561.4
54141.4,-10581.7
54103,-10597.6
54024.3,-10650.2
53957.3,-10717.2
53904.7,-10795.9
53868.5,-10883.4
53866.6,-10893
53850,-10976.3
53850,-11071
53868.5,-11163.8
53883.5,-11200.1
53904.7,-11251.3
53957.3,-11330.1
54024.3,-11397
54103,-11449.6
54159.7,-11473.1
54190.5,-11485.9
54253.4,-11498.4
54283.4,-11504.3
54378.1,-11504.3
Z" /> 
<path style="fill:#000000; fill-opacity:1.0; 
stroke:#000000; stroke-width:0; stroke-opacity:1; 
stroke-linecap:round; stroke-linejoin:round;fill-rule:evenodd;"
d="M 64921.7,-11440.6
64212.2,-11440.6
64212.2,-12150
64921.7,-12150
Z" /> 
<path style="fill:#000000; fill-opacity:1.0; 
stroke:#000000; stroke-width:0; stroke-opacity:1; 
stroke-linecap:round; stroke-linejoin:round;fill-rule:evenodd;"
d="M 56038.7,-12117.4
56099.6,-12092.2
56154.5,-12055.5
56201.2,-12008.9
56237.9,-11954
56263.1,-11893
56276,-11828.3
56276,-11762.3
56263.1,-11697.5
56237.9,-11636.6
56201.2,-11581.7
56154.5,-11535
56099.6,-11498.4
56038.7,-11473.1
55973.9,-11460.2
55907.9,-11460.2
55843.2,-11473.1
55782.2,-11498.4
55727.4,-11535
55680.7,-11581.7
55644,-11636.6
55618.8,-11697.5
55605.9,-11762.3
55605.9,-11828.3
55618.8,-11893
55644,-11954
55680.7,-12008.9
55727.4,-12055.5
55782.2,-12092.2
55843.2,-12117.4
55907.9,-12130.3
55973.9,-12130.3
Z" /> 
<path style="fill:#000000; fill-opacity:1.0; 
stroke:#000000; stroke-width:0; stroke-opacity:1; 
stroke-linecap:round; stroke-linejoin:round;fill-rule:evenodd;"
d="M 59038.7,-12117.4
59099.6,-12092.2
59154.5,-12055.5
59201.2,-12008.9
59237.9,-11954
59263.1,-11893
59276,-11828.3
59276,-11762.3
59263.1,-11697.5
59237.9,-11636.6
59201.2,-11581.7
59154.5,-11535
59099.6,-11498.4
59038.7,-11473.1
58973.9,-11460.2
58907.9,-11460.2
58843.2,-11473.1
58782.2,-11498.4
58727.4,-11535
58680.7,-11581.7
58644,-11636.6
58618.8,-11697.5
58605.9,-11762.3
58605.9,-11828.3
58618.8,-11893
58644,-11954
58680.7,-12008.9
58727.4,-12055.5
58782.2,-12092.2
58843.2,-12117.4
58907.9,-12130.3
58973.9,-12130.3
Z" /> 
<path style="fill:#000000; fill-opacity:1.0; 
stroke:#000000; stroke-width:0; stroke-opacity:1; 
stroke-linecap:round; stroke-linejoin:round;fill-rule:evenodd;"
d="M 60275.2,-12095.3
60329,-12073
60377.5,-12040.7
60418.6,-11999.5
60451,-11951.1
60473.3,-11897.3
60484.6,-11840.1
60484.6,-11781.9
60473.3,-11724.8
60451,-11671
60418.6,-11622.5
60377.5,-11581.4
60329,-11549
60329,-11549
60329,-11549
60275.2,-11526.7
60218.1,-11515.4
60159.9,-11515.4
60102.7,-11526.7
60048.9,-11549
60048.9,-11549
60048.9,-11549
60000.5,-11581.4
59959.3,-11622.5
59927,-11671
59904.7,-11724.8
59893.3,-11781.9
59893.3,-11840.1
59904.7,-11897.3
59927,-11951.1
59959.3,-11999.5
60000.5,-12040.7
60048.9,-12073
60102.7,-12095.3
60159.9,-12106.7
60218.1,-12106.7
Z" /> 
<path style="fill:#000000; fill-opacity:1.0; 
stroke:#000000; stroke-width:0; stroke-opacity:1; 
stroke-linecap:round; stroke-linejoin:round;fill-rule:evenodd;"
d="M 63275.2,-12095.3
63329,-12073
63377.5,-12040.7
63418.6,-11999.5
63451,-11951.1
63473.3,-11897.3
63484.6,-11840.1
63484.6,-11781.9
63473.3,-11724.8
63451,-11671
63418.6,-11622.5
63377.5,-11581.4
63329,-11549
63329,-11549
63329,-11549
63275.2,-11526.7
63218.1,-11515.4
63159.9,-11515.4
63102.7,-11526.7
63048.9,-11549
63048.9,-11549
63048.9,-11549
63000.5,-11581.4
62959.3,-11622.5
62927,-11671
62904.7,-11724.8
62893.3,-11781.9
62893.3,-11840.1
62904.7,-11897.3
62927,-11951.1
62959.3,-11999.5
63000.5,-12040.7
63048.9,-12073
63102.7,-12095.3
63159.9,-12106.7
63218.1,-12106.7
Z" /> 
<path style="fill:#000000; fill-opacity:1.0; 
stroke:#000000; stroke-width:0; stroke-opacity:1; 
stroke-linecap:round; stroke-linejoin:round;fill-rule:evenodd;"
d="M 64611.6,-13148.1
64670.4,-13136.4
64735,-13109.6
64793.1,-13070.8
64842.5,-13021.4
64881.3,-12963.3
64908,-12898.7
64921.7,-12830.2
64921.7,-12760.3
64908,-12691.8
64881.3,-12627.3
64842.5,-12569.2
64793.1,-12519.7
64735,-12480.9
64670.4,-12454.2
64611.6,-12442.5
64601.9,-12440.6
64532,-12440.6
64522.2,-12442.5
64463.5,-12454.2
64398.9,-12480.9
64340.8,-12519.7
64291.4,-12569.2
64252.6,-12627.3
64225.8,-12691.8
64212.2,-12760.3
64212.2,-12830.2
64225.8,-12898.7
64252.6,-12963.3
64291.4,-13021.4
64340.8,-13070.8
64398.9,-13109.6
64463.5,-13136.4
64522.2,-13148.1
64532,-13150
64601.9,-13150
Z" /> 
<path style="fill:#000000; fill-opacity:1.0; 
stroke:#000000; stroke-width:0; stroke-opacity:1; 
stroke-linecap:round; stroke-linejoin:round;fill-rule:evenodd;"
d="M 56276,-12460.2
55605.9,-12460.2
55605.9,-13130.3
56276,-13130.3
Z" /> 
<path style="fill:#000000; fill-opacity:1.0; 
stroke:#000000; stroke-width:0; stroke-opacity:1; 
stroke-linecap:round; stroke-linejoin:round;fill-rule:evenodd;"
d="M 59038.7,-13117.4
59099.6,-13092.2
59154.5,-13055.5
59201.2,-13008.9
59237.9,-12954
59263.1,-12893
59276,-12828.3
59276,-12762.3
59263.1,-12697.5
59237.9,-12636.6
59201.2,-12581.7
59154.5,-12535
59099.6,-12498.4
59038.7,-12473.1
58973.9,-12460.2
58907.9,-12460.2
58843.2,-12473.1
58782.2,-12498.4
58727.4,-12535
58680.7,-12581.7
58644,-12636.6
58618.8,-12697.5
58605.9,-12762.3
58605.9,-12828.3
58618.8,-12893
58644,-12954
58680.7,-13008.9
58727.4,-13055.5
58782.2,-13092.2
58843.2,-13117.4
58907.9,-13130.3
58973.9,-13130.3
Z" /> 
<path style="fill:#000000; fill-opacity:1.0; 
stroke:#000000; stroke-width:0; stroke-opacity:1; 
stroke-linecap:round; stroke-linejoin:round;fill-rule:evenodd;"
d="M 60275.2,-13079.6
60296.4,-13070.8
60329,-13057.3
60377.5,-13024.9
60418.6,-12983.8
60451,-12935.3
60451,-12935.3
60473.3,-12881.5
60484.6,-12824.4
60484.6,-12766.2
60483.5,-12760.3
60473.3,-12709
60451,-12655.2
60418.6,-12606.8
60377.5,-12565.6
60329,-12533.3
60329,-12533.3
60329,-12533.3
60275.2,-12511
60218.1,-12499.6
60159.9,-12499.6
60102.7,-12511
60048.9,-12533.3
60048.9,-12533.3
60048.9,-12533.3
60000.5,-12565.6
59959.3,-12606.8
59927,-12655.2
59904.7,-12709
59894.5,-12760.3
59893.3,-12766.2
59893.3,-12824.4
59904.7,-12881.5
59927,-12935.3
59927,-12935.3
59959.3,-12983.8
60000.5,-13024.9
60048.9,-13057.3
60081.5,-13070.8
60102.7,-13079.6
60159.9,-13090.9
60218.1,-13090.9
Z" /> 
<path style="fill:#000000; fill-opacity:1.0; 
stroke:#000000; stroke-width:0; stroke-opacity:1; 
stroke-linecap:round; stroke-linejoin:round;fill-rule:evenodd;"
d="M 63275.2,-13079.6
63296.4,-13070.8
63329,-13057.3
63377.5,-13024.9
63418.6,-12983.8
63451,-12935.3
63451,-12935.3
63473.3,-12881.5
63484.6,-12824.4
63484.6,-12766.2
63483.5,-12760.3
63473.3,-12709
63451,-12655.2
63418.6,-12606.8
63377.5,-12565.6
63329,-12533.3
63329,-12533.3
63329,-12533.3
63275.2,-12511
63218.1,-12499.6
63159.9,-12499.6
63102.7,-12511
63048.9,-12533.3
63048.9,-12533.3
63048.9,-12533.3
63000.5,-12565.6
62959.3,-12606.8
62927,-12655.2
62904.7,-12709
62894.5,-12760.3
62893.3,-12766.2
62893.3,-12824.4
62904.7,-12881.5
62927,-12935.3
62927,-12935.3
62959.3,-12983.8
63000.5,-13024.9
63048.9,-13057.3
63081.5,-13070.8
63102.7,-13079.6
63159.9,-13090.9
63218.1,-13090.9
Z" /> 
<path style="fill:#000000; fill-opacity:1.0; 
stroke:#000000; stroke-width:0; stroke-opacity:1; 
stroke-linecap:round; stroke-linejoin:round;fill-rule:evenodd;"
d="M 54424.5,-13463.6
54470.9,-13454.4
54507.2,-13439.4
54558.4,-13418.1
54637.1,-13365.5
54704.1,-13298.6
54756.7,-13219.8
54777.9,-13168.6
54792.9,-13132.3
54811.4,-13039.5
54811.4,-12944.8
54792.9,-12851.9
54784,-12830.2
54756.7,-12764.4
54704.1,-12685.7
54637.1,-12618.7
54558.4,-12566.1
54507.2,-12544.9
54470.9,-12529.9
54424.5,-12520.7
54378.1,-12511.4
54283.4,-12511.4
54236.9,-12520.7
54190.5,-12529.9
54154.3,-12544.9
54103,-12566.1
54024.3,-12618.7
53957.3,-12685.7
53904.7,-12764.4
53877.5,-12830.2
53868.5,-12851.9
53850,-12944.8
53850,-13039.5
53868.5,-13132.3
53883.5,-13168.6
53904.7,-13219.8
53957.3,-13298.6
54024.3,-13365.5
54103,-13418.1
54154.3,-13439.4
54190.5,-13454.4
54236.9,-13463.6
54283.4,-13472.8
54378.1,-13472.8
Z" /> 
</g> 
</svg>
