EESchema Schematic File Version 4
EELAYER 30 0
EELAYER END
$Descr A4 11693 8268
encoding utf-8
Sheet 1 1
Title ""
Date ""
Rev ""
Comp ""
Comment1 ""
Comment2 ""
Comment3 ""
Comment4 ""
$EndDescr
$Comp
L Amplifier_Audio:LM386 U1
U 1 1 655A63A9
P 5400 2950
F 0 "U1" H 5450 3250 50  0000 L CNN
F 1 "LM386" H 5450 3150 50  0000 L CNN
F 2 "Package_DIP:DIP-8_W7.62mm_Socket" H 5500 3050 50  0001 C CNN
F 3 "http://www.ti.com/lit/ds/symlink/lm386.pdf" H 5600 3150 50  0001 C CNN
	1    5400 2950
	1    0    0    -1  
$EndComp
Wire Wire Line
	5100 3050 5100 3250
Wire Wire Line
	5100 3250 5300 3250
$Comp
L power:Earth #PWR0101
U 1 1 655A6B65
P 5100 3250
F 0 "#PWR0101" H 5100 3000 50  0001 C CNN
F 1 "Earth" H 5100 3100 50  0001 C CNN
F 2 "" H 5100 3250 50  0001 C CNN
F 3 "~" H 5100 3250 50  0001 C CNN
	1    5100 3250
	1    0    0    -1  
$EndComp
Connection ~ 5100 3250
$Comp
L Device:C C1
U 1 1 655A6C3F
P 4900 2550
F 0 "C1" V 4648 2550 50  0000 C CNN
F 1 "1uF" V 4739 2550 50  0000 C CNN
F 2 "Capacitor_THT:C_Radial_D6.3mm_H7.0mm_P2.50mm" H 4938 2400 50  0001 C CNN
F 3 "~" H 4900 2550 50  0001 C CNN
	1    4900 2550
	1    0    0    -1  
$EndComp
$Comp
L Device:R_POT RV1
U 1 1 655A7173
P 4900 2850
F 0 "RV1" H 4830 2896 50  0000 R CNN
F 1 "1K" H 4830 2805 50  0000 R CNN
F 2 "Potentiometer_THT:Potentiometer_Omeg_PC16BU_Vertical" H 4900 2850 50  0001 C CNN
F 3 "~" H 4900 2850 50  0001 C CNN
	1    4900 2850
	1    0    0    -1  
$EndComp
$Comp
L power:Earth #PWR0102
U 1 1 655A7649
P 4900 3000
F 0 "#PWR0102" H 4900 2750 50  0001 C CNN
F 1 "Earth" H 4900 2850 50  0001 C CNN
F 2 "" H 4900 3000 50  0001 C CNN
F 3 "~" H 4900 3000 50  0001 C CNN
	1    4900 3000
	1    0    0    -1  
$EndComp
$Comp
L Device:R R1
U 1 1 655A778B
P 4900 2250
F 0 "R1" H 4970 2296 50  0000 L CNN
F 1 "1K" H 4970 2205 50  0000 L CNN
F 2 "Resistor_THT:R_Axial_DIN0204_L3.6mm_D1.6mm_P7.62mm_Horizontal" V 4830 2250 50  0001 C CNN
F 3 "~" H 4900 2250 50  0001 C CNN
	1    4900 2250
	1    0    0    -1  
$EndComp
$Comp
L Device:C C2
U 1 1 655A7AC6
P 5700 3100
F 0 "C2" H 5800 3100 50  0000 L CNN
F 1 "1nF" H 5750 3000 50  0000 L CNN
F 2 "Capacitor_THT:C_Disc_D8.0mm_W2.5mm_P5.00mm" H 5738 2950 50  0001 C CNN
F 3 "~" H 5700 3100 50  0001 C CNN
	1    5700 3100
	1    0    0    -1  
$EndComp
$Comp
L Device:R R2
U 1 1 655A7DDE
P 5700 3400
F 0 "R2" H 5770 3446 50  0000 L CNN
F 1 "10R" H 5770 3355 50  0000 L CNN
F 2 "Resistor_THT:R_Axial_DIN0204_L3.6mm_D1.6mm_P7.62mm_Horizontal" V 5630 3400 50  0001 C CNN
F 3 "~" H 5700 3400 50  0001 C CNN
	1    5700 3400
	1    0    0    -1  
$EndComp
$Comp
L power:Earth #PWR0103
U 1 1 655A830C
P 5700 3550
F 0 "#PWR0103" H 5700 3300 50  0001 C CNN
F 1 "Earth" H 5700 3400 50  0001 C CNN
F 2 "" H 5700 3550 50  0001 C CNN
F 3 "~" H 5700 3550 50  0001 C CNN
	1    5700 3550
	1    0    0    -1  
$EndComp
$Comp
L Device:C C3
U 1 1 655A9326
P 5850 2950
F 0 "C3" V 5598 2950 50  0000 C CNN
F 1 "220uF" V 5689 2950 50  0000 C CNN
F 2 "Capacitor_THT:C_Radial_D10.0mm_H12.5mm_P5.00mm" H 5888 2800 50  0001 C CNN
F 3 "~" H 5850 2950 50  0001 C CNN
	1    5850 2950
	0    1    1    0   
$EndComp
Connection ~ 5700 2950
$Comp
L power:Earth #PWR0104
U 1 1 655A9F58
P 6000 3200
F 0 "#PWR0104" H 6000 2950 50  0001 C CNN
F 1 "Earth" H 6000 3050 50  0001 C CNN
F 2 "" H 6000 3200 50  0001 C CNN
F 3 "~" H 6000 3200 50  0001 C CNN
	1    6000 3200
	1    0    0    -1  
$EndComp
$Comp
L power:Earth #PWR0105
U 1 1 655AA496
P 6100 2550
F 0 "#PWR0105" H 6100 2300 50  0001 C CNN
F 1 "Earth" H 6100 2400 50  0001 C CNN
F 2 "" H 6100 2550 50  0001 C CNN
F 3 "~" H 6100 2550 50  0001 C CNN
	1    6100 2550
	1    0    0    -1  
$EndComp
$Comp
L Device:C C4
U 1 1 655AA89E
P 6100 2400
F 0 "C4" H 6215 2446 50  0000 L CNN
F 1 "2.2uF" H 6215 2355 50  0000 L CNN
F 2 "Capacitor_THT:C_Radial_D6.3mm_H7.0mm_P2.50mm" H 6138 2250 50  0001 C CNN
F 3 "~" H 6100 2400 50  0001 C CNN
	1    6100 2400
	1    0    0    -1  
$EndComp
$Comp
L power:+6V #PWR0106
U 1 1 655AAF2D
P 6100 2250
F 0 "#PWR0106" H 6100 2100 50  0001 C CNN
F 1 "+6V" H 6115 2423 50  0000 C CNN
F 2 "" H 6100 2250 50  0001 C CNN
F 3 "" H 6100 2250 50  0001 C CNN
	1    6100 2250
	1    0    0    -1  
$EndComp
$Comp
L power:+6V #PWR0107
U 1 1 655AB7B3
P 5300 2650
F 0 "#PWR0107" H 5300 2500 50  0001 C CNN
F 1 "+6V" H 5315 2823 50  0000 C CNN
F 2 "" H 5300 2650 50  0001 C CNN
F 3 "" H 5300 2650 50  0001 C CNN
	1    5300 2650
	1    0    0    -1  
$EndComp
Text Label 4950 1950 0    50   ~ 0
Input_Spring
Wire Wire Line
	6000 3050 6000 3200
Wire Wire Line
	5050 2850 5100 2850
$Comp
L Connector:Conn_01x02_Male J1
U 1 1 66726456
P 5000 1900
F 0 "J1" V 5062 1944 50  0000 L CNN
F 1 "Input" V 5153 1944 50  0000 L CNN
F 2 "Connector_PinHeader_2.54mm:PinHeader_1x02_P2.54mm_Vertical" H 5000 1900 50  0001 C CNN
F 3 "~" H 5000 1900 50  0001 C CNN
	1    5000 1900
	0    1    1    0   
$EndComp
$Comp
L Connector:Conn_01x02_Male J2
U 1 1 6672803D
P 6200 3050
F 0 "J2" H 6172 2932 50  0000 R CNN
F 1 "Speaker" H 6172 3023 50  0000 R CNN
F 2 "Connector_PinHeader_2.54mm:PinHeader_1x02_P2.54mm_Vertical" H 6200 3050 50  0001 C CNN
F 3 "~" H 6200 3050 50  0001 C CNN
	1    6200 3050
	-1   0    0    1   
$EndComp
$Comp
L power:Earth #PWR0108
U 1 1 6672ED73
P 5000 2100
F 0 "#PWR0108" H 5000 1850 50  0001 C CNN
F 1 "Earth" H 5000 1950 50  0001 C CNN
F 2 "" H 5000 2100 50  0001 C CNN
F 3 "~" H 5000 2100 50  0001 C CNN
	1    5000 2100
	1    0    0    -1  
$EndComp
$Comp
L Connector:Conn_01x02_Male J3
U 1 1 6672F598
P 6550 2400
F 0 "J3" H 6658 2581 50  0000 C CNN
F 1 "Power" H 6658 2490 50  0000 C CNN
F 2 "Connector_PinHeader_2.54mm:PinHeader_1x02_P2.54mm_Vertical" H 6550 2400 50  0001 C CNN
F 3 "~" H 6550 2400 50  0001 C CNN
	1    6550 2400
	1    0    0    -1  
$EndComp
$Comp
L power:Earth #PWR0109
U 1 1 66730610
P 6750 2500
F 0 "#PWR0109" H 6750 2250 50  0001 C CNN
F 1 "Earth" H 6750 2350 50  0001 C CNN
F 2 "" H 6750 2500 50  0001 C CNN
F 3 "~" H 6750 2500 50  0001 C CNN
	1    6750 2500
	1    0    0    -1  
$EndComp
$Comp
L power:+6V #PWR0110
U 1 1 667313F6
P 6750 2400
F 0 "#PWR0110" H 6750 2250 50  0001 C CNN
F 1 "+6V" H 6765 2573 50  0000 C CNN
F 2 "" H 6750 2400 50  0001 C CNN
F 3 "" H 6750 2400 50  0001 C CNN
	1    6750 2400
	1    0    0    -1  
$EndComp
$EndSCHEMATC
