<?xml version="1.0" encoding="UTF-8" standalone="no"?>
<!-- Created with Inkscape (http://www.inkscape.org/) -->

<svg
   xmlns:dc="http://purl.org/dc/elements/1.1/"
   xmlns:cc="http://creativecommons.org/ns#"
   xmlns:rdf="http://www.w3.org/1999/02/22-rdf-syntax-ns#"
   xmlns:svg="http://www.w3.org/2000/svg"
   xmlns="http://www.w3.org/2000/svg"
   xmlns:sodipodi="http://sodipodi.sourceforge.net/DTD/sodipodi-0.dtd"
   xmlns:inkscape="http://www.inkscape.org/namespaces/inkscape"
   width="297mm"
   height="210mm"
   viewBox="0 0 297 210"
   version="1.1"
   id="svg2225"
   inkscape:version="0.92.5 (2060ec1f9f, 2020-04-08)"
   sodipodi:docname="layout-v2.svg">
  <defs
     id="defs2219" />
  <sodipodi:namedview
     id="base"
     pagecolor="#ffffff"
     bordercolor="#666666"
     borderopacity="1.0"
     inkscape:pageopacity="0.0"
     inkscape:pageshadow="2"
     inkscape:zoom="1.1157016"
     inkscape:cx="567.40206"
     inkscape:cy="255.08079"
     inkscape:document-units="mm"
     inkscape:current-layer="layer1"
     showgrid="true"
     inkscape:snap-bbox="true"
     inkscape:snap-bbox-midpoints="true"
     inkscape:bbox-nodes="true"
     inkscape:window-width="2184"
     inkscape:window-height="1426"
     inkscape:window-x="72"
     inkscape:window-y="41"
     inkscape:window-maximized="1"
     inkscape:snap-bbox-edge-midpoints="true">
    <inkscape:grid
       type="xygrid"
       id="grid2770"
       units="mm"
       spacingx="1"
       spacingy="1"
       empspacing="10" />
  </sodipodi:namedview>
  <metadata
     id="metadata2222">
    <rdf:RDF>
      <cc:Work
         rdf:about="">
        <dc:format>image/svg+xml</dc:format>
        <dc:type
           rdf:resource="http://purl.org/dc/dcmitype/StillImage" />
        <dc:title />
      </cc:Work>
    </rdf:RDF>
  </metadata>
  <g
     inkscape:label="Layer 1"
     inkscape:groupmode="layer"
     id="layer1"
     transform="translate(0,-87)">
    <g
       id="g2861"
       transform="translate(3.750036,3.4119701e-6)"
       style="fill:none" />
    <g
       id="g2861-7"
       transform="translate(22.546007,22.738083)"
       style="fill:none">
      <path
         d="m 13.500011,97.000038 a 3.5,3.5 0 0 1 -3.423922,3.499172 3.5,3.5 0 0 1 -3.5727703,-3.347053 3.5,3.5 0 0 1 3.2686047,-3.644679 3.5,3.5 0 0 1 3.7148656,3.18861"
         sodipodi:open="true"
         sodipodi:end="6.196233"
         sodipodi:start="0"
         sodipodi:ry="3.5"
         sodipodi:rx="3.5"
         sodipodi:cy="97.000038"
         sodipodi:cx="10.000011"
         sodipodi:type="arc"
         id="path2808-53"
         style="fill:none;fill-opacity:1;stroke:#000000;stroke-width:0.5;stroke-linecap:round;stroke-linejoin:round;stroke-miterlimit:4;stroke-dasharray:none;stroke-opacity:1" />
      <path
         d="m 43.500011,97.000038 a 3.5,3.5 0 0 1 -3.423922,3.499172 3.5,3.5 0 0 1 -3.57277,-3.347053 3.5,3.5 0 0 1 3.268604,-3.644679 3.5,3.5 0 0 1 3.714866,3.18861"
         sodipodi:open="true"
         sodipodi:end="6.196233"
         sodipodi:start="0"
         sodipodi:ry="3.5"
         sodipodi:rx="3.5"
         sodipodi:cy="97.000038"
         sodipodi:cx="40.000011"
         sodipodi:type="arc"
         id="path2808-6-5"
         style="fill:none;fill-opacity:1;stroke:#000000;stroke-width:0.5;stroke-linecap:round;stroke-linejoin:round;stroke-miterlimit:4;stroke-dasharray:none;stroke-opacity:1" />
      <circle
         r="1"
         cy="97"
         cx="20"
         id="path2840-6"
         style="fill:none;fill-opacity:1;stroke:#000000;stroke-width:0.5;stroke-linecap:round;stroke-linejoin:round;stroke-miterlimit:4;stroke-dasharray:none;stroke-opacity:1" />
      <circle
         r="1"
         cy="97"
         cx="30"
         id="path2840-5-2"
         style="fill:none;fill-opacity:1;stroke:#000000;stroke-width:0.5;stroke-linecap:round;stroke-linejoin:round;stroke-miterlimit:4;stroke-dasharray:none;stroke-opacity:1" />
    </g>
    <g
       transform="translate(22.546007,42.738071)"
       id="g2861-3-9"
       style="fill:none">
      <path
         d="m 13.500011,97.000038 a 3.5,3.5 0 0 1 -3.423922,3.499172 3.5,3.5 0 0 1 -3.5727703,-3.347053 3.5,3.5 0 0 1 3.2686047,-3.644679 3.5,3.5 0 0 1 3.7148656,3.18861"
         sodipodi:open="true"
         sodipodi:end="6.196233"
         sodipodi:start="0"
         sodipodi:ry="3.5"
         sodipodi:rx="3.5"
         sodipodi:cy="97.000038"
         sodipodi:cx="10.000011"
         sodipodi:type="arc"
         id="path2808-5-1"
         style="fill:none;fill-opacity:1;stroke:#000000;stroke-width:0.5;stroke-linecap:round;stroke-linejoin:round;stroke-miterlimit:4;stroke-dasharray:none;stroke-opacity:1" />
      <path
         d="m 43.500011,97.000038 a 3.5,3.5 0 0 1 -3.423922,3.499172 3.5,3.5 0 0 1 -3.57277,-3.347053 3.5,3.5 0 0 1 3.268604,-3.644679 3.5,3.5 0 0 1 3.714866,3.18861"
         sodipodi:open="true"
         sodipodi:end="6.196233"
         sodipodi:start="0"
         sodipodi:ry="3.5"
         sodipodi:rx="3.5"
         sodipodi:cy="97.000038"
         sodipodi:cx="40.000011"
         sodipodi:type="arc"
         id="path2808-6-6-2"
         style="fill:none;fill-opacity:1;stroke:#000000;stroke-width:0.5;stroke-linecap:round;stroke-linejoin:round;stroke-miterlimit:4;stroke-dasharray:none;stroke-opacity:1" />
      <circle
         r="1"
         cy="97"
         cx="20"
         id="path2840-2-7"
         style="fill:none;fill-opacity:1;stroke:#000000;stroke-width:0.5;stroke-linecap:round;stroke-linejoin:round;stroke-miterlimit:4;stroke-dasharray:none;stroke-opacity:1" />
      <circle
         r="1"
         cy="97"
         cx="30"
         id="path2840-5-9-0"
         style="fill:none;fill-opacity:1;stroke:#000000;stroke-width:0.5;stroke-linecap:round;stroke-linejoin:round;stroke-miterlimit:4;stroke-dasharray:none;stroke-opacity:1" />
    </g>
    <g
       transform="translate(22.546007,62.738059)"
       id="g2861-1-9"
       style="fill:none">
      <path
         d="m 13.500011,97.000038 a 3.5,3.5 0 0 1 -3.423922,3.499172 3.5,3.5 0 0 1 -3.5727703,-3.347053 3.5,3.5 0 0 1 3.2686047,-3.644679 3.5,3.5 0 0 1 3.7148656,3.18861"
         sodipodi:open="true"
         sodipodi:end="6.196233"
         sodipodi:start="0"
         sodipodi:ry="3.5"
         sodipodi:rx="3.5"
         sodipodi:cy="97.000038"
         sodipodi:cx="10.000011"
         sodipodi:type="arc"
         id="path2808-2-3"
         style="fill:none;fill-opacity:1;stroke:#000000;stroke-width:0.5;stroke-linecap:round;stroke-linejoin:round;stroke-miterlimit:4;stroke-dasharray:none;stroke-opacity:1" />
      <path
         d="m 43.500011,97.000038 a 3.5,3.5 0 0 1 -3.423922,3.499172 3.5,3.5 0 0 1 -3.57277,-3.347053 3.5,3.5 0 0 1 3.268604,-3.644679 3.5,3.5 0 0 1 3.714866,3.18861"
         sodipodi:open="true"
         sodipodi:end="6.196233"
         sodipodi:start="0"
         sodipodi:ry="3.5"
         sodipodi:rx="3.5"
         sodipodi:cy="97.000038"
         sodipodi:cx="40.000011"
         sodipodi:type="arc"
         id="path2808-6-7-6"
         style="fill:none;fill-opacity:1;stroke:#000000;stroke-width:0.5;stroke-linecap:round;stroke-linejoin:round;stroke-miterlimit:4;stroke-dasharray:none;stroke-opacity:1" />
      <circle
         r="1"
         cy="97"
         cx="20"
         id="path2840-0-0"
         style="fill:none;fill-opacity:1;stroke:#000000;stroke-width:0.5;stroke-linecap:round;stroke-linejoin:round;stroke-miterlimit:4;stroke-dasharray:none;stroke-opacity:1" />
      <circle
         r="1"
         cy="97"
         cx="30"
         id="path2840-5-93-6"
         style="fill:none;fill-opacity:1;stroke:#000000;stroke-width:0.5;stroke-linecap:round;stroke-linejoin:round;stroke-miterlimit:4;stroke-dasharray:none;stroke-opacity:1" />
    </g>
    <g
       id="g2861-37-2"
       transform="translate(22.546007,82.738032)"
       style="fill:none">
      <path
         d="m 13.500011,97.000038 a 3.5,3.5 0 0 1 -3.423922,3.499172 3.5,3.5 0 0 1 -3.5727703,-3.347053 3.5,3.5 0 0 1 3.2686047,-3.644679 3.5,3.5 0 0 1 3.7148656,3.18861"
         sodipodi:open="true"
         sodipodi:end="6.196233"
         sodipodi:start="0"
         sodipodi:ry="3.5"
         sodipodi:rx="3.5"
         sodipodi:cy="97.000038"
         sodipodi:cx="10.000011"
         sodipodi:type="arc"
         id="path2808-59-6"
         style="fill:none;fill-opacity:1;stroke:#000000;stroke-width:0.5;stroke-linecap:round;stroke-linejoin:round;stroke-miterlimit:4;stroke-dasharray:none;stroke-opacity:1" />
      <path
         d="m 43.500011,97.000038 a 3.5,3.5 0 0 1 -3.423922,3.499172 3.5,3.5 0 0 1 -3.57277,-3.347053 3.5,3.5 0 0 1 3.268604,-3.644679 3.5,3.5 0 0 1 3.714866,3.18861"
         sodipodi:open="true"
         sodipodi:end="6.196233"
         sodipodi:start="0"
         sodipodi:ry="3.5"
         sodipodi:rx="3.5"
         sodipodi:cy="97.000038"
         sodipodi:cx="40.000011"
         sodipodi:type="arc"
         id="path2808-6-2-1"
         style="fill:none;fill-opacity:1;stroke:#000000;stroke-width:0.5;stroke-linecap:round;stroke-linejoin:round;stroke-miterlimit:4;stroke-dasharray:none;stroke-opacity:1" />
      <circle
         r="1"
         cy="97"
         cx="20"
         id="path2840-28-8"
         style="fill:none;fill-opacity:1;stroke:#000000;stroke-width:0.5;stroke-linecap:round;stroke-linejoin:round;stroke-miterlimit:4;stroke-dasharray:none;stroke-opacity:1" />
      <circle
         r="1"
         cy="97"
         cx="30"
         id="path2840-5-97-7"
         style="fill:none;fill-opacity:1;stroke:#000000;stroke-width:0.5;stroke-linecap:round;stroke-linejoin:round;stroke-miterlimit:4;stroke-dasharray:none;stroke-opacity:1" />
    </g>
    <g
       transform="translate(22.546007,102.73802)"
       id="g2861-3-3-9"
       style="fill:none">
      <path
         d="m 13.500011,97.000038 a 3.5,3.5 0 0 1 -3.423922,3.499172 3.5,3.5 0 0 1 -3.5727703,-3.347053 3.5,3.5 0 0 1 3.2686047,-3.644679 3.5,3.5 0 0 1 3.7148656,3.18861"
         sodipodi:open="true"
         sodipodi:end="6.196233"
         sodipodi:start="0"
         sodipodi:ry="3.5"
         sodipodi:rx="3.5"
         sodipodi:cy="97.000038"
         sodipodi:cx="10.000011"
         sodipodi:type="arc"
         id="path2808-5-6-2"
         style="fill:none;fill-opacity:1;stroke:#000000;stroke-width:0.5;stroke-linecap:round;stroke-linejoin:round;stroke-miterlimit:4;stroke-dasharray:none;stroke-opacity:1" />
      <path
         d="m 43.500011,97.000038 a 3.5,3.5 0 0 1 -3.423922,3.499172 3.5,3.5 0 0 1 -3.57277,-3.347053 3.5,3.5 0 0 1 3.268604,-3.644679 3.5,3.5 0 0 1 3.714866,3.18861"
         sodipodi:open="true"
         sodipodi:end="6.196233"
         sodipodi:start="0"
         sodipodi:ry="3.5"
         sodipodi:rx="3.5"
         sodipodi:cy="97.000038"
         sodipodi:cx="40.000011"
         sodipodi:type="arc"
         id="path2808-6-6-1-0"
         style="fill:none;fill-opacity:1;stroke:#000000;stroke-width:0.5;stroke-linecap:round;stroke-linejoin:round;stroke-miterlimit:4;stroke-dasharray:none;stroke-opacity:1" />
      <circle
         r="1"
         cy="97"
         cx="20"
         id="path2840-2-2-2"
         style="fill:none;fill-opacity:1;stroke:#000000;stroke-width:0.5;stroke-linecap:round;stroke-linejoin:round;stroke-miterlimit:4;stroke-dasharray:none;stroke-opacity:1" />
      <circle
         r="1"
         cy="97"
         cx="30"
         id="path2840-5-9-9-3"
         style="fill:none;fill-opacity:1;stroke:#000000;stroke-width:0.5;stroke-linecap:round;stroke-linejoin:round;stroke-miterlimit:4;stroke-dasharray:none;stroke-opacity:1" />
    </g>
    <g
       id="g3052-7"
       transform="translate(-10.353387,28.762747)"
       style="fill:none">
      <path
         d="m 97.250046,110.7501 a 3.5,3.5 0 0 1 -3.423923,3.49917 3.5,3.5 0 0 1 -3.57277,-3.34705 3.5,3.5 0 0 1 3.268605,-3.64468 3.5,3.5 0 0 1 3.714865,3.18861"
         sodipodi:open="true"
         sodipodi:end="6.196233"
         sodipodi:start="0"
         sodipodi:ry="3.5"
         sodipodi:rx="3.5"
         sodipodi:cy="110.7501"
         sodipodi:cx="93.750046"
         sodipodi:type="arc"
         id="path2808-59-0-59"
         style="fill:none;fill-opacity:1;stroke:#000000;stroke-width:0.5;stroke-linecap:round;stroke-linejoin:round;stroke-miterlimit:4;stroke-dasharray:none;stroke-opacity:1" />
      <path
         d="m 127.25005,110.7501 a 3.5,3.5 0 0 1 -3.42392,3.49917 3.5,3.5 0 0 1 -3.57277,-3.34705 3.5,3.5 0 0 1 3.26861,-3.64468 3.5,3.5 0 0 1 3.71486,3.18861"
         sodipodi:open="true"
         sodipodi:end="6.196233"
         sodipodi:start="0"
         sodipodi:ry="3.5"
         sodipodi:rx="3.5"
         sodipodi:cy="110.7501"
         sodipodi:cx="123.75005"
         sodipodi:type="arc"
         id="path2808-6-2-6-2"
         style="fill:none;fill-opacity:1;stroke:#000000;stroke-width:0.5;stroke-linecap:round;stroke-linejoin:round;stroke-miterlimit:4;stroke-dasharray:none;stroke-opacity:1" />
    </g>
    <g
       transform="translate(-10.353377,48.762738)"
       id="g3052-5-2"
       style="fill:none">
      <path
         d="m 97.250046,110.7501 a 3.5,3.5 0 0 1 -3.423923,3.49917 3.5,3.5 0 0 1 -3.57277,-3.34705 3.5,3.5 0 0 1 3.268605,-3.64468 3.5,3.5 0 0 1 3.714865,3.18861"
         sodipodi:open="true"
         sodipodi:end="6.196233"
         sodipodi:start="0"
         sodipodi:ry="3.5"
         sodipodi:rx="3.5"
         sodipodi:cy="110.7501"
         sodipodi:cx="93.750046"
         sodipodi:type="arc"
         id="path2808-59-0-4-8"
         style="fill:none;fill-opacity:1;stroke:#000000;stroke-width:0.5;stroke-linecap:round;stroke-linejoin:round;stroke-miterlimit:4;stroke-dasharray:none;stroke-opacity:1" />
      <path
         d="m 127.25005,110.7501 a 3.5,3.5 0 0 1 -3.42392,3.49917 3.5,3.5 0 0 1 -3.57277,-3.34705 3.5,3.5 0 0 1 3.26861,-3.64468 3.5,3.5 0 0 1 3.71486,3.18861"
         sodipodi:open="true"
         sodipodi:end="6.196233"
         sodipodi:start="0"
         sodipodi:ry="3.5"
         sodipodi:rx="3.5"
         sodipodi:cy="110.7501"
         sodipodi:cx="123.75005"
         sodipodi:type="arc"
         id="path2808-6-2-6-7-9"
         style="fill:none;fill-opacity:1;stroke:#000000;stroke-width:0.5;stroke-linecap:round;stroke-linejoin:round;stroke-miterlimit:4;stroke-dasharray:none;stroke-opacity:1" />
    </g>
    <g
       transform="translate(-10.353377,68.762726)"
       id="g3052-6-7"
       style="fill:none">
      <path
         d="m 97.250046,110.7501 a 3.5,3.5 0 0 1 -3.423923,3.49917 3.5,3.5 0 0 1 -3.57277,-3.34705 3.5,3.5 0 0 1 3.268605,-3.64468 3.5,3.5 0 0 1 3.714865,3.18861"
         sodipodi:open="true"
         sodipodi:end="6.196233"
         sodipodi:start="0"
         sodipodi:ry="3.5"
         sodipodi:rx="3.5"
         sodipodi:cy="110.7501"
         sodipodi:cx="93.750046"
         sodipodi:type="arc"
         id="path2808-59-0-5-3"
         style="fill:none;fill-opacity:1;stroke:#000000;stroke-width:0.5;stroke-linecap:round;stroke-linejoin:round;stroke-miterlimit:4;stroke-dasharray:none;stroke-opacity:1" />
      <path
         d="m 127.25005,110.7501 a 3.5,3.5 0 0 1 -3.42392,3.49917 3.5,3.5 0 0 1 -3.57277,-3.34705 3.5,3.5 0 0 1 3.26861,-3.64468 3.5,3.5 0 0 1 3.71486,3.18861"
         sodipodi:open="true"
         sodipodi:end="6.196233"
         sodipodi:start="0"
         sodipodi:ry="3.5"
         sodipodi:rx="3.5"
         sodipodi:cy="110.7501"
         sodipodi:cx="123.75005"
         sodipodi:type="arc"
         id="path2808-6-2-6-6-6"
         style="fill:none;fill-opacity:1;stroke:#000000;stroke-width:0.5;stroke-linecap:round;stroke-linejoin:round;stroke-miterlimit:4;stroke-dasharray:none;stroke-opacity:1" />
    </g>
    <rect
       style="fill:none;fill-opacity:1;stroke:#000000;stroke-width:0.5;stroke-linecap:round;stroke-linejoin:round;stroke-miterlimit:4;stroke-dasharray:none;stroke-opacity:1"
       id="rect3124-1"
       width="10"
       height="20"
       x="119.45897"
       y="-109.52962"
       transform="rotate(90)" />
    <g
       transform="rotate(-90,127.36891,76.823025)"
       id="g3157-2"
       style="fill:none">
      <path
         d="m 85.500015,-24.999964 a 3.5,3.5 0 0 1 -3.423922,3.499173 3.5,3.5 0 0 1 -3.57277,-3.347054 3.5,3.5 0 0 1 3.268604,-3.644679 3.5,3.5 0 0 1 3.714865,3.188611"
         sodipodi:open="true"
         sodipodi:end="6.196233"
         sodipodi:start="0"
         sodipodi:ry="3.5"
         sodipodi:rx="3.5"
         sodipodi:cy="-24.999964"
         sodipodi:cx="82.000015"
         sodipodi:type="arc"
         id="path2808-7-3-93"
         style="fill:none;fill-opacity:1;stroke:#000000;stroke-width:0.5;stroke-linecap:round;stroke-linejoin:round;stroke-miterlimit:4;stroke-dasharray:none;stroke-opacity:1"
         transform="rotate(90)" />
      <path
         d="m 115.50002,-24.999964 a 3.5,3.5 0 0 1 -3.42392,3.499173 3.5,3.5 0 0 1 -3.57277,-3.347054 3.5,3.5 0 0 1 3.2686,-3.644679 3.5,3.5 0 0 1 3.71487,3.188611"
         sodipodi:open="true"
         sodipodi:end="6.196233"
         sodipodi:start="0"
         sodipodi:ry="3.5"
         sodipodi:rx="3.5"
         sodipodi:cy="-24.999964"
         sodipodi:cx="112.00002"
         sodipodi:type="arc"
         id="path2808-6-9-07-1"
         style="fill:none;fill-opacity:1;stroke:#000000;stroke-width:0.5;stroke-linecap:round;stroke-linejoin:round;stroke-miterlimit:4;stroke-dasharray:none;stroke-opacity:1"
         transform="rotate(90)" />
      <circle
         r="1"
         cy="-25.000002"
         cx="92"
         id="path2840-20-8-9"
         style="fill:none;fill-opacity:1;stroke:#000000;stroke-width:0.5;stroke-linecap:round;stroke-linejoin:round;stroke-miterlimit:4;stroke-dasharray:none;stroke-opacity:1"
         transform="rotate(90)" />
      <circle
         r="1"
         cy="-25.000002"
         cx="102"
         id="path2840-5-2-6-4"
         style="fill:none;fill-opacity:1;stroke:#000000;stroke-width:0.5;stroke-linecap:round;stroke-linejoin:round;stroke-miterlimit:4;stroke-dasharray:none;stroke-opacity:1"
         transform="rotate(90)" />
    </g>
    <g
       transform="rotate(-90,119.75009,69.733339)"
       id="g3157-8-7"
       style="fill:none">
      <path
         d="m 85.749977,-29.999964 a 3.5,3.5 0 0 1 -3.423923,3.499173 3.5,3.5 0 0 1 -3.57277,-3.347054 3.5,3.5 0 0 1 3.268605,-3.644679 3.5,3.5 0 0 1 3.714865,3.188611"
         sodipodi:open="true"
         sodipodi:end="6.196233"
         sodipodi:start="0"
         sodipodi:ry="3.5"
         sodipodi:rx="3.5"
         sodipodi:cy="-29.999964"
         sodipodi:cx="82.249977"
         sodipodi:type="arc"
         id="path2808-7-3-8-8"
         style="fill:none;fill-opacity:1;stroke:#000000;stroke-width:0.5;stroke-linecap:round;stroke-linejoin:round;stroke-miterlimit:4;stroke-dasharray:none;stroke-opacity:1"
         transform="rotate(90)" />
      <path
         d="m 115.74998,-29.999964 a 3.5,3.5 0 0 1 -3.42393,3.499173 3.5,3.5 0 0 1 -3.57277,-3.347054 3.5,3.5 0 0 1 3.26861,-3.644679 3.5,3.5 0 0 1 3.71486,3.188611"
         sodipodi:open="true"
         sodipodi:end="6.196233"
         sodipodi:start="0"
         sodipodi:ry="3.5"
         sodipodi:rx="3.5"
         sodipodi:cy="-29.999964"
         sodipodi:cx="112.24998"
         sodipodi:type="arc"
         id="path2808-6-9-07-4-4"
         style="fill:none;fill-opacity:1;stroke:#000000;stroke-width:0.5;stroke-linecap:round;stroke-linejoin:round;stroke-miterlimit:4;stroke-dasharray:none;stroke-opacity:1"
         transform="rotate(90)" />
      <circle
         r="1"
         cy="-30.000002"
         cx="92.249962"
         id="path2840-20-8-3-5"
         style="fill:none;fill-opacity:1;stroke:#000000;stroke-width:0.5;stroke-linecap:round;stroke-linejoin:round;stroke-miterlimit:4;stroke-dasharray:none;stroke-opacity:1"
         transform="rotate(90)" />
      <circle
         r="1"
         cy="-30.000002"
         cx="102.24996"
         id="path2840-5-2-6-1-0"
         style="fill:none;fill-opacity:1;stroke:#000000;stroke-width:0.5;stroke-linecap:round;stroke-linejoin:round;stroke-miterlimit:4;stroke-dasharray:none;stroke-opacity:1"
         transform="rotate(90)" />
    </g>
    <path
       transform="rotate(90)"
       style="fill:none;fill-opacity:1;stroke:#000000;stroke-width:0.5;stroke-linecap:round;stroke-linejoin:round;stroke-miterlimit:4;stroke-dasharray:none;stroke-opacity:1"
       id="path2808-7-3-9-3"
       sodipodi:type="arc"
       sodipodi:cx="219.73848"
       sodipodi:cy="-48.795929"
       sodipodi:rx="3.5"
       sodipodi:ry="3.5"
       sodipodi:start="0"
       sodipodi:end="6.196233"
       sodipodi:open="true"
       d="m 223.23848,-48.795929 a 3.5,3.5 0 0 1 -3.42392,3.499173 3.5,3.5 0 0 1 -3.57277,-3.347054 3.5,3.5 0 0 1 3.2686,-3.644679 3.5,3.5 0 0 1 3.71487,3.18861" />
    <circle
       transform="rotate(90)"
       style="fill:none;fill-opacity:1;stroke:#000000;stroke-width:0.5;stroke-linecap:round;stroke-linejoin:round;stroke-miterlimit:4;stroke-dasharray:none;stroke-opacity:1"
       id="path2840-20-8-0-6"
       cx="229.73839"
       cy="-48.795952"
       r="1" />
    <path
       transform="scale(-1)"
       style="fill:none;fill-opacity:1;stroke:#000000;stroke-width:0.5;stroke-linecap:round;stroke-linejoin:round;stroke-miterlimit:4;stroke-dasharray:none;stroke-opacity:1"
       id="path2808-7-3-9-8-1"
       sodipodi:type="arc"
       sodipodi:cx="-63.795944"
       sodipodi:cy="-242.73836"
       sodipodi:rx="3.5"
       sodipodi:ry="3.5"
       sodipodi:start="0"
       sodipodi:end="6.196233"
       sodipodi:open="true"
       d="m -60.295944,-242.73836 a 3.5,3.5 0 0 1 -3.423923,3.49918 3.5,3.5 0 0 1 -3.57277,-3.34706 3.5,3.5 0 0 1 3.268605,-3.64468 3.5,3.5 0 0 1 3.714865,3.18861" />
    <path
       transform="scale(-1)"
       style="fill:none;fill-opacity:1;stroke:#000000;stroke-width:0.5;stroke-linecap:round;stroke-linejoin:round;stroke-miterlimit:4;stroke-dasharray:none;stroke-opacity:1"
       id="path2808-6-9-07-2-9-0"
       sodipodi:type="arc"
       sodipodi:cx="-33.795959"
       sodipodi:cy="-242.73836"
       sodipodi:rx="3.5"
       sodipodi:ry="3.5"
       sodipodi:start="0"
       sodipodi:end="6.196233"
       sodipodi:open="true"
       d="m -30.295959,-242.73836 a 3.5,3.5 0 0 1 -3.423923,3.49918 3.5,3.5 0 0 1 -3.57277,-3.34706 3.5,3.5 0 0 1 3.268604,-3.64468 3.5,3.5 0 0 1 3.714866,3.18861" />
    <circle
       transform="scale(-1)"
       style="fill:none;fill-opacity:1;stroke:#000000;stroke-width:0.5;stroke-linecap:round;stroke-linejoin:round;stroke-miterlimit:4;stroke-dasharray:none;stroke-opacity:1"
       id="path2840-20-8-0-2-6"
       cx="-53.795967"
       cy="-239.7384"
       r="1" />
    <circle
       transform="scale(-1)"
       style="fill:none;fill-opacity:1;stroke:#000000;stroke-width:0.5;stroke-linecap:round;stroke-linejoin:round;stroke-miterlimit:4;stroke-dasharray:none;stroke-opacity:1"
       id="path2840-5-2-6-6-6-3"
       cx="-43.795967"
       cy="-239.7384"
       r="1" />
    <path
       transform="rotate(90)"
       style="fill:none;fill-opacity:1;stroke:#000000;stroke-width:0.5;stroke-linecap:round;stroke-linejoin:round;stroke-miterlimit:4;stroke-dasharray:none;stroke-opacity:1"
       id="path2808-7-3-9-6-2"
       sodipodi:type="arc"
       sodipodi:cx="192.43823"
       sodipodi:cy="-189.67473"
       sodipodi:rx="3.5"
       sodipodi:ry="3.5"
       sodipodi:start="0"
       sodipodi:end="6.196233"
       sodipodi:open="true"
       d="m 195.93823,-189.67473 a 3.5,3.5 0 0 1 -3.42392,3.49917 3.5,3.5 0 0 1 -3.57277,-3.34705 3.5,3.5 0 0 1 3.2686,-3.64468 3.5,3.5 0 0 1 3.71487,3.18861" />
    <path
       transform="scale(-1)"
       style="fill:none;fill-opacity:1;stroke:#000000;stroke-width:0.5;stroke-linecap:round;stroke-linejoin:round;stroke-miterlimit:4;stroke-dasharray:none;stroke-opacity:1"
       id="path2808-7-3-9-8-9-0"
       sodipodi:type="arc"
       sodipodi:cx="-180.04597"
       sodipodi:cy="-209.97606"
       sodipodi:rx="3.5"
       sodipodi:ry="3.5"
       sodipodi:start="0"
       sodipodi:end="6.196233"
       sodipodi:open="true"
       d="m -176.54597,-209.97606 a 3.5,3.5 0 0 1 -3.42393,3.49917 3.5,3.5 0 0 1 -3.57277,-3.34705 3.5,3.5 0 0 1 3.26861,-3.64468 3.5,3.5 0 0 1 3.71486,3.18861" />
    <path
       transform="scale(-1)"
       style="fill:none;fill-opacity:1;stroke:#000000;stroke-width:0.5;stroke-linecap:round;stroke-linejoin:round;stroke-miterlimit:4;stroke-dasharray:none;stroke-opacity:1"
       id="path2808-6-9-07-2-9-5-6"
       sodipodi:type="arc"
       sodipodi:cx="-80.045982"
       sodipodi:cy="-226.22607"
       sodipodi:rx="3.5"
       sodipodi:ry="3.5"
       sodipodi:start="0"
       sodipodi:end="6.196233"
       sodipodi:open="true"
       d="m -76.545982,-226.22607 a 3.5,3.5 0 0 1 -3.423923,3.49917 3.5,3.5 0 0 1 -3.57277,-3.34706 3.5,3.5 0 0 1 3.268605,-3.64467 3.5,3.5 0 0 1 3.714865,3.18861" />
    <path
       d="m 255.28249,-211.30167 a 12.5,12.5 0 0 1 -12.2283,12.49705 12.5,12.5 0 0 1 -12.75989,-11.95377 12.5,12.5 0 0 1 11.67359,-13.01671 12.5,12.5 0 0 1 13.26737,11.3879"
       sodipodi:open="true"
       sodipodi:end="6.196233"
       sodipodi:start="0"
       sodipodi:ry="12.5"
       sodipodi:rx="12.5"
       sodipodi:cy="-211.30167"
       sodipodi:cx="242.78249"
       sodipodi:type="arc"
       id="path3277-1"
       style="fill:none;fill-opacity:1;stroke:#000000;stroke-width:0.5;stroke-linecap:round;stroke-linejoin:round;stroke-miterlimit:4;stroke-dasharray:none;stroke-opacity:1"
       transform="rotate(90)" />
    <path
       style="fill:none;fill-opacity:1;stroke:#000000;stroke-width:0.5;stroke-linecap:round;stroke-linejoin:round;stroke-miterlimit:4;stroke-dasharray:none;stroke-opacity:1"
       id="path2808-7-7-5"
       sodipodi:type="arc"
       sodipodi:cx="-225.44826"
       sodipodi:cy="-220.54054"
       sodipodi:rx="3.5"
       sodipodi:ry="3.5"
       sodipodi:start="0"
       sodipodi:end="6.196233"
       sodipodi:open="true"
       d="m -221.94826,-220.54054 a 3.5,3.5 0 0 1 -3.42392,3.49917 3.5,3.5 0 0 1 -3.57277,-3.34705 3.5,3.5 0 0 1 3.2686,-3.64468 3.5,3.5 0 0 1 3.71487,3.18861"
       transform="scale(-1)" />
    <path
       style="fill:none;fill-opacity:1;stroke:#000000;stroke-width:0.5;stroke-linecap:round;stroke-linejoin:round;stroke-miterlimit:4;stroke-dasharray:none;stroke-opacity:1"
       id="path2808-6-9-1-5"
       sodipodi:type="arc"
       sodipodi:cx="-195.44826"
       sodipodi:cy="-220.54054"
       sodipodi:rx="3.5"
       sodipodi:ry="3.5"
       sodipodi:start="0"
       sodipodi:end="6.196233"
       sodipodi:open="true"
       d="m -191.94826,-220.54054 a 3.5,3.5 0 0 1 -3.42392,3.49917 3.5,3.5 0 0 1 -3.57277,-3.34705 3.5,3.5 0 0 1 3.2686,-3.64468 3.5,3.5 0 0 1 3.71487,3.18861"
       transform="scale(-1)" />
    <path
       style="fill:none;fill-opacity:1;stroke:#000000;stroke-width:0.5;stroke-linecap:round;stroke-linejoin:round;stroke-miterlimit:4;stroke-dasharray:none;stroke-opacity:1"
       id="path2808-6-9-1-7-4"
       sodipodi:type="arc"
       sodipodi:cx="-210.44826"
       sodipodi:cy="-220.54054"
       sodipodi:rx="3.5"
       sodipodi:ry="3.5"
       sodipodi:start="0"
       sodipodi:end="6.196233"
       sodipodi:open="true"
       d="m -206.94826,-220.54054 a 3.5,3.5 0 0 1 -3.42392,3.49917 3.5,3.5 0 0 1 -3.57277,-3.34705 3.5,3.5 0 0 1 3.2686,-3.64468 3.5,3.5 0 0 1 3.71487,3.18861"
       transform="scale(-1)" />
    <path
       style="fill:none;fill-opacity:1;stroke:#000000;stroke-width:0.5;stroke-linecap:round;stroke-linejoin:round;stroke-miterlimit:4;stroke-dasharray:none;stroke-opacity:1"
       id="path3394-7"
       sodipodi:type="arc"
       sodipodi:cx="201.67564"
       sodipodi:cy="143.57692"
       sodipodi:rx="30.000002"
       sodipodi:ry="30.000002"
       sodipodi:start="0"
       sodipodi:end="6.196233"
       sodipodi:open="true"
       d="m 231.67565,143.57692 a 30.000002,30.000002 0 0 1 -29.34792,29.99291 30.000002,30.000002 0 0 1 -30.62374,-28.68904 30.000002,30.000002 0 0 1 28.01661,-31.2401 30.000002,30.000002 0 0 1 31.84171,27.33095" />
    <path
       d="m 223.70396,191.38007 a 12.5,12.5 0 0 1 -12.22829,12.49704 12.5,12.5 0 0 1 -12.75989,-11.95376 12.5,12.5 0 0 1 11.67358,-13.01671 12.5,12.5 0 0 1 13.26738,11.38789"
       sodipodi:open="true"
       sodipodi:end="6.196233"
       sodipodi:start="0"
       sodipodi:ry="12.5"
       sodipodi:rx="12.5"
       sodipodi:cy="191.38007"
       sodipodi:cx="211.20396"
       sodipodi:type="arc"
       id="path3277-6-6"
       style="fill:none;fill-opacity:1;stroke:#000000;stroke-width:0.5;stroke-linecap:round;stroke-linejoin:round;stroke-miterlimit:4;stroke-dasharray:none;stroke-opacity:1" />
    <path
       transform="scale(-1)"
       style="fill:none;fill-opacity:1;stroke:#000000;stroke-width:0.5;stroke-linecap:round;stroke-linejoin:round;stroke-miterlimit:4;stroke-dasharray:none;stroke-opacity:1"
       id="path2808-7-3-9-8-9-1-5"
       sodipodi:type="arc"
       sodipodi:cx="-180.52922"
       sodipodi:cy="-240.98845"
       sodipodi:rx="3.5"
       sodipodi:ry="3.5"
       sodipodi:start="0"
       sodipodi:end="6.196233"
       sodipodi:open="true"
       d="m -177.02922,-240.98845 a 3.5,3.5 0 0 1 -3.42392,3.49917 3.5,3.5 0 0 1 -3.57277,-3.34705 3.5,3.5 0 0 1 3.2686,-3.64468 3.5,3.5 0 0 1 3.71487,3.18861" />
    <path
       style="fill:none;fill-opacity:1;stroke:#000000;stroke-width:0.5;stroke-linecap:round;stroke-linejoin:round;stroke-miterlimit:4;stroke-dasharray:none;stroke-opacity:1"
       id="path3652-6"
       sodipodi:type="arc"
       sodipodi:cx="201.67543"
       sodipodi:cy="143.57649"
       sodipodi:rx="22"
       sodipodi:ry="22"
       sodipodi:start="0"
       sodipodi:end="6.196233"
       sodipodi:open="true"
       d="m 223.67543,143.57649 a 22,22 0 0 1 -21.5218,21.9948 22,22 0 0 1 -22.45741,-21.03862 22,22 0 0 1 20.54551,-22.90941 22,22 0 0 1 23.35058,20.04269" />
    <path
       transform="scale(-1)"
       style="fill:none;fill-opacity:1;stroke:#000000;stroke-width:0.5;stroke-linecap:round;stroke-linejoin:round;stroke-miterlimit:4;stroke-dasharray:none;stroke-opacity:1"
       id="path2808-7-3-9-8-9-1-7-9"
       sodipodi:type="arc"
       sodipodi:cx="-211.20386"
       sodipodi:cy="-191.12988"
       sodipodi:rx="3.5"
       sodipodi:ry="3.5"
       sodipodi:start="0"
       sodipodi:end="6.196233"
       sodipodi:open="true"
       d="m -207.70386,-191.12988 a 3.5,3.5 0 0 1 -3.42392,3.49917 3.5,3.5 0 0 1 -3.57277,-3.34705 3.5,3.5 0 0 1 3.2686,-3.64468 3.5,3.5 0 0 1 3.71487,3.18861" />
    <path
       transform="rotate(-90)"
       style="fill:none;fill-opacity:1;stroke:#000000;stroke-width:0.5;stroke-linecap:round;stroke-linejoin:round;stroke-miterlimit:4;stroke-dasharray:none;stroke-opacity:1"
       id="path2808-7-3-9-8-9-1-1-3"
       sodipodi:type="arc"
       sodipodi:cx="-243.08629"
       sodipodi:cy="211.315"
       sodipodi:rx="3.5"
       sodipodi:ry="3.5"
       sodipodi:start="0"
       sodipodi:end="6.196233"
       sodipodi:open="true"
       d="m -239.58629,211.315 a 3.5,3.5 0 0 1 -3.42392,3.49918 3.5,3.5 0 0 1 -3.57277,-3.34706 3.5,3.5 0 0 1 3.2686,-3.64468 3.5,3.5 0 0 1 3.71487,3.18861" />
    <text
       xml:space="preserve"
       style="font-style:normal;font-variant:normal;font-weight:normal;font-stretch:normal;font-size:5.29166651px;line-height:1;font-family:'TT Norms Pro';-inkscape-font-specification:'TT Norms Pro';letter-spacing:0px;word-spacing:0px;fill:#000000;fill-opacity:1;stroke:none;stroke-width:0.26458332"
       x="46.150131"
       y="181.22586"
       id="text17161-7"><tspan
         sodipodi:role="line"
         id="tspan17159-4"
         x="46.150131"
         y="181.22586"
         style="stroke-width:0.26458332">r</tspan></text>
    <text
       xml:space="preserve"
       style="font-style:normal;font-variant:normal;font-weight:normal;font-stretch:normal;font-size:5.29166651px;line-height:1;font-family:'TT Norms Pro';-inkscape-font-specification:'TT Norms Pro';letter-spacing:0px;word-spacing:0px;fill:#000000;fill-opacity:1;stroke:none;stroke-width:0.26458332"
       x="46.150131"
       y="201.75507"
       id="text17165-5"><tspan
         sodipodi:role="line"
         id="tspan17163-2"
         x="46.150131"
         y="201.75507"
         style="stroke-width:0.26458332">r</tspan></text>
    <text
       xml:space="preserve"
       style="font-style:normal;font-variant:normal;font-weight:normal;font-stretch:normal;font-size:5.29166651px;line-height:1;font-family:'TT Norms Pro';-inkscape-font-specification:'TT Norms Pro';letter-spacing:0px;word-spacing:0px;fill:#000000;fill-opacity:1;stroke:none;stroke-width:0.26458332"
       x="-182.06284"
       y="148.67838"
       id="text17169-5"
       transform="rotate(-90)"><tspan
         sodipodi:role="line"
         id="tspan17167-4"
         x="-182.06284"
         y="148.67838"
         style="stroke-width:0.26458332">ldr</tspan></text>
    <text
       xml:space="preserve"
       style="font-style:normal;font-variant:normal;font-weight:normal;font-stretch:normal;font-size:5.29166651px;line-height:1;font-family:'TT Norms Pro';-inkscape-font-specification:'TT Norms Pro';letter-spacing:0px;word-spacing:0px;fill:#000000;fill-opacity:1;stroke:none;stroke-width:0.26458332"
       x="-162.59235"
       y="148.14922"
       id="text17173-7"
       transform="rotate(-90)"><tspan
         sodipodi:role="line"
         id="tspan17171-4"
         x="-162.59235"
         y="148.14922"
         style="stroke-width:0.26458332">led</tspan></text>
    <rect
       style="fill:none;fill-opacity:1;stroke:#000000;stroke-width:0.5;stroke-linecap:round;stroke-linejoin:round;stroke-miterlimit:4;stroke-dasharray:none;stroke-opacity:1"
       id="rect3443-4"
       width="100"
       height="50"
       x="80.04599"
       y="200.98846" />
    <circle
       transform="rotate(90)"
       style="fill:none;fill-opacity:1;stroke:#000000;stroke-width:0.5;stroke-linecap:round;stroke-linejoin:round;stroke-miterlimit:4;stroke-dasharray:none;stroke-opacity:1"
       id="path2840-20-8-0-4-9-3"
       cx="225.98846"
       cy="-88.512634"
       r="1" />
    <circle
       transform="rotate(90)"
       style="fill:none;fill-opacity:1;stroke:#000000;stroke-width:0.5;stroke-linecap:round;stroke-linejoin:round;stroke-miterlimit:4;stroke-dasharray:none;stroke-opacity:1"
       id="path2840-20-8-0-4-1-0"
       cx="210.98843"
       cy="-172.69177"
       r="1" />
    <circle
       transform="rotate(90)"
       style="fill:none;fill-opacity:1;stroke:#000000;stroke-width:0.5;stroke-linecap:round;stroke-linejoin:round;stroke-miterlimit:4;stroke-dasharray:none;stroke-opacity:1"
       id="path2840-20-8-0-4-7-7"
       cx="240.98842"
       cy="-172.69177"
       r="1" />
    <path
       style="fill:none;fill-opacity:1;stroke:#000000;stroke-width:0.50803047;stroke-linecap:round;stroke-linejoin:round;stroke-miterlimit:4;stroke-dasharray:none;stroke-opacity:1"
       id="path2808-59-0-49-3-8"
       sodipodi:type="arc"
       sodipodi:cx="132.49547"
       sodipodi:cy="125.02996"
       sodipodi:rx="3.61748"
       sodipodi:ry="3.4959841"
       sodipodi:start="0"
       sodipodi:end="6.196233"
       sodipodi:open="true"
       d="m 136.11295,125.02996 a 3.61748,3.4959841 0 0 1 -3.53885,3.49516 3.61748,3.4959841 0 0 1 -3.69269,-3.34322 3.61748,3.4959841 0 0 1 3.37831,-3.64049 3.61748,3.4959841 0 0 1 3.83956,3.18495" />
    <path
       style="fill:none;fill-opacity:1;stroke:#000000;stroke-width:0.50803047;stroke-linecap:round;stroke-linejoin:round;stroke-miterlimit:4;stroke-dasharray:none;stroke-opacity:1"
       id="path2808-6-2-6-0-6-6"
       sodipodi:type="arc"
       sodipodi:cx="161.38541"
       sodipodi:cy="125.02996"
       sodipodi:rx="3.61748"
       sodipodi:ry="3.4959841"
       sodipodi:start="0"
       sodipodi:end="6.196233"
       sodipodi:open="true"
       d="m 165.00289,125.02996 a 3.61748,3.4959841 0 0 1 -3.53885,3.49516 3.61748,3.4959841 0 0 1 -3.6927,-3.34322 3.61748,3.4959841 0 0 1 3.37832,-3.64049 3.61748,3.4959841 0 0 1 3.83956,3.18495" />
    <rect
       style="fill:none;fill-opacity:1;stroke:#000000;stroke-width:0.1;stroke-linecap:round;stroke-linejoin:round;stroke-miterlimit:4;stroke-dasharray:none;stroke-dashoffset:0;stroke-opacity:1"
       id="rect1028-8"
       width="210"
       height="150"
       x="24.616806"
       y="110.79652" />
  </g>
</svg>
