<?xml version="1.0" encoding="UTF-8" standalone="no"?>
<!-- Created with Inkscape (http://www.inkscape.org/) -->

<svg
   xmlns:dc="http://purl.org/dc/elements/1.1/"
   xmlns:cc="http://creativecommons.org/ns#"
   xmlns:rdf="http://www.w3.org/1999/02/22-rdf-syntax-ns#"
   xmlns:svg="http://www.w3.org/2000/svg"
   xmlns="http://www.w3.org/2000/svg"
   xmlns:sodipodi="http://sodipodi.sourceforge.net/DTD/sodipodi-0.dtd"
   xmlns:inkscape="http://www.inkscape.org/namespaces/inkscape"
   width="297mm"
   height="210mm"
   viewBox="0 0 297 210"
   version="1.1"
   id="svg2225"
   inkscape:version="0.92.5 (2060ec1f9f, 2020-04-08)"
   sodipodi:docname="layout-v2.1-rev.svg">
  <defs
     id="defs2219" />
  <sodipodi:namedview
     id="base"
     pagecolor="#ffffff"
     bordercolor="#666666"
     borderopacity="1.0"
     inkscape:pageopacity="0.0"
     inkscape:pageshadow="2"
     inkscape:zoom="1.5778403"
     inkscape:cx="441.92048"
     inkscape:cy="452.26613"
     inkscape:document-units="mm"
     inkscape:current-layer="layer1"
     showgrid="true"
     inkscape:snap-bbox="true"
     inkscape:snap-bbox-midpoints="true"
     inkscape:bbox-nodes="true"
     inkscape:window-width="2184"
     inkscape:window-height="1426"
     inkscape:window-x="72"
     inkscape:window-y="41"
     inkscape:window-maximized="1"
     inkscape:snap-bbox-edge-midpoints="true">
    <inkscape:grid
       type="xygrid"
       id="grid2770"
       units="mm"
       spacingx="1"
       spacingy="1"
       empspacing="10" />
  </sodipodi:namedview>
  <metadata
     id="metadata2222">
    <rdf:RDF>
      <cc:Work
         rdf:about="">
        <dc:format>image/svg+xml</dc:format>
        <dc:type
           rdf:resource="http://purl.org/dc/dcmitype/StillImage" />
        <dc:title></dc:title>
      </cc:Work>
    </rdf:RDF>
  </metadata>
  <g
     inkscape:label="Layer 1"
     inkscape:groupmode="layer"
     id="layer1"
     transform="translate(0,-87)">
    <g
       id="g2861"
       transform="translate(3.750036,3.4119701e-6)"
       style="fill:none" />
    <g
       id="g2861-7"
       transform="matrix(-1,0,0,1,232.45425,19.033914)"
       style="fill:none">
      <path
         d="m 13.500011,97.000038 a 3.5,3.5 0 0 1 -3.423922,3.499172 3.5,3.5 0 0 1 -3.5727703,-3.347053 3.5,3.5 0 0 1 3.2686047,-3.644679 3.5,3.5 0 0 1 3.7148656,3.18861"
         sodipodi:open="true"
         sodipodi:end="6.196233"
         sodipodi:start="0"
         sodipodi:ry="3.5"
         sodipodi:rx="3.5"
         sodipodi:cy="97.000038"
         sodipodi:cx="10.000011"
         sodipodi:type="arc"
         id="path2808-53"
         style="fill:none;fill-opacity:1;stroke:#000000;stroke-width:0.5;stroke-linecap:round;stroke-linejoin:round;stroke-miterlimit:4;stroke-dasharray:none;stroke-opacity:1" />
      <path
         d="m 43.500011,97.000038 a 3.5,3.5 0 0 1 -3.423922,3.499172 3.5,3.5 0 0 1 -3.57277,-3.347053 3.5,3.5 0 0 1 3.268604,-3.644679 3.5,3.5 0 0 1 3.714866,3.18861"
         sodipodi:open="true"
         sodipodi:end="6.196233"
         sodipodi:start="0"
         sodipodi:ry="3.5"
         sodipodi:rx="3.5"
         sodipodi:cy="97.000038"
         sodipodi:cx="40.000011"
         sodipodi:type="arc"
         id="path2808-6-5"
         style="fill:none;fill-opacity:1;stroke:#000000;stroke-width:0.5;stroke-linecap:round;stroke-linejoin:round;stroke-miterlimit:4;stroke-dasharray:none;stroke-opacity:1" />
      <circle
         r="1"
         cy="97"
         cx="20"
         id="path2840-6"
         style="fill:none;fill-opacity:1;stroke:#000000;stroke-width:0.5;stroke-linecap:round;stroke-linejoin:round;stroke-miterlimit:4;stroke-dasharray:none;stroke-opacity:1" />
      <circle
         r="1"
         cy="97"
         cx="30"
         id="path2840-5-2"
         style="fill:none;fill-opacity:1;stroke:#000000;stroke-width:0.5;stroke-linecap:round;stroke-linejoin:round;stroke-miterlimit:4;stroke-dasharray:none;stroke-opacity:1" />
    </g>
    <g
       transform="matrix(-1,0,0,1,232.45425,39.033902)"
       id="g2861-3-9"
       style="fill:none">
      <path
         d="m 13.500011,97.000038 a 3.5,3.5 0 0 1 -3.423922,3.499172 3.5,3.5 0 0 1 -3.5727703,-3.347053 3.5,3.5 0 0 1 3.2686047,-3.644679 3.5,3.5 0 0 1 3.7148656,3.18861"
         sodipodi:open="true"
         sodipodi:end="6.196233"
         sodipodi:start="0"
         sodipodi:ry="3.5"
         sodipodi:rx="3.5"
         sodipodi:cy="97.000038"
         sodipodi:cx="10.000011"
         sodipodi:type="arc"
         id="path2808-5-1"
         style="fill:none;fill-opacity:1;stroke:#000000;stroke-width:0.5;stroke-linecap:round;stroke-linejoin:round;stroke-miterlimit:4;stroke-dasharray:none;stroke-opacity:1" />
      <path
         d="m 43.500011,97.000038 a 3.5,3.5 0 0 1 -3.423922,3.499172 3.5,3.5 0 0 1 -3.57277,-3.347053 3.5,3.5 0 0 1 3.268604,-3.644679 3.5,3.5 0 0 1 3.714866,3.18861"
         sodipodi:open="true"
         sodipodi:end="6.196233"
         sodipodi:start="0"
         sodipodi:ry="3.5"
         sodipodi:rx="3.5"
         sodipodi:cy="97.000038"
         sodipodi:cx="40.000011"
         sodipodi:type="arc"
         id="path2808-6-6-2"
         style="fill:none;fill-opacity:1;stroke:#000000;stroke-width:0.5;stroke-linecap:round;stroke-linejoin:round;stroke-miterlimit:4;stroke-dasharray:none;stroke-opacity:1" />
      <circle
         r="1"
         cy="97"
         cx="20"
         id="path2840-2-7"
         style="fill:none;fill-opacity:1;stroke:#000000;stroke-width:0.5;stroke-linecap:round;stroke-linejoin:round;stroke-miterlimit:4;stroke-dasharray:none;stroke-opacity:1" />
      <circle
         r="1"
         cy="97"
         cx="30"
         id="path2840-5-9-0"
         style="fill:none;fill-opacity:1;stroke:#000000;stroke-width:0.5;stroke-linecap:round;stroke-linejoin:round;stroke-miterlimit:4;stroke-dasharray:none;stroke-opacity:1" />
    </g>
    <g
       transform="matrix(-1,0,0,1,232.45425,59.03389)"
       id="g2861-1-9"
       style="fill:none">
      <path
         d="m 13.500011,97.000038 a 3.5,3.5 0 0 1 -3.423922,3.499172 3.5,3.5 0 0 1 -3.5727703,-3.347053 3.5,3.5 0 0 1 3.2686047,-3.644679 3.5,3.5 0 0 1 3.7148656,3.18861"
         sodipodi:open="true"
         sodipodi:end="6.196233"
         sodipodi:start="0"
         sodipodi:ry="3.5"
         sodipodi:rx="3.5"
         sodipodi:cy="97.000038"
         sodipodi:cx="10.000011"
         sodipodi:type="arc"
         id="path2808-2-3"
         style="fill:none;fill-opacity:1;stroke:#000000;stroke-width:0.5;stroke-linecap:round;stroke-linejoin:round;stroke-miterlimit:4;stroke-dasharray:none;stroke-opacity:1" />
      <path
         d="m 43.500011,97.000038 a 3.5,3.5 0 0 1 -3.423922,3.499172 3.5,3.5 0 0 1 -3.57277,-3.347053 3.5,3.5 0 0 1 3.268604,-3.644679 3.5,3.5 0 0 1 3.714866,3.18861"
         sodipodi:open="true"
         sodipodi:end="6.196233"
         sodipodi:start="0"
         sodipodi:ry="3.5"
         sodipodi:rx="3.5"
         sodipodi:cy="97.000038"
         sodipodi:cx="40.000011"
         sodipodi:type="arc"
         id="path2808-6-7-6"
         style="fill:none;fill-opacity:1;stroke:#000000;stroke-width:0.5;stroke-linecap:round;stroke-linejoin:round;stroke-miterlimit:4;stroke-dasharray:none;stroke-opacity:1" />
      <circle
         r="1"
         cy="97"
         cx="20"
         id="path2840-0-0"
         style="fill:none;fill-opacity:1;stroke:#000000;stroke-width:0.5;stroke-linecap:round;stroke-linejoin:round;stroke-miterlimit:4;stroke-dasharray:none;stroke-opacity:1" />
      <circle
         r="1"
         cy="97"
         cx="30"
         id="path2840-5-93-6"
         style="fill:none;fill-opacity:1;stroke:#000000;stroke-width:0.5;stroke-linecap:round;stroke-linejoin:round;stroke-miterlimit:4;stroke-dasharray:none;stroke-opacity:1" />
    </g>
    <g
       id="g2861-37-2"
       transform="matrix(-1,0,0,1,232.45425,79.033863)"
       style="fill:none">
      <path
         d="m 13.500011,97.000038 a 3.5,3.5 0 0 1 -3.423922,3.499172 3.5,3.5 0 0 1 -3.5727703,-3.347053 3.5,3.5 0 0 1 3.2686047,-3.644679 3.5,3.5 0 0 1 3.7148656,3.18861"
         sodipodi:open="true"
         sodipodi:end="6.196233"
         sodipodi:start="0"
         sodipodi:ry="3.5"
         sodipodi:rx="3.5"
         sodipodi:cy="97.000038"
         sodipodi:cx="10.000011"
         sodipodi:type="arc"
         id="path2808-59-6"
         style="fill:none;fill-opacity:1;stroke:#000000;stroke-width:0.5;stroke-linecap:round;stroke-linejoin:round;stroke-miterlimit:4;stroke-dasharray:none;stroke-opacity:1" />
      <path
         d="m 43.500011,97.000038 a 3.5,3.5 0 0 1 -3.423922,3.499172 3.5,3.5 0 0 1 -3.57277,-3.347053 3.5,3.5 0 0 1 3.268604,-3.644679 3.5,3.5 0 0 1 3.714866,3.18861"
         sodipodi:open="true"
         sodipodi:end="6.196233"
         sodipodi:start="0"
         sodipodi:ry="3.5"
         sodipodi:rx="3.5"
         sodipodi:cy="97.000038"
         sodipodi:cx="40.000011"
         sodipodi:type="arc"
         id="path2808-6-2-1"
         style="fill:none;fill-opacity:1;stroke:#000000;stroke-width:0.5;stroke-linecap:round;stroke-linejoin:round;stroke-miterlimit:4;stroke-dasharray:none;stroke-opacity:1" />
      <circle
         r="1"
         cy="97"
         cx="20"
         id="path2840-28-8"
         style="fill:none;fill-opacity:1;stroke:#000000;stroke-width:0.5;stroke-linecap:round;stroke-linejoin:round;stroke-miterlimit:4;stroke-dasharray:none;stroke-opacity:1" />
      <circle
         r="1"
         cy="97"
         cx="30"
         id="path2840-5-97-7"
         style="fill:none;fill-opacity:1;stroke:#000000;stroke-width:0.5;stroke-linecap:round;stroke-linejoin:round;stroke-miterlimit:4;stroke-dasharray:none;stroke-opacity:1" />
    </g>
    <g
       transform="matrix(-1,0,0,1,232.45425,99.033836)"
       id="g2861-3-3-9"
       style="fill:none">
      <path
         d="m 13.500011,97.000038 a 3.5,3.5 0 0 1 -3.423922,3.499172 3.5,3.5 0 0 1 -3.5727703,-3.347053 3.5,3.5 0 0 1 3.2686047,-3.644679 3.5,3.5 0 0 1 3.7148656,3.18861"
         sodipodi:open="true"
         sodipodi:end="6.196233"
         sodipodi:start="0"
         sodipodi:ry="3.5"
         sodipodi:rx="3.5"
         sodipodi:cy="97.000038"
         sodipodi:cx="10.000011"
         sodipodi:type="arc"
         id="path2808-5-6-2"
         style="fill:none;fill-opacity:1;stroke:#000000;stroke-width:0.5;stroke-linecap:round;stroke-linejoin:round;stroke-miterlimit:4;stroke-dasharray:none;stroke-opacity:1" />
      <path
         d="m 43.500011,97.000038 a 3.5,3.5 0 0 1 -3.423922,3.499172 3.5,3.5 0 0 1 -3.57277,-3.347053 3.5,3.5 0 0 1 3.268604,-3.644679 3.5,3.5 0 0 1 3.714866,3.18861"
         sodipodi:open="true"
         sodipodi:end="6.196233"
         sodipodi:start="0"
         sodipodi:ry="3.5"
         sodipodi:rx="3.5"
         sodipodi:cy="97.000038"
         sodipodi:cx="40.000011"
         sodipodi:type="arc"
         id="path2808-6-6-1-0"
         style="fill:none;fill-opacity:1;stroke:#000000;stroke-width:0.5;stroke-linecap:round;stroke-linejoin:round;stroke-miterlimit:4;stroke-dasharray:none;stroke-opacity:1" />
      <circle
         r="1"
         cy="97"
         cx="20"
         id="path2840-2-2-2"
         style="fill:none;fill-opacity:1;stroke:#000000;stroke-width:0.5;stroke-linecap:round;stroke-linejoin:round;stroke-miterlimit:4;stroke-dasharray:none;stroke-opacity:1" />
      <circle
         r="1"
         cy="97"
         cx="30"
         id="path2840-5-9-9-3"
         style="fill:none;fill-opacity:1;stroke:#000000;stroke-width:0.5;stroke-linecap:round;stroke-linejoin:round;stroke-miterlimit:4;stroke-dasharray:none;stroke-opacity:1" />
    </g>
    <g
       id="g3052-7"
       transform="matrix(-1,0,0,1,265.35364,37.229419)"
       style="fill:none">
      <path
         d="m 97.250046,110.7501 a 3.5,3.5 0 0 1 -3.423923,3.49917 3.5,3.5 0 0 1 -3.57277,-3.34705 3.5,3.5 0 0 1 3.268605,-3.64468 3.5,3.5 0 0 1 3.714865,3.18861"
         sodipodi:open="true"
         sodipodi:end="6.196233"
         sodipodi:start="0"
         sodipodi:ry="3.5"
         sodipodi:rx="3.5"
         sodipodi:cy="110.7501"
         sodipodi:cx="93.750046"
         sodipodi:type="arc"
         id="path2808-59-0-59"
         style="fill:none;fill-opacity:1;stroke:#000000;stroke-width:0.5;stroke-linecap:round;stroke-linejoin:round;stroke-miterlimit:4;stroke-dasharray:none;stroke-opacity:1" />
      <path
         d="m 127.25005,110.7501 a 3.5,3.5 0 0 1 -3.42392,3.49917 3.5,3.5 0 0 1 -3.57277,-3.34705 3.5,3.5 0 0 1 3.26861,-3.64468 3.5,3.5 0 0 1 3.71486,3.18861"
         sodipodi:open="true"
         sodipodi:end="6.196233"
         sodipodi:start="0"
         sodipodi:ry="3.5"
         sodipodi:rx="3.5"
         sodipodi:cy="110.7501"
         sodipodi:cx="123.75005"
         sodipodi:type="arc"
         id="path2808-6-2-6-2"
         style="fill:none;fill-opacity:1;stroke:#000000;stroke-width:0.5;stroke-linecap:round;stroke-linejoin:round;stroke-miterlimit:4;stroke-dasharray:none;stroke-opacity:1" />
    </g>
    <g
       transform="matrix(-1,0,0,1,265.35363,57.22941)"
       id="g3052-5-2"
       style="fill:none">
      <path
         d="m 97.250046,110.7501 a 3.5,3.5 0 0 1 -3.423923,3.49917 3.5,3.5 0 0 1 -3.57277,-3.34705 3.5,3.5 0 0 1 3.268605,-3.64468 3.5,3.5 0 0 1 3.714865,3.18861"
         sodipodi:open="true"
         sodipodi:end="6.196233"
         sodipodi:start="0"
         sodipodi:ry="3.5"
         sodipodi:rx="3.5"
         sodipodi:cy="110.7501"
         sodipodi:cx="93.750046"
         sodipodi:type="arc"
         id="path2808-59-0-4-8"
         style="fill:none;fill-opacity:1;stroke:#000000;stroke-width:0.5;stroke-linecap:round;stroke-linejoin:round;stroke-miterlimit:4;stroke-dasharray:none;stroke-opacity:1" />
      <path
         d="m 127.25005,110.7501 a 3.5,3.5 0 0 1 -3.42392,3.49917 3.5,3.5 0 0 1 -3.57277,-3.34705 3.5,3.5 0 0 1 3.26861,-3.64468 3.5,3.5 0 0 1 3.71486,3.18861"
         sodipodi:open="true"
         sodipodi:end="6.196233"
         sodipodi:start="0"
         sodipodi:ry="3.5"
         sodipodi:rx="3.5"
         sodipodi:cy="110.7501"
         sodipodi:cx="123.75005"
         sodipodi:type="arc"
         id="path2808-6-2-6-7-9"
         style="fill:none;fill-opacity:1;stroke:#000000;stroke-width:0.5;stroke-linecap:round;stroke-linejoin:round;stroke-miterlimit:4;stroke-dasharray:none;stroke-opacity:1" />
    </g>
    <g
       transform="matrix(-1,0,0,1,265.35363,77.229398)"
       id="g3052-6-7"
       style="fill:none">
      <path
         d="m 97.250046,110.7501 a 3.5,3.5 0 0 1 -3.423923,3.49917 3.5,3.5 0 0 1 -3.57277,-3.34705 3.5,3.5 0 0 1 3.268605,-3.64468 3.5,3.5 0 0 1 3.714865,3.18861"
         sodipodi:open="true"
         sodipodi:end="6.196233"
         sodipodi:start="0"
         sodipodi:ry="3.5"
         sodipodi:rx="3.5"
         sodipodi:cy="110.7501"
         sodipodi:cx="93.750046"
         sodipodi:type="arc"
         id="path2808-59-0-5-3"
         style="fill:none;fill-opacity:1;stroke:#000000;stroke-width:0.5;stroke-linecap:round;stroke-linejoin:round;stroke-miterlimit:4;stroke-dasharray:none;stroke-opacity:1" />
      <path
         d="m 127.25005,110.7501 a 3.5,3.5 0 0 1 -3.42392,3.49917 3.5,3.5 0 0 1 -3.57277,-3.34705 3.5,3.5 0 0 1 3.26861,-3.64468 3.5,3.5 0 0 1 3.71486,3.18861"
         sodipodi:open="true"
         sodipodi:end="6.196233"
         sodipodi:start="0"
         sodipodi:ry="3.5"
         sodipodi:rx="3.5"
         sodipodi:cy="110.7501"
         sodipodi:cx="123.75005"
         sodipodi:type="arc"
         id="path2808-6-2-6-6-6"
         style="fill:none;fill-opacity:1;stroke:#000000;stroke-width:0.5;stroke-linecap:round;stroke-linejoin:round;stroke-miterlimit:4;stroke-dasharray:none;stroke-opacity:1" />
    </g>
    <rect
       style="fill:none;fill-opacity:1;stroke:#000000;stroke-width:0.5;stroke-linecap:round;stroke-linejoin:round;stroke-miterlimit:4;stroke-dasharray:none;stroke-opacity:1"
       id="rect3124-1"
       width="10"
       height="20"
       x="120.51727"
       y="145.47072"
       transform="matrix(0,1,1,0,0,0)" />
    <g
       transform="matrix(0,-1,-1,0,204.45437,200.48775)"
       id="g3157-2"
       style="fill:none">
      <path
         d="m 85.500015,-24.999964 a 3.5,3.5 0 0 1 -3.423922,3.499173 3.5,3.5 0 0 1 -3.57277,-3.347054 3.5,3.5 0 0 1 3.268604,-3.644679 3.5,3.5 0 0 1 3.714865,3.188611"
         sodipodi:open="true"
         sodipodi:end="6.196233"
         sodipodi:start="0"
         sodipodi:ry="3.5"
         sodipodi:rx="3.5"
         sodipodi:cy="-24.999964"
         sodipodi:cx="82.000015"
         sodipodi:type="arc"
         id="path2808-7-3-93"
         style="fill:none;fill-opacity:1;stroke:#000000;stroke-width:0.5;stroke-linecap:round;stroke-linejoin:round;stroke-miterlimit:4;stroke-dasharray:none;stroke-opacity:1"
         transform="rotate(90)" />
      <path
         d="m 115.50002,-24.999964 a 3.5,3.5 0 0 1 -3.42392,3.499173 3.5,3.5 0 0 1 -3.57277,-3.347054 3.5,3.5 0 0 1 3.2686,-3.644679 3.5,3.5 0 0 1 3.71487,3.188611"
         sodipodi:open="true"
         sodipodi:end="6.196233"
         sodipodi:start="0"
         sodipodi:ry="3.5"
         sodipodi:rx="3.5"
         sodipodi:cy="-24.999964"
         sodipodi:cx="112.00002"
         sodipodi:type="arc"
         id="path2808-6-9-07-1"
         style="fill:none;fill-opacity:1;stroke:#000000;stroke-width:0.5;stroke-linecap:round;stroke-linejoin:round;stroke-miterlimit:4;stroke-dasharray:none;stroke-opacity:1"
         transform="rotate(90)" />
      <circle
         r="1"
         cy="-25.000002"
         cx="92"
         id="path2840-20-8-9"
         style="fill:none;fill-opacity:1;stroke:#000000;stroke-width:0.5;stroke-linecap:round;stroke-linejoin:round;stroke-miterlimit:4;stroke-dasharray:none;stroke-opacity:1"
         transform="rotate(90)" />
      <circle
         r="1"
         cy="-25.000002"
         cx="102"
         id="path2840-5-2-6-4"
         style="fill:none;fill-opacity:1;stroke:#000000;stroke-width:0.5;stroke-linecap:round;stroke-linejoin:round;stroke-miterlimit:4;stroke-dasharray:none;stroke-opacity:1"
         transform="rotate(90)" />
    </g>
    <g
       transform="matrix(0,-1,-1,0,204.9835,185.77924)"
       id="g3157-8-7"
       style="fill:none">
      <path
         d="m 85.749977,-29.999964 a 3.5,3.5 0 0 1 -3.423923,3.499173 3.5,3.5 0 0 1 -3.57277,-3.347054 3.5,3.5 0 0 1 3.268605,-3.644679 3.5,3.5 0 0 1 3.714865,3.188611"
         sodipodi:open="true"
         sodipodi:end="6.196233"
         sodipodi:start="0"
         sodipodi:ry="3.5"
         sodipodi:rx="3.5"
         sodipodi:cy="-29.999964"
         sodipodi:cx="82.249977"
         sodipodi:type="arc"
         id="path2808-7-3-8-8"
         style="fill:none;fill-opacity:1;stroke:#000000;stroke-width:0.5;stroke-linecap:round;stroke-linejoin:round;stroke-miterlimit:4;stroke-dasharray:none;stroke-opacity:1"
         transform="rotate(90)" />
      <path
         d="m 115.74998,-29.999964 a 3.5,3.5 0 0 1 -3.42393,3.499173 3.5,3.5 0 0 1 -3.57277,-3.347054 3.5,3.5 0 0 1 3.26861,-3.644679 3.5,3.5 0 0 1 3.71486,3.188611"
         sodipodi:open="true"
         sodipodi:end="6.196233"
         sodipodi:start="0"
         sodipodi:ry="3.5"
         sodipodi:rx="3.5"
         sodipodi:cy="-29.999964"
         sodipodi:cx="112.24998"
         sodipodi:type="arc"
         id="path2808-6-9-07-4-4"
         style="fill:none;fill-opacity:1;stroke:#000000;stroke-width:0.5;stroke-linecap:round;stroke-linejoin:round;stroke-miterlimit:4;stroke-dasharray:none;stroke-opacity:1"
         transform="rotate(90)" />
      <circle
         r="1"
         cy="-30.000002"
         cx="92.249962"
         id="path2840-20-8-3-5"
         style="fill:none;fill-opacity:1;stroke:#000000;stroke-width:0.5;stroke-linecap:round;stroke-linejoin:round;stroke-miterlimit:4;stroke-dasharray:none;stroke-opacity:1"
         transform="rotate(90)" />
      <circle
         r="1"
         cy="-30.000002"
         cx="102.24996"
         id="path2840-5-2-6-1-0"
         style="fill:none;fill-opacity:1;stroke:#000000;stroke-width:0.5;stroke-linecap:round;stroke-linejoin:round;stroke-miterlimit:4;stroke-dasharray:none;stroke-opacity:1"
         transform="rotate(90)" />
    </g>
    <path
       transform="matrix(0,1,1,0,0,0)"
       style="fill:none;fill-opacity:1;stroke:#000000;stroke-width:0.5;stroke-linecap:round;stroke-linejoin:round;stroke-miterlimit:4;stroke-dasharray:none;stroke-opacity:1"
       id="path2808-7-3-9-3"
       sodipodi:type="arc"
       sodipodi:cx="221.32596"
       sodipodi:cy="206.20441"
       sodipodi:rx="3.5"
       sodipodi:ry="3.5"
       sodipodi:start="0"
       sodipodi:end="6.196233"
       sodipodi:open="true"
       d="m 224.82596,206.20441 a 3.5,3.5 0 0 1 -3.42392,3.49917 3.5,3.5 0 0 1 -3.57277,-3.34705 3.5,3.5 0 0 1 3.2686,-3.64468 3.5,3.5 0 0 1 3.71487,3.18861" />
    <circle
       transform="matrix(0,1,1,0,0,0)"
       style="fill:none;fill-opacity:1;stroke:#000000;stroke-width:0.5;stroke-linecap:round;stroke-linejoin:round;stroke-miterlimit:4;stroke-dasharray:none;stroke-opacity:1"
       id="path2840-20-8-0-6"
       cx="230.79671"
       cy="206.20439"
       r="1" />
    <path
       transform="scale(1,-1)"
       style="fill:none;fill-opacity:1;stroke:#000000;stroke-width:0.5;stroke-linecap:round;stroke-linejoin:round;stroke-miterlimit:4;stroke-dasharray:none;stroke-opacity:1"
       id="path2808-7-3-9-8-1"
       sodipodi:type="arc"
       sodipodi:cx="197.5544"
       sodipodi:cy="-236.38844"
       sodipodi:rx="3.5"
       sodipodi:ry="3.5"
       sodipodi:start="0"
       sodipodi:end="6.196233"
       sodipodi:open="true"
       d="m 201.0544,-236.38844 a 3.5,3.5 0 0 1 -3.42393,3.49917 3.5,3.5 0 0 1 -3.57277,-3.34705 3.5,3.5 0 0 1 3.26861,-3.64468 3.5,3.5 0 0 1 3.71486,3.18861" />
    <path
       transform="scale(1,-1)"
       style="fill:none;fill-opacity:1;stroke:#000000;stroke-width:0.5;stroke-linecap:round;stroke-linejoin:round;stroke-miterlimit:4;stroke-dasharray:none;stroke-opacity:1"
       id="path2808-6-9-07-2-9-0"
       sodipodi:type="arc"
       sodipodi:cx="214.3252"
       sodipodi:cy="-236.38844"
       sodipodi:rx="3.5"
       sodipodi:ry="3.5"
       sodipodi:start="0"
       sodipodi:end="6.196233"
       sodipodi:open="true"
       d="m 217.8252,-236.38844 a 3.5,3.5 0 0 1 -3.42393,3.49917 3.5,3.5 0 0 1 -3.57277,-3.34705 3.5,3.5 0 0 1 3.26861,-3.64468 3.5,3.5 0 0 1 3.71486,3.18861" />
    <path
       transform="matrix(0,1,1,0,0,0)"
       style="fill:none;fill-opacity:1;stroke:#000000;stroke-width:0.5;stroke-linecap:round;stroke-linejoin:round;stroke-miterlimit:4;stroke-dasharray:none;stroke-opacity:1"
       id="path2808-7-3-9-6-2"
       sodipodi:type="arc"
       sodipodi:cx="205.66722"
       sodipodi:cy="43.630005"
       sodipodi:rx="3.5"
       sodipodi:ry="3.5"
       sodipodi:start="0"
       sodipodi:end="6.196233"
       sodipodi:open="true"
       d="m 209.16722,43.630005 a 3.5,3.5 0 0 1 -3.42392,3.499173 3.5,3.5 0 0 1 -3.57277,-3.347055 3.5,3.5 0 0 1 3.2686,-3.644678 3.5,3.5 0 0 1 3.71487,3.18861" />
    <path
       transform="scale(1,-1)"
       style="fill:none;fill-opacity:1;stroke:#000000;stroke-width:0.5;stroke-linecap:round;stroke-linejoin:round;stroke-miterlimit:4;stroke-dasharray:none;stroke-opacity:1"
       id="path2808-7-3-9-8-9-0"
       sodipodi:type="arc"
       sodipodi:cx="74.9543"
       sodipodi:cy="-206.27194"
       sodipodi:rx="3.5"
       sodipodi:ry="3.5"
       sodipodi:start="0"
       sodipodi:end="6.196233"
       sodipodi:open="true"
       d="m 78.4543,-206.27194 a 3.5,3.5 0 0 1 -3.423923,3.49917 3.5,3.5 0 0 1 -3.57277,-3.34705 3.5,3.5 0 0 1 3.268605,-3.64468 3.5,3.5 0 0 1 3.714865,3.18861" />
    <path
       transform="scale(1,-1)"
       style="fill:none;fill-opacity:1;stroke:#000000;stroke-width:0.5;stroke-linecap:round;stroke-linejoin:round;stroke-miterlimit:4;stroke-dasharray:none;stroke-opacity:1"
       id="path2808-6-9-07-2-9-5-6"
       sodipodi:type="arc"
       sodipodi:cx="179.18768"
       sodipodi:cy="-222.52196"
       sodipodi:rx="3.5"
       sodipodi:ry="3.5"
       sodipodi:start="0"
       sodipodi:end="6.196233"
       sodipodi:open="true"
       d="m 182.68768,-222.52196 a 3.5,3.5 0 0 1 -3.42392,3.49918 3.5,3.5 0 0 1 -3.57277,-3.34706 3.5,3.5 0 0 1 3.26861,-3.64468 3.5,3.5 0 0 1 3.71486,3.18861" />
    <path
       d="M 238.34938,43.698608 A 12.5,12.5 0 0 1 226.12109,56.195655 12.5,12.5 0 0 1 213.36119,44.241889 12.5,12.5 0 0 1 225.03478,31.22518 12.5,12.5 0 0 1 238.30216,42.613074"
       sodipodi:open="true"
       sodipodi:end="6.196233"
       sodipodi:start="0"
       sodipodi:ry="12.5"
       sodipodi:rx="12.5"
       sodipodi:cy="43.698608"
       sodipodi:cx="225.84938"
       sodipodi:type="arc"
       id="path3277-1"
       style="fill:none;fill-opacity:1;stroke:#000000;stroke-width:0.5;stroke-linecap:round;stroke-linejoin:round;stroke-miterlimit:4;stroke-dasharray:none;stroke-opacity:1"
       transform="matrix(0,1,1,0,0,0)" />
    <path
       style="fill:none;fill-opacity:1;stroke:#000000;stroke-width:0.5;stroke-linecap:round;stroke-linejoin:round;stroke-miterlimit:4;stroke-dasharray:none;stroke-opacity:1"
       id="path2808-7-7-5"
       sodipodi:type="arc"
       sodipodi:cx="28.493698"
       sodipodi:cy="-245.41104"
       sodipodi:rx="3.5"
       sodipodi:ry="3.5"
       sodipodi:start="0"
       sodipodi:end="6.196233"
       sodipodi:open="true"
       d="m 31.993698,-245.41104 a 3.5,3.5 0 0 1 -3.423923,3.49917 3.5,3.5 0 0 1 -3.57277,-3.34705 3.5,3.5 0 0 1 3.268605,-3.64468 3.5,3.5 0 0 1 3.714865,3.18861"
       transform="scale(1,-1)" />
    <path
       style="fill:none;fill-opacity:1;stroke:#000000;stroke-width:0.5;stroke-linecap:round;stroke-linejoin:round;stroke-miterlimit:4;stroke-dasharray:none;stroke-opacity:1"
       id="path2808-6-9-1-5"
       sodipodi:type="arc"
       sodipodi:cx="58.493698"
       sodipodi:cy="-245.41104"
       sodipodi:rx="3.5"
       sodipodi:ry="3.5"
       sodipodi:start="0"
       sodipodi:end="6.196233"
       sodipodi:open="true"
       d="m 61.993698,-245.41104 a 3.5,3.5 0 0 1 -3.423923,3.49917 3.5,3.5 0 0 1 -3.57277,-3.34705 3.5,3.5 0 0 1 3.268605,-3.64468 3.5,3.5 0 0 1 3.714865,3.18861"
       transform="scale(1,-1)" />
    <path
       style="fill:none;fill-opacity:1;stroke:#000000;stroke-width:0.5;stroke-linecap:round;stroke-linejoin:round;stroke-miterlimit:4;stroke-dasharray:none;stroke-opacity:1"
       id="path2808-6-9-1-7-4"
       sodipodi:type="arc"
       sodipodi:cx="43.493698"
       sodipodi:cy="-245.41104"
       sodipodi:rx="3.5"
       sodipodi:ry="3.5"
       sodipodi:start="0"
       sodipodi:end="6.196233"
       sodipodi:open="true"
       d="m 46.993698,-245.41104 a 3.5,3.5 0 0 1 -3.423923,3.49917 3.5,3.5 0 0 1 -3.57277,-3.34705 3.5,3.5 0 0 1 3.268605,-3.64468 3.5,3.5 0 0 1 3.714865,3.18861"
       transform="scale(1,-1)" />
    <path
       style="fill:none;fill-opacity:1;stroke:#000000;stroke-width:0.5;stroke-linecap:round;stroke-linejoin:round;stroke-miterlimit:4;stroke-dasharray:none;stroke-opacity:1"
       id="path3394-7"
       sodipodi:type="arc"
       sodipodi:cx="-53.324631"
       sodipodi:cy="139.8728"
       sodipodi:rx="30.000002"
       sodipodi:ry="30.000002"
       sodipodi:start="0"
       sodipodi:end="6.196233"
       sodipodi:open="true"
       d="m -23.324629,139.8728 a 30.000002,30.000002 0 0 1 -29.347911,29.99292 30.000002,30.000002 0 0 1 -30.623744,-28.68904 30.000002,30.000002 0 0 1 28.016613,-31.24011 30.000002,30.000002 0 0 1 31.841703,27.33095"
       transform="scale(-1,1)" />
    <path
       d="m -31.29631,186.08847 a 12.5,12.5 0 0 1 -12.228296,12.49705 12.5,12.5 0 0 1 -12.759893,-11.95377 12.5,12.5 0 0 1 11.673588,-13.01671 12.5,12.5 0 0 1 13.267376,11.3879"
       sodipodi:open="true"
       sodipodi:end="6.196233"
       sodipodi:start="0"
       sodipodi:ry="12.5"
       sodipodi:rx="12.5"
       sodipodi:cy="186.08847"
       sodipodi:cx="-43.79631"
       sodipodi:type="arc"
       id="path3277-6-6"
       style="fill:none;fill-opacity:1;stroke:#000000;stroke-width:0.5;stroke-linecap:round;stroke-linejoin:round;stroke-miterlimit:4;stroke-dasharray:none;stroke-opacity:1"
       transform="scale(-1,1)" />
    <path
       transform="scale(1,-1)"
       style="fill:none;fill-opacity:1;stroke:#000000;stroke-width:0.5;stroke-linecap:round;stroke-linejoin:round;stroke-miterlimit:4;stroke-dasharray:none;stroke-opacity:1"
       id="path2808-7-3-9-8-9-1-5"
       sodipodi:type="arc"
       sodipodi:cx="74.471054"
       sodipodi:cy="-237.28433"
       sodipodi:rx="3.5"
       sodipodi:ry="3.5"
       sodipodi:start="0"
       sodipodi:end="6.196233"
       sodipodi:open="true"
       d="m 77.971054,-237.28433 a 3.5,3.5 0 0 1 -3.423923,3.49917 3.5,3.5 0 0 1 -3.57277,-3.34705 3.5,3.5 0 0 1 3.268605,-3.64468 3.5,3.5 0 0 1 3.714865,3.18861" />
    <path
       style="fill:none;fill-opacity:1;stroke:#000000;stroke-width:0.5;stroke-linecap:round;stroke-linejoin:round;stroke-miterlimit:4;stroke-dasharray:none;stroke-opacity:1"
       id="path3652-6"
       sodipodi:type="arc"
       sodipodi:cx="-53.324844"
       sodipodi:cy="139.87238"
       sodipodi:rx="22"
       sodipodi:ry="22"
       sodipodi:start="0"
       sodipodi:end="6.196233"
       sodipodi:open="true"
       d="m -31.324844,139.87238 a 22,22 0 0 1 -21.5218,21.9948 22,22 0 0 1 -22.457412,-21.03863 22,22 0 0 1 20.545515,-22.90941 22,22 0 0 1 23.350581,20.04269"
       transform="scale(-1,1)" />
    <path
       transform="scale(1,-1)"
       style="fill:none;fill-opacity:1;stroke:#000000;stroke-width:0.5;stroke-linecap:round;stroke-linejoin:round;stroke-miterlimit:4;stroke-dasharray:none;stroke-opacity:1"
       id="path2808-7-3-9-8-9-1-7-9"
       sodipodi:type="arc"
       sodipodi:cx="43.796417"
       sodipodi:cy="-185.83829"
       sodipodi:rx="3.5"
       sodipodi:ry="3.5"
       sodipodi:start="0"
       sodipodi:end="6.196233"
       sodipodi:open="true"
       d="m 47.296417,-185.83829 a 3.5,3.5 0 0 1 -3.423922,3.49918 3.5,3.5 0 0 1 -3.57277,-3.34706 3.5,3.5 0 0 1 3.268604,-3.64468 3.5,3.5 0 0 1 3.714865,3.18861" />
    <path
       transform="matrix(0,-1,-1,0,0,0)"
       style="fill:none;fill-opacity:1;stroke:#000000;stroke-width:0.5;stroke-linecap:round;stroke-linejoin:round;stroke-miterlimit:4;stroke-dasharray:none;stroke-opacity:1"
       id="path2808-7-3-9-8-9-1-1-3"
       sodipodi:type="arc"
       sodipodi:cx="-226.15318"
       sodipodi:cy="-43.685272"
       sodipodi:rx="3.5"
       sodipodi:ry="3.5"
       sodipodi:start="0"
       sodipodi:end="6.196233"
       sodipodi:open="true"
       d="m -222.65318,-43.685272 a 3.5,3.5 0 0 1 -3.42393,3.499173 3.5,3.5 0 0 1 -3.57277,-3.347055 3.5,3.5 0 0 1 3.26861,-3.644678 3.5,3.5 0 0 1 3.71486,3.18861" />
    <text
       xml:space="preserve"
       style="font-style:normal;font-variant:normal;font-weight:normal;font-stretch:normal;font-size:5.29166651px;line-height:1;font-family:'TT Norms Pro';-inkscape-font-specification:'TT Norms Pro';letter-spacing:0px;word-spacing:0px;fill:#000000;fill-opacity:1;stroke:none;stroke-width:0.26458332"
       x="-208.8502"
       y="177.52174"
       id="text17161-7"
       transform="scale(-1,1)"><tspan
         sodipodi:role="line"
         id="tspan17159-4"
         x="-208.8502"
         y="177.52174"
         style="stroke-width:0.26458332">r</tspan></text>
    <text
       xml:space="preserve"
       style="font-style:normal;font-variant:normal;font-weight:normal;font-stretch:normal;font-size:5.29166651px;line-height:1;font-family:'TT Norms Pro';-inkscape-font-specification:'TT Norms Pro';letter-spacing:0px;word-spacing:0px;fill:#000000;fill-opacity:1;stroke:none;stroke-width:0.26458332"
       x="-208.8502"
       y="198.05095"
       id="text17165-5"
       transform="scale(-1,1)"><tspan
         sodipodi:role="line"
         id="tspan17163-2"
         x="-208.8502"
         y="198.05095"
         style="stroke-width:0.26458332">r</tspan></text>
    <text
       xml:space="preserve"
       style="font-style:normal;font-variant:normal;font-weight:normal;font-stretch:normal;font-size:5.29166651px;line-height:1;font-family:'TT Norms Pro';-inkscape-font-specification:'TT Norms Pro';letter-spacing:0px;word-spacing:0px;fill:#000000;fill-opacity:1;stroke:none;stroke-width:0.26458332"
       x="-178.35872"
       y="-106.32191"
       id="text17169-5"
       transform="matrix(0,-1,-1,0,0,0)"><tspan
         sodipodi:role="line"
         id="tspan17167-4"
         x="-178.35872"
         y="-106.32191"
         style="stroke-width:0.26458332">ldr</tspan></text>
    <text
       xml:space="preserve"
       style="font-style:normal;font-variant:normal;font-weight:normal;font-stretch:normal;font-size:5.29166651px;line-height:1;font-family:'TT Norms Pro';-inkscape-font-specification:'TT Norms Pro';letter-spacing:0px;word-spacing:0px;fill:#000000;fill-opacity:1;stroke:none;stroke-width:0.26458332"
       x="-158.88823"
       y="-106.85107"
       id="text17173-7"
       transform="matrix(0,-1,-1,0,0,0)"><tspan
         sodipodi:role="line"
         id="tspan17171-4"
         x="-158.88823"
         y="-106.85107"
         style="stroke-width:0.26458332">led</tspan></text>
    <rect
       style="fill:none;fill-opacity:1;stroke:#000000;stroke-width:0.5;stroke-linecap:round;stroke-linejoin:round;stroke-miterlimit:4;stroke-dasharray:none;stroke-opacity:1"
       id="rect3443-4"
       width="100"
       height="50"
       x="-177.07098"
       y="197.28435"
       transform="scale(-1,1)" />
    <circle
       transform="matrix(0,1,1,0,0,0)"
       style="fill:none;fill-opacity:1;stroke:#000000;stroke-width:0.5;stroke-linecap:round;stroke-linejoin:round;stroke-miterlimit:4;stroke-dasharray:none;stroke-opacity:1"
       id="path2840-20-8-0-4-9-3"
       cx="222.28435"
       cy="170.19186"
       r="1" />
    <circle
       transform="matrix(0,1,1,0,0,0)"
       style="fill:none;fill-opacity:1;stroke:#000000;stroke-width:0.5;stroke-linecap:round;stroke-linejoin:round;stroke-miterlimit:4;stroke-dasharray:none;stroke-opacity:1"
       id="path2840-20-8-0-4-1-0"
       cx="207.28432"
       cy="82.308502"
       r="1" />
    <circle
       transform="matrix(0,1,1,0,0,0)"
       style="fill:none;fill-opacity:1;stroke:#000000;stroke-width:0.5;stroke-linecap:round;stroke-linejoin:round;stroke-miterlimit:4;stroke-dasharray:none;stroke-opacity:1"
       id="path2840-20-8-0-4-7-7"
       cx="237.2843"
       cy="82.308502"
       r="1" />
    <path
       style="fill:none;fill-opacity:1;stroke:#000000;stroke-width:0.50803047;stroke-linecap:round;stroke-linejoin:round;stroke-miterlimit:4;stroke-dasharray:none;stroke-opacity:1"
       id="path2808-59-0-49-3-8"
       sodipodi:type="arc"
       sodipodi:cx="-122.50481"
       sodipodi:cy="121.32578"
       sodipodi:rx="3.61748"
       sodipodi:ry="3.4959841"
       sodipodi:start="0"
       sodipodi:end="6.196233"
       sodipodi:open="true"
       d="m -118.88733,121.32578 a 3.61748,3.4959841 0 0 1 -3.53885,3.49516 3.61748,3.4959841 0 0 1 -3.69269,-3.34321 3.61748,3.4959841 0 0 1 3.37832,-3.6405 3.61748,3.4959841 0 0 1 3.83956,3.18495"
       transform="scale(-1,1)" />
    <path
       style="fill:none;fill-opacity:1;stroke:#000000;stroke-width:0.50803047;stroke-linecap:round;stroke-linejoin:round;stroke-miterlimit:4;stroke-dasharray:none;stroke-opacity:1"
       id="path2808-6-2-6-0-6-6"
       sodipodi:type="arc"
       sodipodi:cx="-93.614868"
       sodipodi:cy="121.32578"
       sodipodi:rx="3.61748"
       sodipodi:ry="3.4959841"
       sodipodi:start="0"
       sodipodi:end="6.196233"
       sodipodi:open="true"
       d="m -89.997388,121.32578 a 3.61748,3.4959841 0 0 1 -3.538849,3.49516 3.61748,3.4959841 0 0 1 -3.692693,-3.34321 3.61748,3.4959841 0 0 1 3.378318,-3.6405 3.61748,3.4959841 0 0 1 3.839557,3.18495"
       transform="scale(-1,1)" />
    <rect
       style="fill:none;fill-opacity:1;stroke:#000000;stroke-width:0.1;stroke-linecap:round;stroke-linejoin:round;stroke-miterlimit:4;stroke-dasharray:none;stroke-dashoffset:0;stroke-opacity:1"
       id="rect1028-8"
       width="210"
       height="150"
       x="-230.38353"
       y="107.09235"
       transform="scale(-1,1)" />
  </g>
</svg>
