EESchema Schematic File Version 4
EELAYER 30 0
EELAYER END
$Descr A4 11693 8268
encoding utf-8
Sheet 1 1
Title ""
Date ""
Rev ""
Comp ""
Comment1 ""
Comment2 ""
Comment3 ""
Comment4 ""
$EndDescr
$Comp
L Amplifier_Audio:LM386 U2
U 1 1 6551F0B7
P 9150 3750
F 0 "U2" H 9300 3650 50  0000 L CNN
F 1 "LM386" H 9200 3900 50  0000 L CNN
F 2 "" H 9250 3850 50  0001 C CNN
F 3 "http://www.ti.com/lit/ds/symlink/lm386.pdf" H 9350 3950 50  0001 C CNN
	1    9150 3750
	1    0    0    -1  
$EndComp
Wire Wire Line
	8850 3850 8650 3850
Wire Wire Line
	8650 3850 8650 4050
Wire Wire Line
	9050 4050 8650 4050
Connection ~ 8650 4050
Wire Wire Line
	8650 4050 8650 4200
$Comp
L power:Earth #PWR0101
U 1 1 6551F7DE
P 8650 4200
F 0 "#PWR0101" H 8650 3950 50  0001 C CNN
F 1 "Earth" H 8650 4050 50  0001 C CNN
F 2 "" H 8650 4200 50  0001 C CNN
F 3 "~" H 8650 4200 50  0001 C CNN
	1    8650 4200
	1    0    0    -1  
$EndComp
$Comp
L pspice:DIODE D1
U 1 1 6551FC15
P 8250 3650
F 0 "D1" H 8250 3915 50  0000 C CNN
F 1 "DIODE" H 8250 3824 50  0000 C CNN
F 2 "" H 8250 3650 50  0001 C CNN
F 3 "~" H 8250 3650 50  0001 C CNN
	1    8250 3650
	1    0    0    -1  
$EndComp
$Comp
L Device:L L2
U 1 1 655206DA
P 7900 3450
F 0 "L2" V 7719 3450 50  0000 C CNN
F 1 "L" V 7810 3450 50  0000 C CNN
F 2 "" H 7900 3450 50  0001 C CNN
F 3 "~" H 7900 3450 50  0001 C CNN
	1    7900 3450
	0    1    1    0   
$EndComp
$Comp
L Device:Antenna AE1
U 1 1 65520DC0
P 7750 3000
F 0 "AE1" H 7550 2950 50  0000 L CNN
F 1 "Antenna" H 7400 2850 50  0000 L CNN
F 2 "" H 7750 3000 50  0001 C CNN
F 3 "~" H 7750 3000 50  0001 C CNN
	1    7750 3000
	1    0    0    -1  
$EndComp
Wire Wire Line
	7750 3200 7750 3450
Wire Wire Line
	8050 3850 8050 3650
Connection ~ 8050 3650
Wire Wire Line
	8050 3650 8050 3450
Wire Wire Line
	8750 3650 8850 3650
$Comp
L Device:C C4
U 1 1 65521CDA
P 9600 3750
F 0 "C4" V 9348 3750 50  0000 C CNN
F 1 "220uF" V 9439 3750 50  0000 C CNN
F 2 "" H 9638 3600 50  0001 C CNN
F 3 "~" H 9600 3750 50  0001 C CNN
	1    9600 3750
	0    1    1    0   
$EndComp
$Comp
L Device:Speaker LS1
U 1 1 65522343
P 9950 3750
F 0 "LS1" H 10120 3746 50  0000 L CNN
F 1 "Speaker" H 10120 3655 50  0000 L CNN
F 2 "" H 9950 3550 50  0001 C CNN
F 3 "~" H 9940 3700 50  0001 C CNN
	1    9950 3750
	1    0    0    -1  
$EndComp
$Comp
L power:Earth #PWR0102
U 1 1 65522784
P 9750 3850
F 0 "#PWR0102" H 9750 3600 50  0001 C CNN
F 1 "Earth" H 9750 3700 50  0001 C CNN
F 2 "" H 9750 3850 50  0001 C CNN
F 3 "~" H 9750 3850 50  0001 C CNN
	1    9750 3850
	1    0    0    -1  
$EndComp
$Comp
L power:+6V #PWR0103
U 1 1 65522FB4
P 9050 3450
F 0 "#PWR0103" H 9050 3300 50  0001 C CNN
F 1 "+6V" H 9065 3623 50  0000 C CNN
F 2 "" H 9050 3450 50  0001 C CNN
F 3 "" H 9050 3450 50  0001 C CNN
	1    9050 3450
	1    0    0    -1  
$EndComp
$Comp
L Device:L L1
U 1 1 6552646D
P 7600 3450
F 0 "L1" V 7419 3450 50  0000 C CNN
F 1 "L" V 7510 3450 50  0000 C CNN
F 2 "" H 7600 3450 50  0001 C CNN
F 3 "~" H 7600 3450 50  0001 C CNN
	1    7600 3450
	0    1    1    0   
$EndComp
Connection ~ 7750 3450
Wire Wire Line
	7900 3850 8050 3850
Wire Wire Line
	7450 3450 7450 3850
Wire Wire Line
	7450 3850 7600 3850
$Comp
L Timer:LM555 U1
U 1 1 65529F73
P 5450 3750
F 0 "U1" H 5600 4250 50  0000 C CNN
F 1 "LM555" H 5650 4150 50  0000 C CNN
F 2 "" H 5450 3750 50  0001 C CNN
F 3 "http://www.ti.com/lit/ds/symlink/lm555.pdf" H 5450 3750 50  0001 C CNN
	1    5450 3750
	1    0    0    -1  
$EndComp
$Comp
L power:GND #PWR0104
U 1 1 6552AEE1
P 5450 4150
F 0 "#PWR0104" H 5450 3900 50  0001 C CNN
F 1 "GND" H 5600 4100 50  0000 C CNN
F 2 "" H 5450 4150 50  0001 C CNN
F 3 "" H 5450 4150 50  0001 C CNN
	1    5450 4150
	1    0    0    -1  
$EndComp
$Comp
L power:+6V #PWR0105
U 1 1 6552B5F9
P 5450 3350
F 0 "#PWR0105" H 5450 3200 50  0001 C CNN
F 1 "+6V" H 5465 3523 50  0000 C CNN
F 2 "" H 5450 3350 50  0001 C CNN
F 3 "" H 5450 3350 50  0001 C CNN
	1    5450 3350
	1    0    0    -1  
$EndComp
$Comp
L Device:C C2
U 1 1 6552C069
P 4800 3550
F 0 "C2" V 4750 3450 50  0000 C CNN
F 1 "1nF" V 4850 3700 50  0000 C CNN
F 2 "" H 4838 3400 50  0001 C CNN
F 3 "~" H 4800 3550 50  0001 C CNN
	1    4800 3550
	0    1    1    0   
$EndComp
Wire Wire Line
	4650 3550 4450 3550
Wire Wire Line
	4450 3550 4450 3700
$Comp
L power:Earth #PWR0106
U 1 1 6552CA21
P 4450 3700
F 0 "#PWR0106" H 4450 3450 50  0001 C CNN
F 1 "Earth" H 4450 3550 50  0001 C CNN
F 2 "" H 4450 3700 50  0001 C CNN
F 3 "~" H 4450 3700 50  0001 C CNN
	1    4450 3700
	1    0    0    -1  
$EndComp
Wire Wire Line
	4950 3550 4950 2950
Connection ~ 4950 3550
$Comp
L Device:R R2
U 1 1 6552F648
P 6200 3400
F 0 "R2" H 6130 3354 50  0000 R CNN
F 1 "1K" H 6130 3445 50  0000 R CNN
F 2 "" V 6130 3400 50  0001 C CNN
F 3 "~" H 6200 3400 50  0001 C CNN
	1    6200 3400
	-1   0    0    1   
$EndComp
$Comp
L Device:R_POT RV1
U 1 1 6553396B
P 6450 3750
F 0 "RV1" H 6380 3704 50  0000 R CNN
F 1 "5K" H 6380 3795 50  0000 R CNN
F 2 "" H 6450 3750 50  0001 C CNN
F 3 "~" H 6450 3750 50  0001 C CNN
	1    6450 3750
	-1   0    0    1   
$EndComp
$Comp
L Device:R R3
U 1 1 65535ED2
P 6450 3450
F 0 "R3" H 6520 3496 50  0000 L CNN
F 1 "1K" H 6520 3405 50  0000 L CNN
F 2 "" V 6380 3450 50  0001 C CNN
F 3 "~" H 6450 3450 50  0001 C CNN
	1    6450 3450
	1    0    0    -1  
$EndComp
$Comp
L power:+6V #PWR0107
U 1 1 6553648C
P 6450 3300
F 0 "#PWR0107" H 6450 3150 50  0001 C CNN
F 1 "+6V" H 6465 3473 50  0000 C CNN
F 2 "" H 6450 3300 50  0001 C CNN
F 3 "" H 6450 3300 50  0001 C CNN
	1    6450 3300
	1    0    0    -1  
$EndComp
Wire Wire Line
	4950 3750 4800 3750
$Comp
L Device:C C3
U 1 1 655388FA
P 4800 3750
F 0 "C3" V 4750 3650 50  0000 C CNN
F 1 "5nF" V 4850 3900 50  0000 C CNN
F 2 "" H 4838 3600 50  0001 C CNN
F 3 "~" H 4800 3750 50  0001 C CNN
	1    4800 3750
	0    1    1    0   
$EndComp
Wire Wire Line
	4650 3950 4050 3950
Wire Wire Line
	4050 4150 4650 4150
Wire Wire Line
	4650 3750 4650 3950
Connection ~ 4650 3950
$Comp
L Device:R R1
U 1 1 6554141A
P 4850 4100
F 0 "R1" H 4920 4146 50  0000 L CNN
F 1 "10K" H 4920 4055 50  0000 L CNN
F 2 "" V 4780 4100 50  0001 C CNN
F 3 "~" H 4850 4100 50  0001 C CNN
	1    4850 4100
	1    0    0    -1  
$EndComp
$Comp
L Device:Q_NPN_BCE Q1
U 1 1 65541AF9
P 6000 4250
F 0 "Q1" V 6235 4250 50  0000 C CNN
F 1 "2N2222A" V 6326 4250 50  0000 C CNN
F 2 "" H 6200 4350 50  0001 C CNN
F 3 "~" H 6000 4250 50  0001 C CNN
	1    6000 4250
	0    -1   1    0   
$EndComp
$Comp
L Device:Antenna AE2
U 1 1 65542761
P 6500 4150
F 0 "AE2" H 6580 4139 50  0000 L CNN
F 1 "Antenna" H 6580 4048 50  0000 L CNN
F 2 "" H 6500 4150 50  0001 C CNN
F 3 "~" H 6500 4150 50  0001 C CNN
	1    6500 4150
	1    0    0    -1  
$EndComp
Wire Wire Line
	6200 4350 6500 4350
Wire Wire Line
	6850 2950 6850 3950
Wire Wire Line
	5950 3750 6200 3750
Connection ~ 6200 3750
Wire Wire Line
	6200 3750 6300 3750
Wire Wire Line
	6200 3550 6200 3750
Wire Wire Line
	4950 2950 6200 2950
Wire Wire Line
	6200 3250 6200 2950
Connection ~ 6200 2950
Wire Wire Line
	6200 2950 6850 2950
Wire Wire Line
	4650 3950 4850 3950
Wire Wire Line
	5950 3950 6850 3950
Wire Wire Line
	5950 3550 6000 3550
Connection ~ 4850 3950
Wire Wire Line
	4850 3950 4950 3950
Wire Wire Line
	4850 4250 4850 4350
Wire Wire Line
	6000 3550 6000 4050
Wire Wire Line
	4850 4350 5800 4350
$Comp
L power:Earth #PWR0108
U 1 1 6557FC07
P 4650 4150
F 0 "#PWR0108" H 4650 3900 50  0001 C CNN
F 1 "Earth" H 4650 4000 50  0001 C CNN
F 2 "" H 4650 4150 50  0001 C CNN
F 3 "~" H 4650 4150 50  0001 C CNN
	1    4650 4150
	1    0    0    -1  
$EndComp
Text Label 4050 3950 0    50   ~ 0
In+
Text Label 4050 4150 0    50   ~ 0
In-
$Comp
L Device:C_Variable C1
U 1 1 6559334C
P 7750 3850
F 0 "C1" V 7498 3850 50  0000 C CNN
F 1 "C_Variable" V 7589 3850 50  0000 C CNN
F 2 "" H 7750 3850 50  0001 C CNN
F 3 "~" H 7750 3850 50  0001 C CNN
	1    7750 3850
	0    1    1    0   
$EndComp
$Comp
L Device:C C5
U 1 1 6559DFD5
P 8600 3650
F 0 "C5" V 8348 3650 50  0000 C CNN
F 1 "1uF" V 8439 3650 50  0000 C CNN
F 2 "" H 8638 3500 50  0001 C CNN
F 3 "~" H 8600 3650 50  0001 C CNN
	1    8600 3650
	0    1    1    0   
$EndComp
$Comp
L Device:C C6
U 1 1 6559E57F
P 9150 4200
F 0 "C6" H 9400 4250 50  0000 R CNN
F 1 "2.2uF" H 9400 4350 50  0000 R CNN
F 2 "" H 9188 4050 50  0001 C CNN
F 3 "~" H 9150 4200 50  0001 C CNN
	1    9150 4200
	-1   0    0    1   
$EndComp
Wire Wire Line
	9150 4350 9250 4350
Wire Wire Line
	9250 4350 9250 4050
$EndSCHEMATC
