Channel			  :,CH2
Frequency			  :,F=996.8Hz
Period 			  :,T=1.003ms
PK-PK				  :,Vpp=700.0mV
Average			  :,V=79.17mV
Vertical pos		  :,0.00mV
Probe attenuation	  :,1X
Voltage per ADC value:,20.00mV
Time interval		  :,2.00uS

index,CH2_Voltage(mV)
0,40.00
1,40.00
2,40.00
3,40.00
4,40.00
5,40.00
6,40.00
7,40.00
8,40.00
9,40.00
10,40.00
11,40.00
12,40.00
13,40.00
14,40.00
15,40.00
16,40.00
17,40.00
18,40.00
19,40.00
20,40.00
21,40.00
22,40.00
23,40.00
24,60.00
25,40.00
26,40.00
27,40.00
28,40.00
29,40.00
30,40.00
31,40.00
32,40.00
33,40.00
34,40.00
35,40.00
36,40.00
37,40.00
38,40.00
39,40.00
40,40.00
41,40.00
42,40.00
43,40.00
44,40.00
45,40.00
46,40.00
47,60.00
48,40.00
49,60.00
50,40.00
51,60.00
52,60.00
53,60.00
54,60.00
55,40.00
56,80.00
57,60.00
58,60.00
59,60.00
60,60.00
61,40.00
62,60.00
63,60.00
64,60.00
65,60.00
66,80.00
67,80.00
68,40.00
69,60.00
70,80.00
71,40.00
72,60.00
73,80.00
74,60.00
75,80.00
76,80.00
77,60.00
78,80.00
79,80.00
80,80.00
81,60.00
82,80.00
83,80.00
84,80.00
85,80.00
86,80.00
87,80.00
88,80.00
89,80.00
90,80.00
91,80.00
92,80.00
93,80.00
94,80.00
95,80.00
96,80.00
97,80.00
98,80.00
99,80.00
100,80.00
101,80.00
102,80.00
103,80.00
104,100.00
105,120.00
106,140.00
107,140.00
108,120.00
109,140.00
110,160.00
111,160.00
112,160.00
113,160.00
114,160.00
115,160.00
116,160.00
117,160.00
118,160.00
119,160.00
120,160.00
121,180.00
122,180.00
123,160.00
124,180.00
125,180.00
126,200.00
127,180.00
128,200.00
129,200.00
130,200.00
131,200.00
132,200.00
133,200.00
134,200.00
135,220.00
136,220.00
137,220.00
138,240.00
139,240.00
140,240.00
141,220.00
142,220.00
143,240.00
144,220.00
145,220.00
146,240.00
147,240.00
148,240.00
149,240.00
150,240.00
151,260.00
152,240.00
153,240.00
154,240.00
155,260.00
156,260.00
157,260.00
158,260.00
159,260.00
160,260.00
161,260.00
162,260.00
163,260.00
164,260.00
165,280.00
166,280.00
167,280.00
168,300.00
169,280.00
170,280.00
171,280.00
172,280.00
173,280.00
174,300.00
175,320.00
176,300.00
177,320.00
178,300.00
179,300.00
180,320.00
181,320.00
182,320.00
183,320.00
184,320.00
185,320.00
186,320.00
187,320.00
188,320.00
189,320.00
190,320.00
191,320.00
192,340.00
193,320.00
194,340.00
195,340.00
196,340.00
197,340.00
198,340.00
199,340.00
200,360.00
201,360.00
202,360.00
203,360.00
204,360.00
205,360.00
206,360.00
207,360.00
208,380.00
209,380.00
210,380.00
211,380.00
212,380.00
213,380.00
214,380.00
215,400.00
216,400.00
217,380.00
218,400.00
219,400.00
220,400.00
221,400.00
222,400.00
223,420.00
224,400.00
225,420.00
226,420.00
227,420.00
228,420.00
229,440.00
230,460.00
231,440.00
232,440.00
233,460.00
234,440.00
235,460.00
236,460.00
237,460.00
238,460.00
239,460.00
240,460.00
241,460.00
242,460.00
243,240.00
244,-140.00
245,-140.00
246,-140.00
247,-140.00
248,-140.00
249,-140.00
250,-140.00
251,-140.00
252,-140.00
253,-120.00
254,-140.00
255,-120.00
256,-140.00
257,-120.00
258,-120.00
259,-120.00
260,-120.00
261,-120.00
262,-120.00
263,-120.00
264,-100.00
265,-120.00
266,-120.00
267,-120.00
268,-120.00
269,-100.00
270,-100.00
271,-120.00
272,-100.00
273,-100.00
274,-100.00
275,-100.00
276,-100.00
277,-100.00
278,-120.00
279,-100.00
280,-100.00
281,-100.00
282,-100.00
283,-100.00
284,-100.00
285,-100.00
286,-100.00
287,-80.00
288,-100.00
289,-80.00
290,-100.00
291,-80.00
292,-80.00
293,-80.00
294,-100.00
295,-80.00
296,-80.00
297,-80.00
298,-80.00
299,-80.00
300,-80.00
301,-60.00
302,-80.00
303,-80.00
304,-80.00
305,-80.00
306,-80.00
307,-80.00
308,-80.00
309,-100.00
310,-80.00
311,-80.00
312,-80.00
313,-80.00
314,-60.00
315,-60.00
316,-80.00
317,-60.00
318,-60.00
319,-60.00
320,-80.00
321,-60.00
322,-60.00
323,-60.00
324,-60.00
325,-60.00
326,-60.00
327,-60.00
328,-60.00
329,-60.00
330,-60.00
331,-60.00
332,-60.00
333,-60.00
334,-60.00
335,-60.00
336,-60.00
337,-60.00
338,-60.00
339,-60.00
340,-60.00
341,-60.00
342,-60.00
343,-60.00
344,-40.00
345,-60.00
346,-60.00
347,-40.00
348,-40.00
349,-60.00
350,-60.00
351,-40.00
352,-40.00
353,-40.00
354,-40.00
355,-40.00
356,-40.00
357,-40.00
358,-40.00
359,-40.00
360,-40.00
361,-40.00
362,-40.00
363,-40.00
364,-40.00
365,-40.00
366,-40.00
367,-40.00
368,-40.00
369,-40.00
370,-20.00
371,-40.00
372,-40.00
373,-20.00
374,-40.00
375,-40.00
376,-20.00
377,-40.00
378,-20.00
379,-40.00
380,-20.00
381,-20.00
382,-40.00
383,-20.00
384,-20.00
385,-20.00
386,-20.00
387,-20.00
388,-20.00
389,0.00
390,-20.00
391,-20.00
392,-20.00
393,-20.00
394,0.00
395,-20.00
396,-40.00
397,-20.00
398,-20.00
399,-20.00
400,-20.00
401,-20.00
402,-20.00
403,0.00
404,0.00
405,0.00
406,0.00
407,0.00
408,0.00
409,0.00
410,-20.00
411,0.00
412,0.00
413,20.00
414,0.00
415,0.00
416,0.00
417,0.00
418,0.00
419,20.00
420,0.00
421,0.00
422,0.00
423,0.00
424,0.00
425,0.00
426,0.00
427,-20.00
428,20.00
429,0.00
430,0.00
431,0.00
432,20.00
433,0.00
434,0.00
435,0.00
436,20.00
437,20.00
438,0.00
439,20.00
440,20.00
441,0.00
442,0.00
443,20.00
444,20.00
445,20.00
446,0.00
447,20.00
448,20.00
449,20.00
450,20.00
451,20.00
452,20.00
453,20.00
454,20.00
455,20.00
456,20.00
457,20.00
458,20.00
459,20.00
460,20.00
461,20.00
462,20.00
463,20.00
464,20.00
465,20.00
466,20.00
467,20.00
468,20.00
469,40.00
470,20.00
471,20.00
472,20.00
473,40.00
474,20.00
475,20.00
476,40.00
477,20.00
478,20.00
479,20.00
480,40.00
481,40.00
482,20.00
483,40.00
484,20.00
485,40.00
486,20.00
487,40.00
488,40.00
489,40.00
490,20.00
491,40.00
492,40.00
493,40.00
494,20.00
495,40.00
496,40.00
497,40.00
498,40.00
499,40.00
500,40.00
501,40.00
502,40.00
503,40.00
504,40.00
505,40.00
506,40.00
507,40.00
508,40.00
509,40.00
510,40.00
511,40.00
512,40.00
513,40.00
514,40.00
515,40.00
516,40.00
517,40.00
518,60.00
519,40.00
520,60.00
521,40.00
522,40.00
523,40.00
524,40.00
525,40.00
526,40.00
527,40.00
528,40.00
529,40.00
530,40.00
531,40.00
532,40.00
533,40.00
534,60.00
535,40.00
536,40.00
537,40.00
538,40.00
539,40.00
540,40.00
541,40.00
542,40.00
543,60.00
544,40.00
545,40.00
546,60.00
547,40.00
548,40.00
549,40.00
550,60.00
551,60.00
552,60.00
553,60.00
554,60.00
555,60.00
556,60.00
557,60.00
558,80.00
559,40.00
560,60.00
561,60.00
562,60.00
563,60.00
564,60.00
565,80.00
566,60.00
567,80.00
568,80.00
569,60.00
570,80.00
571,40.00
572,60.00
573,60.00
574,60.00
575,60.00
576,60.00
577,60.00
578,80.00
579,80.00
580,60.00
581,80.00
582,80.00
583,80.00
584,80.00
585,80.00
586,80.00
587,80.00
588,80.00
589,80.00
590,80.00
591,80.00
592,80.00
593,80.00
594,80.00
595,80.00
596,80.00
597,80.00
598,160.00
599,200.00
600,200.00
601,200.00
602,180.00
603,200.00
604,200.00
605,200.00
606,220.00
607,200.00
608,200.00
609,220.00
610,220.00
611,220.00
612,220.00
613,240.00
614,240.00
615,240.00
616,220.00
617,220.00
618,220.00
619,220.00
620,220.00
621,220.00
622,200.00
623,200.00
624,200.00
625,200.00
626,200.00
627,220.00
628,220.00
629,220.00
630,220.00
631,240.00
632,220.00
633,240.00
634,240.00
635,220.00
636,240.00
637,240.00
638,240.00
639,240.00
640,240.00
641,240.00
642,240.00
643,240.00
644,240.00
645,260.00
646,240.00
647,240.00
648,240.00
649,260.00
650,260.00
651,260.00
652,260.00
653,260.00
654,260.00
655,260.00
656,260.00
657,260.00
658,260.00
659,280.00
660,280.00
661,280.00
662,300.00
663,280.00
664,280.00
665,280.00
666,300.00
667,320.00
668,300.00
669,300.00
670,300.00
671,320.00
672,300.00
673,320.00
674,320.00
675,320.00
676,320.00
677,320.00
678,320.00
679,320.00
680,320.00
681,320.00
682,320.00
683,320.00
684,320.00
685,320.00
686,320.00
687,320.00
688,340.00
689,320.00
690,340.00
691,340.00
692,340.00
693,340.00
694,340.00
695,340.00
696,340.00
697,340.00
698,360.00
699,360.00
700,360.00
701,360.00
702,360.00
703,360.00
704,380.00
705,380.00
706,380.00
707,360.00
708,380.00
709,380.00
710,380.00
711,380.00
712,380.00
713,380.00
714,380.00
715,380.00
716,380.00
717,380.00
718,400.00
719,400.00
720,400.00
721,380.00
722,400.00
723,400.00
724,420.00
725,420.00
726,420.00
727,420.00
728,420.00
729,460.00
730,440.00
731,460.00
732,460.00
733,440.00
734,460.00
735,460.00
736,460.00
737,460.00
738,460.00
739,460.00
740,460.00
741,240.00
742,-160.00
743,-120.00
744,-140.00
745,-140.00
746,-140.00
747,-140.00
748,-140.00
749,-120.00
750,-140.00
751,-120.00
752,-120.00
753,-120.00
754,-120.00
755,-120.00
756,-120.00
757,-120.00
758,-120.00
759,-120.00
760,-120.00
761,-120.00
762,-120.00
763,-120.00
764,-120.00
765,-120.00
766,-120.00
767,-120.00
768,-100.00
769,-120.00
770,-120.00
771,-100.00
772,-120.00
773,-100.00
774,-100.00
775,-100.00
776,-100.00
777,-100.00
778,-100.00
779,-100.00
780,-100.00
781,-100.00
782,-100.00
783,-100.00
784,-100.00
785,-100.00
786,-100.00
787,-80.00
788,-80.00
789,-100.00
790,-80.00
791,-100.00
792,-80.00
793,-100.00
794,-100.00
795,-80.00
796,-80.00
797,-80.00
798,-80.00
799,-80.00
800,-80.00
801,-80.00
802,-80.00
803,-80.00
804,-80.00
805,-100.00
806,-100.00
807,-60.00
808,-60.00
809,-80.00
810,-80.00
811,-60.00
812,-60.00
813,-80.00
814,-80.00
815,-60.00
816,-80.00
817,-60.00
818,-60.00
819,-80.00
820,-80.00
821,-60.00
822,-60.00
823,-60.00
824,-60.00
825,-60.00
826,-60.00
827,-60.00
828,-60.00
829,-60.00
830,-60.00
831,-60.00
832,-60.00
833,-60.00
834,-60.00
835,-60.00
836,-60.00
837,-60.00
838,-60.00
839,-60.00
840,-60.00
841,-60.00
842,-60.00
843,-60.00
844,-60.00
845,-40.00
846,-60.00
847,-60.00
848,-40.00
849,-40.00
850,-40.00
851,-40.00
852,-40.00
853,-60.00
854,-60.00
855,-40.00
856,-40.00
857,-60.00
858,-40.00
859,-40.00
860,-40.00
861,-40.00
862,-40.00
863,-60.00
864,-40.00
865,-40.00
866,-40.00
867,-40.00
868,-40.00
869,-40.00
870,-40.00
871,-40.00
872,-40.00
873,-40.00
874,-40.00
875,-40.00
876,-40.00
877,-20.00
878,-40.00
879,-40.00
880,-40.00
881,-40.00
882,-20.00
883,-40.00
884,-20.00
885,-20.00
886,-20.00
887,-20.00
888,-40.00
889,-20.00
890,-20.00
891,-40.00
892,-20.00
893,-20.00
894,-20.00
895,-20.00
896,-20.00
897,-20.00
898,-20.00
899,-20.00
900,0.00
901,-20.00
902,0.00
903,-20.00
904,-20.00
905,0.00
906,0.00
907,-20.00
908,-20.00
909,0.00
910,0.00
911,-20.00
912,-20.00
913,0.00
914,0.00
915,0.00
916,-20.00
917,-20.00
918,0.00
919,0.00
920,0.00
921,0.00
922,0.00
923,0.00
924,-20.00
925,-20.00
926,0.00
927,20.00
928,0.00
929,20.00
930,0.00
931,0.00
932,0.00
933,20.00
934,20.00
935,0.00
936,0.00
937,20.00
938,20.00
939,20.00
940,20.00
941,20.00
942,20.00
943,20.00
944,20.00
945,20.00
946,20.00
947,20.00
948,20.00
949,20.00
950,20.00
951,20.00
952,20.00
953,20.00
954,20.00
955,20.00
956,20.00
957,20.00
958,20.00
959,20.00
960,20.00
961,20.00
962,20.00
963,20.00
964,20.00
965,20.00
966,20.00
967,20.00
968,20.00
969,20.00
970,20.00
971,20.00
972,20.00
973,20.00
974,20.00
975,20.00
976,20.00
977,20.00
978,20.00
979,40.00
980,20.00
981,20.00
982,40.00
983,40.00
984,20.00
985,20.00
986,40.00
987,20.00
988,20.00
989,40.00
990,40.00
991,20.00
992,40.00
993,40.00
994,40.00
995,40.00
996,40.00
997,20.00
998,40.00
999,20.00
1000,40.00
1001,40.00
1002,40.00
1003,40.00
1004,40.00
1005,40.00
1006,40.00
1007,40.00
1008,40.00
1009,40.00
1010,40.00
1011,40.00
1012,40.00
1013,40.00
1014,40.00
1015,40.00
1016,40.00
1017,40.00
1018,40.00
1019,40.00
1020,40.00
1021,40.00
1022,40.00
1023,40.00
1024,40.00
1025,40.00
1026,40.00
1027,40.00
1028,40.00
1029,40.00
1030,60.00
1031,40.00
1032,40.00
1033,40.00
1034,40.00
1035,60.00
1036,40.00
1037,40.00
1038,40.00
1039,60.00
1040,40.00
1041,60.00
1042,40.00
1043,40.00
1044,40.00
1045,40.00
1046,40.00
1047,40.00
1048,60.00
1049,40.00
1050,40.00
1051,40.00
1052,60.00
1053,40.00
1054,60.00
1055,60.00
1056,60.00
1057,60.00
1058,60.00
1059,60.00
1060,60.00
1061,80.00
1062,60.00
1063,40.00
1064,40.00
1065,80.00
1066,40.00
1067,60.00
1068,60.00
1069,60.00
1070,80.00
1071,40.00
1072,80.00
1073,60.00
1074,60.00
1075,60.00
1076,60.00
1077,60.00
1078,60.00
1079,80.00
1080,60.00
1081,40.00
1082,80.00
1083,80.00
1084,80.00
1085,80.00
1086,80.00
1087,80.00
1088,60.00
1089,80.00
1090,80.00
1091,80.00
1092,80.00
1093,80.00
1094,80.00
1095,80.00
1096,80.00
1097,80.00
1098,80.00
1099,80.00
1100,80.00
1101,80.00
1102,80.00
1103,80.00
1104,80.00
1105,80.00
1106,100.00
1107,100.00
1108,100.00
1109,100.00
1110,100.00
1111,120.00
1112,100.00
1113,100.00
1114,120.00
1115,120.00
1116,120.00
1117,120.00
1118,140.00
1119,160.00
1120,160.00
1121,160.00
1122,180.00
1123,180.00
1124,180.00
1125,200.00
1126,180.00
1127,200.00
1128,220.00
1129,200.00
1130,200.00
1131,200.00
1132,200.00
1133,220.00
1134,220.00
1135,240.00
1136,220.00
1137,240.00
1138,220.00
1139,240.00
1140,220.00
1141,240.00
1142,240.00
1143,240.00
1144,240.00
1145,240.00
1146,240.00
1147,240.00
1148,240.00
1149,240.00
1150,260.00
1151,260.00
1152,260.00
1153,260.00
1154,280.00
1155,280.00
1156,260.00
1157,260.00
1158,280.00
1159,280.00
1160,260.00
1161,280.00
1162,280.00
1163,280.00
1164,280.00
1165,280.00
1166,280.00
1167,300.00
1168,300.00
1169,300.00
1170,300.00
1171,280.00
1172,320.00
1173,300.00
1174,320.00
1175,300.00
1176,320.00
1177,320.00
1178,320.00
1179,320.00
1180,320.00
1181,320.00
1182,320.00
1183,320.00
1184,320.00
1185,320.00
1186,320.00
1187,320.00
1188,340.00
1189,340.00
1190,320.00
1191,340.00
1192,340.00
1193,340.00
1194,340.00
1195,340.00
1196,340.00
1197,360.00
1198,360.00
1199,340.00
1200,360.00
1201,360.00
1202,360.00
1203,380.00
1204,380.00
1205,380.00
1206,380.00
1207,380.00
1208,380.00
1209,380.00
1210,380.00
1211,380.00
1212,380.00
1213,400.00
1214,400.00
1215,400.00
1216,400.00
1217,400.00
1218,400.00
1219,400.00
1220,420.00
1221,400.00
1222,400.00
1223,440.00
1224,420.00
1225,420.00
1226,420.00
1227,440.00
1228,440.00
1229,460.00
1230,460.00
1231,440.00
1232,440.00
1233,460.00
1234,460.00
1235,460.00
1236,460.00
1237,460.00
1238,460.00
1239,240.00
1240,-180.00
1241,-160.00
1242,-140.00
1243,-140.00
1244,-140.00
1245,-140.00
1246,-140.00
1247,-120.00
1248,-140.00
1249,-140.00
1250,-120.00
1251,-120.00
1252,-120.00
1253,-120.00
1254,-120.00
1255,-120.00
1256,-100.00
1257,-120.00
1258,-120.00
1259,-100.00
1260,-100.00
1261,-120.00
1262,-120.00
1263,-120.00
1264,-120.00
1265,-120.00
1266,-120.00
1267,-120.00
1268,-120.00
1269,-100.00
1270,-100.00
1271,-100.00
1272,-100.00
1273,-100.00
1274,-100.00
1275,-100.00
1276,-100.00
1277,-100.00
1278,-100.00
1279,-80.00
1280,-100.00
1281,-100.00
1282,-100.00
1283,-80.00
1284,-80.00
1285,-80.00
1286,-80.00
1287,-80.00
1288,-80.00
1289,-80.00
1290,-80.00
1291,-80.00
1292,-80.00
1293,-80.00
1294,-60.00
1295,-80.00
1296,-80.00
1297,-100.00
1298,-80.00
1299,-80.00
1300,-80.00
1301,-100.00
1302,-80.00
1303,-80.00
1304,-100.00
1305,-80.00
1306,-80.00
1307,-100.00
1308,-60.00
1309,-80.00
1310,-80.00
1311,-80.00
1312,-80.00
1313,-80.00
1314,-60.00
1315,-60.00
1316,-60.00
1317,-60.00
1318,-60.00
1319,-60.00
1320,-60.00
1321,-60.00
1322,-60.00
1323,-60.00
1324,-60.00
1325,-60.00
1326,-60.00
1327,-60.00
1328,-60.00
1329,-60.00
1330,-60.00
1331,-60.00
1332,-60.00
1333,-60.00
1334,-60.00
1335,-60.00
1336,-60.00
1337,-40.00
1338,-60.00
1339,-60.00
1340,-60.00
1341,-60.00
1342,-60.00
1343,-60.00
1344,-40.00
1345,-60.00
1346,-40.00
1347,-60.00
1348,-40.00
1349,-40.00
1350,-40.00
1351,-40.00
1352,-40.00
1353,-60.00
1354,-40.00
1355,-40.00
1356,-40.00
1357,-40.00
1358,-40.00
1359,-40.00
1360,-40.00
1361,-40.00
1362,-20.00
1363,-40.00
1364,-40.00
1365,-20.00
1366,-40.00
1367,-40.00
1368,-40.00
1369,-40.00
1370,-20.00
1371,-40.00
1372,-40.00
1373,-40.00
1374,-40.00
1375,-20.00
1376,-40.00
1377,-40.00
1378,-20.00
1379,-20.00
1380,-20.00
1381,-20.00
1382,-40.00
1383,-20.00
1384,-20.00
1385,-40.00
1386,-20.00
1387,-20.00
1388,-20.00
1389,-20.00
1390,-20.00
1391,-20.00
1392,-20.00
1393,-20.00
1394,-20.00
1395,0.00
1396,0.00
1397,0.00
1398,-20.00
1399,0.00
1400,0.00
1401,0.00
1402,0.00
1403,-20.00
1404,0.00
1405,-20.00
1406,0.00
1407,0.00
1408,0.00
1409,0.00
1410,0.00
1411,0.00
1412,0.00
1413,0.00
1414,0.00
1415,-20.00
1416,20.00
1417,0.00
1418,0.00
1419,0.00
1420,20.00
1421,0.00
1422,0.00
1423,20.00
1424,0.00
1425,0.00
1426,0.00
1427,0.00
1428,0.00
1429,0.00
1430,20.00
1431,0.00
1432,20.00
1433,20.00
1434,20.00
1435,0.00
1436,20.00
1437,0.00
1438,20.00
1439,0.00
1440,20.00
1441,20.00
1442,20.00
1443,20.00
1444,20.00
1445,20.00
1446,20.00
1447,20.00
1448,0.00
1449,20.00
1450,20.00
1451,20.00
1452,20.00
1453,20.00
1454,20.00
1455,20.00
1456,20.00
1457,20.00
1458,20.00
1459,20.00
1460,20.00
1461,20.00
1462,20.00
1463,20.00
1464,20.00
1465,20.00
1466,20.00
1467,20.00
1468,20.00
1469,20.00
1470,20.00
1471,20.00
1472,20.00
1473,20.00
1474,20.00
1475,20.00
1476,20.00
1477,20.00
1478,40.00
1479,20.00
1480,20.00
1481,20.00
1482,20.00
1483,40.00
1484,40.00
1485,40.00
1486,20.00
1487,20.00
1488,40.00
1489,40.00
1490,40.00
1491,40.00
1492,40.00
1493,40.00
1494,20.00
1495,20.00
1496,40.00
1497,40.00
1498,40.00
1499,40.00
1500,40.00
1501,40.00
1502,40.00
1503,40.00
1504,40.00
1505,40.00
1506,40.00
1507,40.00
1508,40.00
1509,40.00
1510,40.00
1511,40.00
1512,40.00
1513,40.00
1514,40.00
1515,40.00
1516,40.00
1517,40.00
1518,40.00
1519,40.00
1520,40.00
1521,40.00
1522,40.00
1523,40.00
1524,40.00
1525,40.00
1526,40.00
1527,40.00
1528,40.00
1529,40.00
1530,40.00
1531,60.00
1532,40.00
1533,60.00
1534,40.00
1535,40.00
1536,40.00
1537,40.00
1538,40.00
1539,60.00
1540,40.00
1541,60.00
1542,40.00
1543,40.00
1544,40.00
1545,60.00
1546,60.00
1547,60.00
1548,40.00
1549,40.00
1550,60.00
1551,60.00
1552,40.00
1553,60.00
1554,60.00
1555,60.00
1556,60.00
1557,60.00
1558,80.00
1559,80.00
1560,60.00
1561,60.00
1562,80.00
1563,60.00
1564,60.00
1565,80.00
1566,60.00
1567,80.00
1568,80.00
1569,40.00
1570,60.00
1571,60.00
1572,60.00
1573,60.00
1574,60.00
1575,40.00
1576,80.00
1577,80.00
1578,80.00
1579,60.00
1580,80.00
1581,80.00
1582,80.00
1583,80.00
1584,80.00
1585,80.00
1586,80.00
1587,80.00
1588,80.00
1589,80.00
1590,80.00
1591,80.00
1592,80.00
1593,80.00
1594,80.00
1595,80.00
1596,100.00
1597,80.00
1598,80.00
1599,100.00
1600,100.00
1601,100.00
1602,100.00
1603,120.00
1604,100.00
1605,100.00
1606,120.00
1607,140.00
1608,120.00
1609,140.00
1610,120.00
1611,160.00
1612,160.00
1613,160.00
1614,160.00
1615,180.00
1616,160.00
1617,180.00
1618,180.00
1619,180.00
1620,180.00
1621,180.00
1622,180.00
1623,200.00
1624,180.00
1625,200.00
1626,200.00
1627,200.00
1628,200.00
1629,200.00
1630,200.00
1631,220.00
1632,240.00
1633,220.00
1634,220.00
1635,220.00
1636,220.00
1637,220.00
1638,240.00
1639,220.00
1640,240.00
1641,240.00
1642,240.00
1643,240.00
1644,240.00
1645,240.00
1646,240.00
1647,240.00
1648,260.00
1649,260.00
1650,260.00
1651,260.00
1652,260.00
1653,260.00
1654,260.00
1655,280.00
1656,300.00
1657,280.00
1658,280.00
1659,300.00
1660,300.00
1661,300.00
1662,300.00
1663,300.00
1664,300.00
1665,320.00
1666,320.00
1667,320.00
1668,320.00
1669,320.00
1670,320.00
1671,320.00
1672,320.00
1673,320.00
1674,320.00
1675,320.00
1676,320.00
1677,320.00
1678,320.00
1679,320.00
1680,320.00
1681,320.00
1682,340.00
1683,320.00
1684,320.00
1685,320.00
1686,340.00
1687,340.00
1688,340.00
1689,340.00
1690,340.00
1691,340.00
1692,340.00
1693,360.00
1694,360.00
1695,360.00
1696,340.00
1697,360.00
1698,360.00
1699,340.00
1700,340.00
1701,380.00
1702,380.00
1703,380.00
1704,380.00
1705,380.00
1706,380.00
1707,380.00
1708,380.00
1709,380.00
1710,380.00
1711,380.00
1712,380.00
1713,400.00
1714,400.00
1715,400.00
1716,400.00
1717,400.00
1718,420.00
1719,420.00
1720,420.00
1721,440.00
1722,440.00
1723,440.00
1724,440.00
1725,440.00
1726,440.00
1727,460.00
1728,440.00
1729,460.00
1730,460.00
1731,460.00
1732,460.00
1733,460.00
1734,460.00
1735,460.00
1736,460.00
1737,460.00
1738,460.00
1739,240.00
1740,-140.00
1741,-140.00
1742,-140.00
1743,-140.00
1744,-140.00
1745,-140.00
1746,-140.00
1747,-140.00
1748,-140.00
1749,-120.00
1750,-140.00
1751,-140.00
1752,-140.00
1753,-120.00
1754,-120.00
1755,-140.00
1756,-120.00
1757,-120.00
1758,-120.00
1759,-120.00
1760,-120.00
1761,-120.00
1762,-120.00
1763,-120.00
1764,-100.00
1765,-100.00
1766,-100.00
1767,-100.00
1768,-120.00
1769,-120.00
1770,-120.00
1771,-100.00
1772,-100.00
1773,-100.00
1774,-100.00
1775,-100.00
1776,-100.00
1777,-80.00
1778,-100.00
1779,-100.00
1780,-100.00
1781,-100.00
1782,-100.00
1783,-100.00
1784,-100.00
1785,-80.00
1786,-100.00
1787,-80.00
1788,-80.00
1789,-80.00
1790,-80.00
1791,-80.00
1792,-80.00
1793,-80.00
1794,-80.00
1795,-80.00
1796,-80.00
1797,-80.00
1798,-80.00
1799,-60.00
1800,-80.00
1801,-80.00
1802,-80.00
1803,-60.00
1804,-80.00
1805,-100.00
1806,-60.00
1807,-60.00
1808,-60.00
1809,-60.00
1810,-60.00
1811,-60.00
1812,-60.00
1813,-80.00
1814,-60.00
1815,-60.00
1816,-60.00
1817,-60.00
1818,-60.00
1819,-60.00
1820,-60.00
1821,-60.00
1822,-60.00
1823,-60.00
1824,-60.00
1825,-60.00
1826,-60.00
1827,-60.00
1828,-60.00
1829,-60.00
1830,-60.00
1831,-60.00
1832,-60.00
1833,-60.00
1834,-60.00
1835,-60.00
1836,-60.00
1837,-60.00
1838,-60.00
1839,-60.00
1840,-60.00
1841,-60.00
1842,-40.00
1843,-60.00
1844,-40.00
1845,-40.00
1846,-40.00
1847,-40.00
1848,-40.00
1849,-40.00
1850,-40.00
1851,-40.00
1852,-40.00
1853,-40.00
1854,-40.00
1855,-40.00
1856,-40.00
1857,-40.00
1858,-40.00
1859,-40.00
1860,-40.00
1861,-40.00
1862,-40.00
1863,-20.00
1864,-40.00
1865,-20.00
1866,-40.00
1867,-40.00
1868,-40.00
1869,-40.00
1870,-40.00
1871,-40.00
1872,-20.00
1873,-40.00
1874,-20.00
1875,-40.00
1876,-40.00
1877,-40.00
1878,-40.00
1879,-40.00
1880,-40.00
1881,-20.00
1882,-20.00
1883,-20.00
1884,-20.00
1885,-20.00
1886,-20.00
1887,-20.00
1888,-20.00
1889,-20.00
1890,-20.00
1891,-20.00
1892,0.00
1893,-20.00
1894,-20.00
1895,-20.00
1896,-20.00
1897,0.00
1898,0.00
1899,0.00
1900,0.00
1901,0.00
1902,0.00
1903,0.00
1904,0.00
1905,-20.00
1906,0.00
1907,20.00
1908,0.00
1909,0.00
1910,0.00
1911,0.00
1912,0.00
1913,0.00
1914,20.00
1915,0.00
1916,0.00
1917,0.00
1918,0.00
1919,20.00
1920,0.00
1921,0.00
1922,20.00
1923,20.00
1924,20.00
1925,0.00
1926,20.00
1927,0.00
1928,0.00
1929,0.00
1930,20.00
1931,20.00
1932,20.00
1933,20.00
1934,20.00
1935,20.00
1936,0.00
1937,20.00
1938,20.00
1939,20.00
1940,0.00
1941,20.00
1942,20.00
1943,20.00
1944,20.00
1945,20.00
1946,20.00
1947,20.00
1948,20.00
1949,20.00
1950,20.00
1951,20.00
1952,20.00
1953,20.00
1954,20.00
1955,20.00
1956,20.00
1957,20.00
1958,20.00
1959,20.00
1960,20.00
1961,20.00
1962,20.00
1963,20.00
1964,20.00
1965,20.00
1966,20.00
1967,20.00
1968,20.00
1969,20.00
1970,20.00
1971,20.00
1972,20.00
1973,40.00
1974,40.00
1975,20.00
1976,40.00
1977,40.00
1978,40.00
1979,40.00
1980,20.00
1981,40.00
1982,20.00
1983,40.00
1984,40.00
1985,40.00
1986,40.00
1987,40.00
1988,40.00
1989,40.00
1990,40.00
1991,40.00
1992,40.00
1993,40.00
1994,40.00
1995,40.00
1996,40.00
1997,40.00
1998,40.00
1999,40.00
2000,40.00
2001,40.00
2002,40.00
2003,40.00
2004,40.00
2005,40.00
2006,40.00
2007,40.00
2008,40.00
2009,40.00
2010,40.00
2011,40.00
2012,40.00
2013,40.00
2014,40.00
2015,40.00
2016,40.00
2017,40.00
2018,40.00
2019,40.00
2020,40.00
2021,40.00
2022,40.00
2023,40.00
2024,40.00
2025,40.00
2026,40.00
2027,40.00
2028,40.00
2029,60.00
2030,40.00
2031,60.00
2032,40.00
2033,40.00
2034,40.00
2035,40.00
2036,60.00
2037,40.00
2038,40.00
2039,60.00
2040,40.00
2041,40.00
2042,40.00
2043,40.00
2044,60.00
2045,60.00
2046,60.00
2047,60.00
2048,60.00
2049,60.00
2050,60.00
2051,40.00
2052,60.00
2053,40.00
2054,60.00
2055,40.00
2056,40.00
2057,40.00
2058,80.00
2059,60.00
2060,60.00
2061,80.00
2062,80.00
2063,40.00
2064,60.00
2065,80.00
2066,60.00
2067,60.00
2068,60.00
2069,60.00
2070,60.00
2071,80.00
2072,60.00
2073,60.00
2074,80.00
2075,60.00
2076,60.00
2077,80.00
2078,80.00
2079,60.00
2080,80.00
2081,80.00
2082,80.00
2083,80.00
2084,80.00
2085,80.00
2086,80.00
2087,80.00
2088,80.00
2089,80.00
2090,80.00
2091,80.00
2092,80.00
2093,80.00
2094,80.00
2095,80.00
2096,80.00
2097,80.00
2098,80.00
2099,80.00
2100,80.00
2101,80.00
2102,80.00
2103,80.00
2104,80.00
2105,80.00
2106,100.00
2107,100.00
2108,100.00
2109,100.00
2110,120.00
2111,120.00
2112,120.00
2113,120.00
2114,120.00
2115,140.00
2116,160.00
2117,120.00
2118,160.00
2119,160.00
2120,160.00
2121,160.00
2122,160.00
2123,160.00
2124,160.00
2125,160.00
2126,160.00
2127,160.00
2128,180.00
2129,180.00
2130,200.00
2131,200.00
2132,200.00
2133,200.00
2134,200.00
2135,220.00
2136,200.00
2137,220.00
2138,220.00
2139,220.00
2140,220.00
2141,240.00
2142,220.00
2143,240.00
2144,240.00
2145,240.00
2146,240.00
2147,260.00
2148,240.00
2149,260.00
2150,240.00
2151,240.00
2152,240.00
2153,260.00
2154,260.00
2155,280.00
2156,260.00
2157,260.00
2158,280.00
2159,280.00
2160,280.00
2161,280.00
2162,300.00
2163,300.00
2164,300.00
2165,300.00
2166,300.00
2167,300.00
2168,320.00
2169,300.00
2170,300.00
2171,300.00
2172,320.00
2173,320.00
2174,320.00
2175,320.00
2176,320.00
2177,320.00
2178,320.00
2179,320.00
2180,320.00
2181,320.00
2182,320.00
2183,320.00
2184,320.00
2185,320.00
2186,340.00
2187,340.00
2188,340.00
2189,340.00
2190,340.00
2191,340.00
2192,340.00
2193,340.00
2194,340.00
2195,360.00
2196,360.00
2197,360.00
2198,360.00
2199,340.00
2200,360.00
2201,380.00
2202,380.00
2203,380.00
2204,380.00
2205,380.00
2206,380.00
2207,380.00
2208,380.00
2209,380.00
2210,380.00
2211,380.00
2212,380.00
2213,380.00
2214,380.00
2215,420.00
2216,400.00
2217,400.00
2218,420.00
2219,400.00
2220,420.00
2221,420.00
2222,420.00
2223,420.00
2224,440.00
2225,420.00
2226,440.00
2227,460.00
2228,440.00
2229,420.00
2230,460.00
2231,460.00
2232,460.00
2233,460.00
2234,460.00
2235,460.00
2236,460.00
2237,240.00
2238,-140.00
2239,-160.00
2240,-140.00
2241,-140.00
2242,-140.00
2243,-140.00
2244,-140.00
2245,-140.00
2246,-140.00
2247,-140.00
2248,-140.00
2249,-140.00
2250,-140.00
2251,-140.00
2252,-140.00
2253,-120.00
2254,-120.00
2255,-120.00
2256,-120.00
2257,-140.00
2258,-140.00
2259,-120.00
2260,-120.00
2261,-120.00
2262,-120.00
2263,-120.00
2264,-120.00
2265,-120.00
2266,-120.00
2267,-100.00
2268,-100.00
2269,-100.00
2270,-120.00
2271,-100.00
2272,-100.00
2273,-100.00
2274,-100.00
2275,-100.00
2276,-100.00
2277,-100.00
2278,-100.00
2279,-100.00
2280,-100.00
2281,-100.00
2282,-100.00
2283,-80.00
2284,-80.00
2285,-100.00
2286,-100.00
2287,-80.00
2288,-100.00
2289,-80.00
2290,-80.00
2291,-80.00
2292,-80.00
2293,-80.00
2294,-80.00
2295,-80.00
2296,-60.00
2297,-80.00
2298,-80.00
2299,-60.00
2300,-80.00
2301,-80.00
2302,-60.00
2303,-80.00
2304,-80.00
2305,-100.00
2306,-100.00
2307,-80.00
2308,-80.00
2309,-60.00
2310,-80.00
2311,-80.00
2312,-60.00
2313,-60.00
2314,-60.00
2315,-80.00
2316,-60.00
2317,-60.00
2318,-60.00
2319,-60.00
2320,-60.00
2321,-60.00
2322,-60.00
2323,-60.00
2324,-60.00
2325,-60.00
2326,-60.00
2327,-60.00
2328,-60.00
2329,-60.00
2330,-60.00
2331,-60.00
2332,-60.00
2333,-60.00
2334,-60.00
2335,-60.00
2336,-60.00
2337,-40.00
2338,-40.00
2339,-60.00
2340,-60.00
2341,-60.00
2342,-60.00
2343,-40.00
2344,-40.00
2345,-60.00
2346,-60.00
2347,-40.00
2348,-40.00
2349,-40.00
2350,-40.00
2351,-40.00
2352,-40.00
2353,-40.00
2354,-40.00
2355,-40.00
2356,-40.00
2357,-40.00
2358,-40.00
2359,-40.00
2360,-40.00
2361,-40.00
2362,-40.00
2363,-40.00
2364,-40.00
2365,-40.00
2366,-20.00
2367,-40.00
2368,-20.00
2369,-20.00
2370,-40.00
2371,-40.00
2372,-40.00
2373,-20.00
2374,-20.00
2375,-20.00
2376,-20.00
2377,-40.00
2378,-20.00
2379,-20.00
2380,-20.00
2381,-20.00
2382,0.00
2383,-20.00
2384,-20.00
2385,-20.00
2386,-20.00
2387,-20.00
2388,0.00
2389,-20.00
2390,-20.00
2391,-20.00
2392,-20.00
2393,-20.00
2394,0.00
2395,-20.00
2396,-20.00
2397,0.00
2398,-20.00
2399,-20.00
2400,0.00
2401,0.00
2402,0.00
2403,0.00
2404,0.00
2405,0.00
2406,0.00
2407,0.00
2408,0.00
2409,0.00
2410,0.00
2411,0.00
2412,20.00
2413,-20.00
2414,0.00
2415,-20.00
2416,20.00
2417,-20.00
2418,0.00
2419,20.00
2420,0.00
2421,0.00
2422,20.00
2423,20.00
2424,20.00
2425,20.00
2426,20.00
2427,20.00
2428,0.00
2429,20.00
2430,20.00
2431,20.00
2432,20.00
2433,0.00
2434,20.00
2435,20.00
2436,20.00
2437,20.00
2438,20.00
2439,20.00
2440,20.00
2441,20.00
2442,20.00
2443,20.00
2444,20.00
2445,20.00
2446,20.00
2447,20.00
2448,20.00
2449,20.00
2450,20.00
2451,20.00
2452,20.00
2453,20.00
2454,20.00
2455,40.00
2456,40.00
2457,20.00
2458,20.00
2459,20.00
2460,40.00
2461,20.00
2462,20.00
2463,20.00
2464,20.00
2465,20.00
2466,20.00
2467,20.00
2468,20.00
2469,40.00
2470,40.00
2471,20.00
2472,40.00
2473,40.00
2474,40.00
2475,20.00
2476,20.00
2477,40.00
2478,40.00
2479,20.00
2480,40.00
2481,40.00
2482,40.00
2483,40.00
2484,20.00
2485,40.00
2486,40.00
2487,40.00
2488,40.00
2489,40.00
2490,20.00
2491,20.00
2492,40.00
2493,20.00
2494,40.00
2495,40.00
2496,40.00
2497,40.00
2498,40.00
2499,40.00
2500,40.00
2501,40.00
2502,40.00
2503,40.00
2504,40.00
2505,40.00
2506,40.00
2507,40.00
2508,40.00
2509,40.00
2510,40.00
2511,40.00
2512,40.00
2513,40.00
2514,40.00
2515,40.00
2516,40.00
2517,40.00
2518,40.00
2519,40.00
2520,40.00
2521,40.00
2522,40.00
2523,40.00
2524,40.00
2525,40.00
2526,40.00
2527,40.00
2528,40.00
2529,40.00
2530,40.00
2531,40.00
2532,40.00
2533,40.00
2534,40.00
2535,40.00
2536,40.00
2537,40.00
2538,40.00
2539,40.00
2540,40.00
2541,60.00
2542,60.00
2543,40.00
2544,40.00
2545,40.00
2546,40.00
2547,40.00
2548,40.00
2549,40.00
2550,60.00
2551,60.00
2552,60.00
2553,40.00
2554,40.00
2555,40.00
2556,40.00
2557,60.00
2558,40.00
2559,60.00
2560,60.00
2561,40.00
2562,60.00
2563,60.00
2564,40.00
2565,60.00
2566,60.00
2567,60.00
2568,60.00
2569,60.00
2570,60.00
2571,40.00
2572,60.00
2573,60.00
2574,80.00
2575,60.00
2576,80.00
2577,60.00
2578,80.00
2579,80.00
2580,80.00
2581,80.00
2582,80.00
2583,80.00
2584,80.00
2585,80.00
2586,80.00
2587,80.00
2588,80.00
2589,80.00
2590,80.00
2591,80.00
2592,80.00
2593,80.00
2594,80.00
2595,80.00
2596,80.00
2597,80.00
2598,80.00
2599,80.00
2600,80.00
2601,100.00
2602,80.00
2603,80.00
2604,100.00
2605,100.00
2606,100.00
2607,100.00
2608,100.00
2609,100.00
2610,120.00
2611,120.00
2612,120.00
2613,120.00
2614,120.00
2615,140.00
2616,160.00
2617,140.00
2618,160.00
2619,160.00
2620,160.00
2621,160.00
2622,160.00
2623,180.00
2624,180.00
2625,180.00
2626,200.00
2627,200.00
2628,200.00
2629,220.00
2630,220.00
2631,220.00
2632,220.00
2633,220.00
2634,240.00
2635,220.00
2636,240.00
2637,240.00
2638,240.00
2639,240.00
2640,260.00
2641,260.00
2642,260.00
2643,260.00
2644,260.00
2645,260.00
2646,260.00
2647,260.00
2648,280.00
2649,260.00
2650,260.00
2651,280.00
2652,280.00
2653,260.00
2654,280.00
2655,300.00
2656,300.00
2657,300.00
2658,280.00
2659,300.00
2660,300.00
2661,300.00
2662,300.00
2663,320.00
2664,320.00
2665,300.00
2666,320.00
2667,320.00
2668,320.00
2669,320.00
2670,320.00
2671,320.00
2672,320.00
2673,320.00
2674,320.00
2675,320.00
2676,320.00
2677,320.00
2678,320.00
2679,320.00
2680,320.00
2681,320.00
2682,320.00
2683,320.00
2684,320.00
2685,340.00
2686,340.00
2687,340.00
2688,360.00
2689,340.00
2690,340.00
2691,340.00
2692,360.00
2693,360.00
2694,360.00
2695,360.00
2696,340.00
2697,360.00
2698,360.00
2699,380.00
2700,380.00
2701,380.00
2702,380.00
2703,380.00
2704,380.00
2705,380.00
2706,380.00
2707,380.00
2708,380.00
2709,400.00
2710,400.00
2711,400.00
2712,380.00
2713,400.00
2714,400.00
2715,420.00
2716,400.00
2717,440.00
2718,420.00
2719,440.00
2720,420.00
2721,420.00
2722,440.00
2723,440.00
2724,420.00
2725,460.00
2726,460.00
2727,460.00
2728,460.00
2729,460.00
2730,460.00
2731,460.00
2732,460.00
2733,460.00
2734,460.00
2735,240.00
2736,-180.00
2737,-160.00
2738,-140.00
2739,-140.00
2740,-140.00
2741,-140.00
2742,-140.00
2743,-140.00
2744,-140.00
2745,-140.00
2746,-140.00
2747,-140.00
2748,-140.00
2749,-140.00
2750,-140.00
2751,-120.00
2752,-140.00
2753,-120.00
2754,-120.00
2755,-120.00
2756,-120.00
2757,-120.00
2758,-120.00
2759,-120.00
2760,-120.00
2761,-120.00
2762,-100.00
2763,-100.00
2764,-100.00
2765,-100.00
2766,-100.00
2767,-100.00
2768,-100.00
2769,-100.00
2770,-100.00
2771,-100.00
2772,-100.00
2773,-100.00
2774,-100.00
2775,-100.00
2776,-100.00
2777,-80.00
2778,-100.00
2779,-100.00
2780,-100.00
2781,-100.00
2782,-80.00
2783,-80.00
2784,-100.00
2785,-80.00
2786,-80.00
2787,-80.00
2788,-80.00
2789,-80.00
2790,-80.00
2791,-80.00
2792,-80.00
2793,-80.00
2794,-100.00
2795,-60.00
2796,-100.00
2797,-60.00
2798,-80.00
2799,-80.00
2800,-60.00
2801,-80.00
2802,-80.00
2803,-100.00
2804,-100.00
2805,-80.00
2806,-100.00
2807,-80.00
2808,-60.00
2809,-60.00
2810,-60.00
2811,-60.00
2812,-60.00
2813,-60.00
2814,-60.00
2815,-60.00
2816,-60.00
2817,-60.00
2818,-60.00
2819,-60.00
2820,-60.00
2821,-60.00
2822,-60.00
2823,-60.00
2824,-60.00
2825,-60.00
2826,-60.00
2827,-60.00
2828,-60.00
2829,-60.00
2830,-60.00
2831,-60.00
2832,-60.00
2833,-60.00
2834,-40.00
2835,-40.00
2836,-60.00
2837,-40.00
2838,-40.00
2839,-60.00
2840,-40.00
2841,-40.00
2842,-60.00
2843,-60.00
2844,-40.00
2845,-40.00
2846,-40.00
2847,-40.00
2848,-40.00
2849,-40.00
2850,-40.00
2851,-40.00
2852,-40.00
2853,-40.00
2854,-40.00
2855,-40.00
2856,-40.00
2857,-40.00
2858,-40.00
2859,-40.00
2860,-40.00
2861,-40.00
2862,-40.00
2863,-40.00
2864,-40.00
2865,-20.00
2866,-40.00
2867,-40.00
2868,-40.00
2869,-40.00
2870,-40.00
2871,-40.00
2872,-40.00
2873,-20.00
2874,-20.00
2875,-20.00
2876,-20.00
2877,-20.00
2878,-20.00
2879,-20.00
2880,-20.00
2881,0.00
2882,-20.00
2883,-20.00
2884,-20.00
2885,0.00
2886,-20.00
2887,-20.00
2888,-20.00
2889,-40.00
2890,-20.00
2891,-20.00
2892,-20.00
2893,0.00
2894,0.00
2895,-20.00
2896,-20.00
2897,0.00
2898,0.00
2899,-20.00
2900,0.00
2901,-20.00
2902,0.00
2903,-20.00
2904,0.00
2905,-20.00
2906,0.00
2907,0.00
2908,0.00
2909,0.00
2910,0.00
2911,0.00
2912,-20.00
2913,20.00
2914,-20.00
2915,20.00
2916,0.00
2917,0.00
2918,20.00
2919,0.00
2920,0.00
2921,0.00
2922,-20.00
2923,0.00
2924,20.00
2925,0.00
2926,20.00
2927,0.00
2928,20.00
2929,20.00
2930,20.00
2931,20.00
2932,20.00
2933,20.00
2934,20.00
2935,20.00
2936,20.00
2937,20.00
2938,20.00
2939,20.00
2940,20.00
2941,20.00
2942,20.00
2943,20.00
2944,0.00
2945,20.00
2946,20.00
2947,20.00
2948,20.00
2949,20.00
2950,20.00
2951,20.00
2952,20.00
2953,20.00
2954,20.00
2955,20.00
2956,20.00
2957,20.00
2958,20.00
2959,20.00
2960,20.00
2961,20.00
2962,40.00
2963,20.00
2964,20.00
2965,20.00
2966,20.00
2967,40.00
2968,20.00
2969,20.00
2970,40.00
2971,20.00
2972,20.00
2973,40.00
2974,40.00
2975,20.00
2976,20.00
2977,40.00
2978,20.00
2979,40.00
2980,40.00
2981,40.00
2982,40.00
2983,40.00
2984,40.00
2985,40.00
2986,40.00
2987,40.00
2988,40.00
2989,40.00
2990,40.00
2991,40.00
2992,40.00
2993,40.00
2994,40.00
2995,40.00
2996,40.00
2997,40.00
2998,40.00
2999,40.00
3000,40.00
3001,40.00
3002,40.00
3003,40.00
3004,40.00
3005,40.00
3006,40.00
3007,40.00
3008,40.00
3009,40.00
3010,40.00
3011,40.00
3012,40.00
3013,40.00
3014,40.00
3015,40.00
3016,40.00
3017,40.00
3018,40.00
3019,40.00
3020,40.00
3021,40.00
3022,40.00
3023,40.00
3024,40.00
3025,40.00
3026,40.00
3027,40.00
3028,40.00
3029,40.00
3030,40.00
3031,40.00
3032,40.00
3033,40.00
3034,40.00
3035,40.00
3036,40.00
3037,40.00
3038,40.00
3039,40.00
3040,40.00
3041,60.00
3042,40.00
3043,60.00
3044,60.00
3045,80.00
3046,60.00
3047,60.00
3048,60.00
3049,60.00
3050,60.00
3051,60.00
3052,60.00
3053,60.00
3054,60.00
3055,60.00
3056,80.00
3057,60.00
3058,60.00
3059,60.00
3060,60.00
3061,80.00
3062,60.00
3063,60.00
3064,40.00
3065,80.00
3066,60.00
3067,80.00
3068,80.00
3069,80.00
3070,80.00
3071,80.00
3072,80.00
3073,80.00
3074,80.00
3075,80.00
3076,80.00
3077,80.00
3078,80.00
3079,80.00
3080,80.00
3081,80.00
3082,80.00
3083,80.00
3084,80.00
3085,80.00
3086,100.00
3087,100.00
3088,100.00
3089,80.00
3090,100.00
3091,100.00
3092,100.00
3093,100.00
3094,100.00
3095,100.00
3096,100.00
3097,120.00
3098,120.00
3099,120.00
3100,120.00
3101,120.00
3102,120.00
3103,140.00
3104,120.00
3105,140.00
3106,140.00
3107,160.00
3108,160.00
3109,160.00
3110,160.00
3111,160.00
3112,160.00
3113,160.00
3114,160.00
3115,160.00
3116,180.00
3117,180.00
3118,200.00
3119,200.00
3120,200.00
3121,200.00
3122,200.00
3123,200.00
3124,200.00
3125,200.00
3126,200.00
3127,220.00
3128,220.00
3129,220.00
3130,220.00
3131,220.00
3132,220.00
3133,240.00
3134,240.00
3135,240.00
3136,240.00
3137,240.00
3138,240.00
3139,240.00
3140,240.00
3141,240.00
3142,240.00
3143,240.00
3144,260.00
3145,260.00
3146,260.00
3147,260.00
3148,260.00
3149,280.00
3150,280.00
3151,260.00
3152,260.00
3153,280.00
3154,280.00
3155,280.00
3156,280.00
3157,280.00
3158,320.00
3159,280.00
3160,300.00
3161,300.00
3162,300.00
3163,320.00
3164,320.00
3165,300.00
3166,320.00
3167,300.00
3168,320.00
3169,320.00
3170,320.00
3171,320.00
3172,320.00
3173,320.00
3174,320.00
3175,320.00
3176,320.00
3177,320.00
3178,320.00
3179,320.00
3180,340.00
3181,320.00
3182,340.00
3183,340.00
3184,340.00
3185,340.00
3186,340.00
3187,340.00
3188,340.00
3189,360.00
3190,360.00
3191,360.00
3192,360.00
3193,360.00
3194,360.00
3195,360.00
3196,360.00
3197,360.00
3198,360.00
3199,380.00
3200,380.00
3201,380.00
3202,380.00
3203,380.00
3204,380.00
3205,380.00
3206,380.00
3207,400.00
3208,400.00
3209,400.00
3210,400.00
3211,400.00
3212,400.00
3213,400.00
3214,420.00
3215,420.00
3216,420.00
3217,420.00
3218,420.00
3219,420.00
3220,440.00
3221,440.00
3222,440.00
3223,460.00
3224,440.00
3225,460.00
3226,460.00
3227,460.00
3228,460.00
3229,460.00
3230,460.00
3231,460.00
3232,460.00
3233,240.00
3234,-180.00
3235,-140.00
3236,-140.00
3237,-140.00
3238,-140.00
3239,-140.00
3240,-140.00
3241,-140.00
3242,-140.00
3243,-140.00
3244,-140.00
3245,-140.00
3246,-140.00
3247,-140.00
3248,-140.00
3249,-120.00
3250,-140.00
3251,-120.00
3252,-120.00
3253,-120.00
3254,-140.00
3255,-120.00
3256,-120.00
3257,-120.00
3258,-120.00
3259,-120.00
3260,-120.00
3261,-120.00
3262,-100.00
3263,-100.00
3264,-120.00
3265,-100.00
3266,-100.00
3267,-100.00
3268,-100.00
3269,-80.00
3270,-100.00
3271,-100.00
3272,-100.00
3273,-100.00
3274,-100.00
3275,-100.00
3276,-100.00
3277,-100.00
3278,-80.00
3279,-100.00
3280,-100.00
3281,-100.00
3282,-100.00
3283,-100.00
3284,-100.00
3285,-100.00
3286,-80.00
3287,-80.00
3288,-80.00
3289,-80.00
3290,-80.00
3291,-80.00
3292,-100.00
3293,-80.00
3294,-80.00
3295,-80.00
3296,-80.00
3297,-80.00
3298,-80.00
3299,-80.00
3300,-80.00
3301,-60.00
3302,-80.00
3303,-60.00
3304,-100.00
3305,-60.00
3306,-60.00
3307,-80.00
3308,-60.00
3309,-60.00
3310,-60.00
3311,-60.00
3312,-60.00
3313,-60.00
3314,-60.00
3315,-60.00
3316,-60.00
3317,-60.00
3318,-60.00
3319,-60.00
3320,-60.00
3321,-60.00
3322,-60.00
3323,-60.00
3324,-60.00
3325,-60.00
3326,-60.00
3327,-60.00
3328,-40.00
3329,-40.00
3330,-60.00
3331,-40.00
3332,-60.00
3333,-40.00
3334,-40.00
3335,-40.00
3336,-60.00
3337,-40.00
3338,-60.00
3339,-40.00
3340,-40.00
3341,-40.00
3342,-40.00
3343,-40.00
3344,-40.00
3345,-40.00
3346,-40.00
3347,-60.00
3348,-40.00
3349,-40.00
3350,-40.00
3351,-40.00
3352,-40.00
3353,-40.00
3354,-40.00
3355,-40.00
3356,-40.00
3357,-40.00
3358,-40.00
3359,-40.00
3360,-40.00
3361,-40.00
3362,-40.00
3363,-40.00
3364,-40.00
3365,-40.00
3366,-20.00
3367,-40.00
3368,-20.00
3369,-20.00
3370,-20.00
3371,-40.00
3372,-20.00
3373,-20.00
3374,-20.00
3375,-20.00
3376,-20.00
3377,-20.00
3378,-20.00
3379,-20.00
3380,-20.00
3381,-20.00
3382,-20.00
3383,-20.00
3384,-20.00
3385,-20.00
3386,-20.00
3387,0.00
3388,-20.00
3389,0.00
3390,-20.00
3391,-20.00
3392,-20.00
3393,0.00
3394,0.00
3395,0.00
3396,0.00
3397,0.00
3398,-20.00
3399,0.00
3400,-20.00
3401,0.00
3402,-20.00
3403,0.00
3404,-20.00
3405,0.00
3406,0.00
3407,0.00
3408,0.00
3409,0.00
3410,0.00
3411,-20.00
3412,0.00
3413,-20.00
3414,20.00
3415,0.00
3416,0.00
3417,0.00
3418,20.00
3419,0.00
3420,20.00
3421,20.00
3422,20.00
3423,20.00
3424,0.00
3425,0.00
3426,20.00
3427,20.00
3428,20.00
3429,20.00
3430,20.00
3431,20.00
3432,20.00
3433,20.00
3434,20.00
3435,20.00
3436,20.00
3437,0.00
3438,20.00
3439,20.00
3440,20.00
3441,20.00
3442,40.00
3443,20.00
3444,20.00
3445,20.00
3446,20.00
3447,20.00
3448,20.00
3449,20.00
3450,40.00
3451,20.00
3452,20.00
3453,20.00
3454,20.00
3455,20.00
3456,20.00
3457,20.00
3458,20.00
3459,20.00
3460,20.00
3461,40.00
3462,20.00
3463,20.00
3464,20.00
3465,20.00
3466,40.00
3467,40.00
3468,40.00
3469,40.00
3470,40.00
3471,20.00
3472,40.00
3473,20.00
3474,20.00
3475,40.00
3476,20.00
3477,40.00
3478,40.00
3479,40.00
3480,40.00
3481,40.00
3482,40.00
3483,40.00
3484,40.00
3485,40.00
3486,40.00
3487,40.00
3488,40.00
3489,40.00
3490,40.00
3491,40.00
3492,40.00
3493,40.00
3494,40.00
3495,40.00
3496,40.00
3497,40.00
3498,40.00
3499,40.00
3500,40.00
3501,40.00
3502,40.00
3503,40.00
3504,40.00
3505,40.00
3506,40.00
3507,40.00
3508,40.00
3509,40.00
3510,40.00
3511,40.00
3512,40.00
3513,40.00
3514,40.00
3515,40.00
3516,40.00
3517,40.00
3518,40.00
3519,40.00
3520,40.00
3521,40.00
3522,40.00
3523,60.00
3524,40.00
3525,60.00
3526,40.00
3527,60.00
3528,40.00
3529,40.00
3530,40.00
3531,60.00
3532,60.00
3533,40.00
3534,40.00
3535,60.00
3536,60.00
3537,40.00
3538,60.00
3539,40.00
3540,60.00
3541,60.00
3542,60.00
3543,60.00
3544,60.00
3545,60.00
3546,60.00
3547,60.00
3548,60.00
3549,60.00
3550,60.00
3551,60.00
3552,60.00
3553,60.00
3554,60.00
3555,60.00
3556,80.00
3557,40.00
3558,40.00
3559,60.00
3560,60.00
3561,40.00
3562,40.00
3563,80.00
3564,60.00
3565,60.00
3566,80.00
3567,60.00
3568,60.00
3569,80.00
3570,80.00
3571,80.00
3572,80.00
3573,80.00
3574,80.00
3575,80.00
3576,60.00
3577,80.00
3578,80.00
3579,80.00
3580,80.00
3581,80.00
3582,80.00
3583,80.00
3584,80.00
3585,80.00
3586,80.00
3587,80.00
3588,80.00
3589,80.00
3590,80.00
3591,80.00
3592,80.00
3593,80.00
3594,80.00
3595,80.00
3596,80.00
3597,80.00
3598,80.00
3599,80.00
3600,80.00
3601,80.00
3602,80.00
3603,80.00
3604,80.00
3605,80.00
3606,80.00
3607,80.00
3608,80.00
3609,80.00
3610,100.00
3611,100.00
3612,80.00
3613,80.00
3614,80.00
3615,100.00
3616,100.00
3617,100.00
3618,120.00
3619,160.00
3620,160.00
3621,200.00
3622,200.00
3623,200.00
3624,200.00
3625,220.00
3626,220.00
3627,200.00
3628,220.00
3629,220.00
3630,220.00
3631,220.00
3632,220.00
3633,220.00
3634,220.00
3635,240.00
3636,240.00
3637,240.00
3638,240.00
3639,240.00
3640,240.00
3641,240.00
3642,240.00
3643,240.00
3644,240.00
3645,240.00
3646,260.00
3647,260.00
3648,260.00
3649,260.00
3650,260.00
3651,260.00
3652,260.00
3653,260.00
3654,260.00
3655,260.00
3656,280.00
3657,260.00
3658,280.00
3659,280.00
3660,280.00
3661,280.00
3662,300.00
3663,280.00
3664,300.00
3665,300.00
3666,300.00
3667,320.00
3668,300.00
3669,320.00
3670,320.00
3671,320.00
3672,320.00
3673,320.00
3674,320.00
3675,320.00
3676,320.00
3677,320.00
3678,320.00
3679,320.00
3680,320.00
3681,320.00
3682,320.00
3683,320.00
3684,340.00
3685,340.00
3686,340.00
3687,340.00
3688,340.00
3689,340.00
3690,360.00
3691,340.00
3692,360.00
3693,360.00
3694,380.00
3695,360.00
3696,360.00
3697,380.00
3698,380.00
3699,380.00
3700,380.00
3701,380.00
3702,380.00
3703,380.00
3704,380.00
3705,380.00
3706,380.00
3707,380.00
3708,380.00
3709,400.00
3710,400.00
3711,400.00
3712,400.00
3713,420.00
3714,400.00
3715,420.00
3716,400.00
3717,420.00
3718,440.00
3719,420.00
3720,460.00
3721,440.00
3722,420.00
3723,440.00
3724,460.00
3725,460.00
3726,460.00
3727,460.00
3728,460.00
3729,460.00
3730,460.00
3731,240.00
3732,-360.00
3733,-140.00
3734,-120.00
3735,-140.00
3736,-120.00
3737,-140.00
3738,-120.00
3739,-140.00
3740,-140.00
3741,-120.00
3742,-120.00
3743,-120.00
3744,-100.00
3745,-120.00
3746,-120.00
3747,-120.00
3748,-120.00
3749,-100.00
3750,-120.00
3751,-100.00
3752,-100.00
3753,-120.00
3754,-100.00
3755,-100.00
3756,-100.00
3757,-100.00
3758,-100.00
3759,-100.00
3760,-100.00
3761,-100.00
3762,-100.00
3763,-100.00
3764,-100.00
3765,-100.00
3766,-100.00
3767,-100.00
3768,-80.00
3769,-100.00
3770,-80.00
3771,-100.00
3772,-100.00
3773,-100.00
3774,-80.00
3775,-80.00
3776,-100.00
3777,-80.00
3778,-80.00
3779,-80.00
3780,-80.00
3781,-80.00
3782,-100.00
3783,-60.00
3784,-80.00
3785,-80.00
3786,-100.00
3787,-80.00
3788,-60.00
3789,-80.00
3790,-100.00
3791,-60.00
3792,-80.00
3793,-80.00
3794,-60.00
3795,-60.00
3796,-80.00
3797,-60.00
3798,-60.00
3799,-80.00
3800,-80.00
3801,-60.00
3802,-60.00
3803,-60.00
3804,-60.00
3805,-60.00
3806,-60.00
3807,-60.00
3808,-60.00
3809,-60.00
3810,-60.00
3811,-60.00
3812,-60.00
3813,-60.00
3814,-60.00
3815,-60.00
3816,-60.00
3817,-60.00
3818,-60.00
3819,-60.00
3820,-60.00
3821,-60.00
3822,-60.00
3823,-40.00
3824,-60.00
3825,-60.00
3826,-60.00
3827,-60.00
3828,-60.00
3829,-60.00
3830,-60.00
3831,-60.00
3832,-60.00
3833,-60.00
3834,-40.00
3835,-40.00
3836,-40.00
3837,-60.00
3838,-60.00
3839,-60.00
3840,-40.00
3841,-40.00
3842,-60.00
3843,-40.00
3844,-40.00
3845,-40.00
3846,-40.00
3847,-40.00
3848,-40.00
3849,-40.00
3850,-40.00
3851,-60.00
3852,-40.00
3853,-40.00
3854,-40.00
3855,-40.00
3856,-40.00
3857,-20.00
3858,-20.00
3859,-40.00
3860,-40.00
3861,-20.00
3862,-20.00
3863,-40.00
3864,-20.00
3865,-40.00
3866,-40.00
3867,-20.00
3868,-20.00
3869,-20.00
3870,-20.00
3871,-40.00
3872,-20.00
3873,-20.00
3874,-20.00
3875,-20.00
3876,-20.00
3877,-20.00
3878,0.00
3879,-20.00
3880,-20.00
3881,-20.00
3882,-20.00
3883,-20.00
3884,-20.00
3885,-20.00
3886,-20.00
3887,0.00
3888,-20.00
3889,0.00
3890,0.00
3891,0.00
3892,0.00
3893,0.00
3894,-20.00
3895,-20.00
3896,0.00
3897,0.00
3898,-20.00
3899,0.00
3900,0.00
3901,0.00
3902,0.00
3903,0.00
3904,20.00
3905,0.00
3906,0.00
3907,0.00
3908,0.00
3909,0.00
3910,0.00
3911,0.00
3912,0.00
3913,0.00
3914,20.00
3915,0.00
3916,0.00
3917,20.00
3918,20.00
3919,20.00
3920,20.00
3921,20.00
3922,20.00
3923,20.00
3924,20.00
3925,20.00
3926,20.00
3927,20.00
3928,20.00
3929,20.00
3930,0.00
3931,20.00
3932,20.00
3933,20.00
3934,20.00
3935,20.00
3936,20.00
3937,20.00
3938,20.00
3939,20.00
3940,20.00
3941,20.00
3942,20.00
3943,20.00
3944,20.00
3945,20.00
3946,20.00
3947,20.00
3948,20.00
3949,40.00
3950,40.00
3951,20.00
3952,20.00
3953,20.00
3954,20.00
3955,20.00
3956,20.00
3957,20.00
3958,20.00
3959,20.00
3960,20.00
3961,20.00
3962,20.00
3963,20.00
3964,20.00
3965,40.00
3966,20.00
3967,20.00
3968,20.00
3969,20.00
3970,20.00
3971,40.00
3972,20.00
3973,20.00
3974,20.00
3975,20.00
3976,20.00
3977,40.00
3978,20.00
3979,20.00
3980,40.00
3981,40.00
3982,40.00
3983,20.00
3984,20.00
3985,40.00
3986,40.00
3987,40.00
3988,40.00
3989,40.00
3990,40.00
3991,40.00
3992,40.00
3993,40.00
3994,40.00
3995,40.00
3996,40.00
3997,20.00
3998,40.00
3999,40.00
