Channel			  :,CH1
Frequency			  :,F=1.001kHz
Period 			  :,T=999.2us
PK-PK				  :,Vpp=5.040V
Average			  :,V=56.67mV
Vertical pos		  :,0.00mV
Probe attenuation	  :,1X
Voltage per ADC value:,80.00mV
Time interval		  :,2.00uS

index,CH1_Voltage(mV)
0,160.00
1,160.00
2,160.00
3,160.00
4,160.00
5,160.00
6,240.00
7,320.00
8,240.00
9,320.00
10,240.00
11,320.00
12,320.00
13,320.00
14,320.00
15,320.00
16,320.00
17,400.00
18,320.00
19,400.00
20,400.00
21,480.00
22,480.00
23,400.00
24,480.00
25,480.00
26,480.00
27,480.00
28,480.00
29,480.00
30,480.00
31,480.00
32,480.00
33,480.00
34,560.00
35,480.00
36,560.00
37,560.00
38,560.00
39,560.00
40,560.00
41,560.00
42,560.00
43,560.00
44,640.00
45,640.00
46,640.00
47,560.00
48,560.00
49,640.00
50,640.00
51,560.00
52,560.00
53,640.00
54,720.00
55,720.00
56,640.00
57,720.00
58,720.00
59,720.00
60,720.00
61,720.00
62,800.00
63,720.00
64,800.00
65,800.00
66,720.00
67,800.00
68,800.00
69,880.00
70,880.00
71,880.00
72,880.00
73,880.00
74,880.00
75,880.00
76,880.00
77,880.00
78,880.00
79,960.00
80,960.00
81,1040.00
82,1040.00
83,1040.00
84,1040.00
85,960.00
86,960.00
87,1040.00
88,1040.00
89,1040.00
90,1040.00
91,1040.00
92,1040.00
93,1120.00
94,1040.00
95,1040.00
96,1200.00
97,1200.00
98,1200.00
99,1200.00
100,1200.00
101,1200.00
102,1120.00
103,1200.00
104,1280.00
105,1120.00
106,1280.00
107,1280.00
108,1280.00
109,1360.00
110,1280.00
111,1280.00
112,1360.00
113,1280.00
114,1360.00
115,1360.00
116,1360.00
117,1360.00
118,1360.00
119,1360.00
120,1360.00
121,1360.00
122,1360.00
123,1440.00
124,1360.00
125,1440.00
126,1360.00
127,1440.00
128,1440.00
129,1440.00
130,1440.00
131,1520.00
132,1440.00
133,1440.00
134,1520.00
135,1520.00
136,1520.00
137,1520.00
138,1520.00
139,1600.00
140,1520.00
141,1520.00
142,1600.00
143,1600.00
144,1600.00
145,1600.00
146,1600.00
147,1600.00
148,1680.00
149,1600.00
150,1600.00
151,1600.00
152,1600.00
153,1760.00
154,1680.00
155,1760.00
156,1760.00
157,1760.00
158,1760.00
159,1680.00
160,1680.00
161,1680.00
162,1840.00
163,1840.00
164,1840.00
165,1840.00
166,1840.00
167,1920.00
168,1840.00
169,1840.00
170,1920.00
171,1920.00
172,1920.00
173,1920.00
174,1920.00
175,1920.00
176,1920.00
177,1920.00
178,1920.00
179,1920.00
180,1920.00
181,1920.00
182,2000.00
183,2000.00
184,2080.00
185,2080.00
186,2080.00
187,2080.00
188,2080.00
189,2080.00
190,2080.00
191,2080.00
192,2080.00
193,2080.00
194,2080.00
195,2080.00
196,2080.00
197,2080.00
198,2080.00
199,2080.00
200,2160.00
201,2160.00
202,2160.00
203,2160.00
204,2160.00
205,2160.00
206,2160.00
207,2160.00
208,2160.00
209,2240.00
210,2240.00
211,2240.00
212,2160.00
213,2240.00
214,2320.00
215,2320.00
216,2320.00
217,2320.00
218,2320.00
219,2320.00
220,2320.00
221,2400.00
222,2320.00
223,2320.00
224,2400.00
225,2400.00
226,2400.00
227,2400.00
228,2400.00
229,2400.00
230,2400.00
231,2400.00
232,2480.00
233,2480.00
234,2480.00
235,2480.00
236,2480.00
237,2480.00
238,2480.00
239,-2320.00
240,-2400.00
241,-2480.00
242,-2400.00
243,-2400.00
244,-2320.00
245,-2320.00
246,-2320.00
247,-2320.00
248,-2320.00
249,-2320.00
250,-2320.00
251,-2320.00
252,-2240.00
253,-2240.00
254,-2320.00
255,-2240.00
256,-2240.00
257,-2240.00
258,-2240.00
259,-2160.00
260,-2160.00
261,-2160.00
262,-2160.00
263,-2160.00
264,-2160.00
265,-2160.00
266,-2160.00
267,-2160.00
268,-2160.00
269,-2160.00
270,-2160.00
271,-2080.00
272,-2000.00
273,-2000.00
274,-2000.00
275,-2000.00
276,-2000.00
277,-2000.00
278,-2000.00
279,-1920.00
280,-2000.00
281,-1920.00
282,-2000.00
283,-2000.00
284,-1920.00
285,-1920.00
286,-1920.00
287,-1840.00
288,-1920.00
289,-1920.00
290,-1840.00
291,-1840.00
292,-1840.00
293,-1840.00
294,-1840.00
295,-1840.00
296,-1840.00
297,-1840.00
298,-1840.00
299,-1840.00
300,-1760.00
301,-1760.00
302,-1760.00
303,-1760.00
304,-1680.00
305,-1680.00
306,-1680.00
307,-1680.00
308,-1680.00
309,-1680.00
310,-1840.00
311,-1680.00
312,-1680.00
313,-1680.00
314,-1680.00
315,-1680.00
316,-1680.00
317,-1680.00
318,-1680.00
319,-1680.00
320,-1680.00
321,-1680.00
322,-1600.00
323,-1680.00
324,-1600.00
325,-1600.00
326,-1600.00
327,-1600.00
328,-1600.00
329,-1600.00
330,-1600.00
331,-1600.00
332,-1520.00
333,-1520.00
334,-1520.00
335,-1520.00
336,-1440.00
337,-1440.00
338,-1360.00
339,-1440.00
340,-1440.00
341,-1360.00
342,-1440.00
343,-1440.00
344,-1280.00
345,-1360.00
346,-1280.00
347,-1280.00
348,-1360.00
349,-1280.00
350,-1280.00
351,-1280.00
352,-1280.00
353,-1280.00
354,-1280.00
355,-1280.00
356,-1280.00
357,-1120.00
358,-1280.00
359,-1280.00
360,-1200.00
361,-1120.00
362,-1120.00
363,-1040.00
364,-1120.00
365,-1120.00
366,-1280.00
367,-1120.00
368,-1120.00
369,-1120.00
370,-1200.00
371,-1040.00
372,-1040.00
373,-1040.00
374,-1040.00
375,-1040.00
376,-1040.00
377,-960.00
378,-1040.00
379,-960.00
380,-960.00
381,-960.00
382,-960.00
383,-960.00
384,-960.00
385,-960.00
386,-960.00
387,-960.00
388,-960.00
389,-960.00
390,-960.00
391,-880.00
392,-960.00
393,-880.00
394,-880.00
395,-880.00
396,-880.00
397,-800.00
398,-880.00
399,-880.00
400,-800.00
401,-880.00
402,-800.00
403,-800.00
404,-800.00
405,-800.00
406,-800.00
407,-800.00
408,-720.00
409,-720.00
410,-720.00
411,-720.00
412,-720.00
413,-720.00
414,-720.00
415,-640.00
416,-720.00
417,-560.00
418,-640.00
419,-560.00
420,-720.00
421,-560.00
422,-560.00
423,-560.00
424,-560.00
425,-560.00
426,-560.00
427,-560.00
428,-560.00
429,-480.00
430,-480.00
431,-480.00
432,-480.00
433,-480.00
434,-400.00
435,-400.00
436,-400.00
437,-480.00
438,-400.00
439,-400.00
440,-400.00
441,-400.00
442,-400.00
443,-400.00
444,-400.00
445,-400.00
446,-400.00
447,-320.00
448,-320.00
449,-240.00
450,-240.00
451,-240.00
452,-240.00
453,-240.00
454,-240.00
455,-240.00
456,-240.00
457,-160.00
458,-160.00
459,-240.00
460,-240.00
461,-160.00
462,-160.00
463,-160.00
464,-160.00
465,-160.00
466,-160.00
467,-160.00
468,-160.00
469,-160.00
470,-160.00
471,-160.00
472,-160.00
473,-160.00
474,0.00
475,-80.00
476,0.00
477,-160.00
478,0.00
479,0.00
480,0.00
481,0.00
482,0.00
483,0.00
484,0.00
485,0.00
486,0.00
487,80.00
488,80.00
489,80.00
490,80.00
491,80.00
492,80.00
493,80.00
494,80.00
495,160.00
496,160.00
497,160.00
498,160.00
499,160.00
500,160.00
501,160.00
502,160.00
503,160.00
504,160.00
505,320.00
506,240.00
507,320.00
508,240.00
509,320.00
510,320.00
511,320.00
512,320.00
513,320.00
514,320.00
515,320.00
516,320.00
517,320.00
518,400.00
519,400.00
520,400.00
521,400.00
522,480.00
523,400.00
524,400.00
525,480.00
526,480.00
527,480.00
528,480.00
529,480.00
530,480.00
531,480.00
532,480.00
533,480.00
534,480.00
535,560.00
536,560.00
537,560.00
538,560.00
539,560.00
540,560.00
541,560.00
542,560.00
543,560.00
544,560.00
545,640.00
546,640.00
547,640.00
548,640.00
549,560.00
550,560.00
551,640.00
552,640.00
553,640.00
554,640.00
555,720.00
556,640.00
557,720.00
558,720.00
559,720.00
560,720.00
561,720.00
562,720.00
563,800.00
564,720.00
565,800.00
566,800.00
567,800.00
568,880.00
569,800.00
570,880.00
571,880.00
572,800.00
573,880.00
574,880.00
575,880.00
576,880.00
577,880.00
578,880.00
579,960.00
580,960.00
581,960.00
582,960.00
583,960.00
584,1040.00
585,1040.00
586,1040.00
587,1040.00
588,1040.00
589,1040.00
590,1040.00
591,1040.00
592,1040.00
593,1120.00
594,1200.00
595,1120.00
596,1200.00
597,1200.00
598,1200.00
599,1200.00
600,1200.00
601,1200.00
602,1200.00
603,1280.00
604,1280.00
605,1280.00
606,1360.00
607,1280.00
608,1280.00
609,1280.00
610,1360.00
611,1280.00
612,1360.00
613,1360.00
614,1360.00
615,1360.00
616,1360.00
617,1360.00
618,1360.00
619,1360.00
620,1360.00
621,1360.00
622,1360.00
623,1360.00
624,1440.00
625,1360.00
626,1440.00
627,1440.00
628,1440.00
629,1440.00
630,1440.00
631,1440.00
632,1440.00
633,1440.00
634,1520.00
635,1520.00
636,1520.00
637,1520.00
638,1520.00
639,1520.00
640,1520.00
641,1600.00
642,1600.00
643,1520.00
644,1600.00
645,1600.00
646,1600.00
647,1600.00
648,1760.00
649,1600.00
650,1680.00
651,1600.00
652,1600.00
653,1760.00
654,1600.00
655,1600.00
656,1680.00
657,1600.00
658,1840.00
659,1760.00
660,1840.00
661,1760.00
662,1840.00
663,1840.00
664,1840.00
665,1840.00
666,1840.00
667,1840.00
668,1840.00
669,1920.00
670,1920.00
671,1920.00
672,1920.00
673,1920.00
674,1920.00
675,1920.00
676,1920.00
677,1920.00
678,1920.00
679,1920.00
680,2000.00
681,2080.00
682,2080.00
683,2080.00
684,2080.00
685,2080.00
686,2080.00
687,2080.00
688,2080.00
689,2080.00
690,2080.00
691,2080.00
692,2080.00
693,2080.00
694,2080.00
695,2160.00
696,2080.00
697,2080.00
698,2160.00
699,2080.00
700,2160.00
701,2160.00
702,2160.00
703,2160.00
704,2160.00
705,2160.00
706,2160.00
707,2240.00
708,2240.00
709,2240.00
710,2240.00
711,2320.00
712,2320.00
713,2320.00
714,2320.00
715,2320.00
716,2320.00
717,2320.00
718,2400.00
719,2320.00
720,2320.00
721,2400.00
722,2320.00
723,2400.00
724,2400.00
725,2480.00
726,2400.00
727,2400.00
728,2480.00
729,2480.00
730,2480.00
731,2480.00
732,2480.00
733,2480.00
734,2560.00
735,2560.00
736,2480.00
737,-2320.00
738,-2320.00
739,-2400.00
740,-2320.00
741,-2320.00
742,-2400.00
743,-2400.00
744,-2320.00
745,-2320.00
746,-2320.00
747,-2320.00
748,-2320.00
749,-2320.00
750,-2240.00
751,-2320.00
752,-2240.00
753,-2240.00
754,-2160.00
755,-2240.00
756,-2160.00
757,-2160.00
758,-2240.00
759,-2160.00
760,-2160.00
761,-2160.00
762,-2160.00
763,-2160.00
764,-2160.00
765,-2160.00
766,-2160.00
767,-2160.00
768,-2000.00
769,-2080.00
770,-2080.00
771,-2080.00
772,-2000.00
773,-2000.00
774,-2000.00
775,-2000.00
776,-2000.00
777,-1920.00
778,-2000.00
779,-2000.00
780,-2000.00
781,-2000.00
782,-1920.00
783,-1920.00
784,-1920.00
785,-1920.00
786,-1920.00
787,-1840.00
788,-1840.00
789,-1840.00
790,-1840.00
791,-1840.00
792,-1840.00
793,-1840.00
794,-1840.00
795,-1760.00
796,-1760.00
797,-1840.00
798,-1840.00
799,-1680.00
800,-1680.00
801,-1680.00
802,-1680.00
803,-1760.00
804,-1680.00
805,-1680.00
806,-1680.00
807,-1760.00
808,-1680.00
809,-1680.00
810,-1680.00
811,-1680.00
812,-1680.00
813,-1680.00
814,-1680.00
815,-1680.00
816,-1680.00
817,-1680.00
818,-1680.00
819,-1600.00
820,-1600.00
821,-1600.00
822,-1600.00
823,-1600.00
824,-1600.00
825,-1520.00
826,-1520.00
827,-1600.00
828,-1600.00
829,-1600.00
830,-1440.00
831,-1520.00
832,-1520.00
833,-1440.00
834,-1520.00
835,-1360.00
836,-1440.00
837,-1440.00
838,-1440.00
839,-1440.00
840,-1360.00
841,-1360.00
842,-1280.00
843,-1280.00
844,-1360.00
845,-1280.00
846,-1280.00
847,-1280.00
848,-1280.00
849,-1280.00
850,-1280.00
851,-1280.00
852,-1280.00
853,-1280.00
854,-1280.00
855,-1280.00
856,-1120.00
857,-1120.00
858,-1200.00
859,-1200.00
860,-1040.00
861,-1280.00
862,-1120.00
863,-1120.00
864,-1040.00
865,-1200.00
866,-1040.00
867,-1040.00
868,-1120.00
869,-1040.00
870,-1040.00
871,-1040.00
872,-1040.00
873,-1040.00
874,-1040.00
875,-1040.00
876,-1040.00
877,-960.00
878,-960.00
879,-960.00
880,-960.00
881,-960.00
882,-960.00
883,-960.00
884,-960.00
885,-960.00
886,-960.00
887,-960.00
888,-880.00
889,-880.00
890,-880.00
891,-880.00
892,-880.00
893,-880.00
894,-880.00
895,-800.00
896,-880.00
897,-800.00
898,-880.00
899,-800.00
900,-800.00
901,-800.00
902,-800.00
903,-720.00
904,-800.00
905,-720.00
906,-720.00
907,-720.00
908,-720.00
909,-720.00
910,-720.00
911,-720.00
912,-720.00
913,-640.00
914,-720.00
915,-560.00
916,-560.00
917,-560.00
918,-560.00
919,-560.00
920,-720.00
921,-560.00
922,-720.00
923,-480.00
924,-480.00
925,-560.00
926,-560.00
927,-560.00
928,-480.00
929,-480.00
930,-480.00
931,-400.00
932,-480.00
933,-400.00
934,-400.00
935,-400.00
936,-400.00
937,-400.00
938,-400.00
939,-400.00
940,-400.00
941,-400.00
942,-400.00
943,-400.00
944,-320.00
945,-320.00
946,-240.00
947,-240.00
948,-240.00
949,-240.00
950,-240.00
951,-240.00
952,-240.00
953,-240.00
954,-240.00
955,-240.00
956,-240.00
957,-240.00
958,-160.00
959,-160.00
960,-160.00
961,-160.00
962,-160.00
963,-160.00
964,-160.00
965,-160.00
966,-160.00
967,-160.00
968,-160.00
969,-160.00
970,-160.00
971,-160.00
972,-160.00
973,-160.00
974,-80.00
975,-80.00
976,0.00
977,0.00
978,0.00
979,0.00
980,0.00
981,0.00
982,80.00
983,0.00
984,80.00
985,0.00
986,80.00
987,0.00
988,80.00
989,80.00
990,80.00
991,80.00
992,80.00
993,80.00
994,160.00
995,160.00
996,160.00
997,160.00
998,160.00
999,160.00
1000,160.00
1001,160.00
1002,160.00
1003,240.00
1004,240.00
1005,240.00
1006,320.00
1007,240.00
1008,320.00
1009,320.00
1010,320.00
1011,320.00
1012,320.00
1013,320.00
1014,320.00
1015,320.00
1016,400.00
1017,400.00
1018,400.00
1019,400.00
1020,480.00
1021,400.00
1022,480.00
1023,480.00
1024,480.00
1025,480.00
1026,480.00
1027,480.00
1028,480.00
1029,480.00
1030,480.00
1031,480.00
1032,480.00
1033,480.00
1034,560.00
1035,560.00
1036,560.00
1037,560.00
1038,560.00
1039,560.00
1040,560.00
1041,560.00
1042,560.00
1043,560.00
1044,480.00
1045,640.00
1046,560.00
1047,640.00
1048,560.00
1049,640.00
1050,720.00
1051,640.00
1052,720.00
1053,720.00
1054,640.00
1055,720.00
1056,720.00
1057,720.00
1058,720.00
1059,720.00
1060,720.00
1061,720.00
1062,720.00
1063,800.00
1064,720.00
1065,720.00
1066,880.00
1067,880.00
1068,880.00
1069,880.00
1070,880.00
1071,880.00
1072,880.00
1073,880.00
1074,880.00
1075,880.00
1076,960.00
1077,960.00
1078,960.00
1079,960.00
1080,960.00
1081,1040.00
1082,1040.00
1083,1040.00
1084,1040.00
1085,1040.00
1086,1040.00
1087,1040.00
1088,1040.00
1089,1120.00
1090,1120.00
1091,1040.00
1092,1040.00
1093,1120.00
1094,1040.00
1095,1200.00
1096,1200.00
1097,1200.00
1098,1200.00
1099,1040.00
1100,1200.00
1101,1200.00
1102,1200.00
1103,1280.00
1104,1280.00
1105,1280.00
1106,1280.00
1107,1280.00
1108,1280.00
1109,1280.00
1110,1280.00
1111,1360.00
1112,1360.00
1113,1360.00
1114,1360.00
1115,1360.00
1116,1360.00
1117,1360.00
1118,1360.00
1119,1360.00
1120,1360.00
1121,1440.00
1122,1360.00
1123,1440.00
1124,1360.00
1125,1440.00
1126,1440.00
1127,1440.00
1128,1440.00
1129,1440.00
1130,1440.00
1131,1440.00
1132,1440.00
1133,1440.00
1134,1440.00
1135,1520.00
1136,1520.00
1137,1520.00
1138,1520.00
1139,1520.00
1140,1600.00
1141,1520.00
1142,1600.00
1143,1600.00
1144,1600.00
1145,1600.00
1146,1600.00
1147,1600.00
1148,1760.00
1149,1600.00
1150,1760.00
1151,1760.00
1152,1760.00
1153,1760.00
1154,1680.00
1155,1680.00
1156,1680.00
1157,1760.00
1158,1760.00
1159,1760.00
1160,1840.00
1161,1760.00
1162,1840.00
1163,1840.00
1164,1840.00
1165,1840.00
1166,1840.00
1167,1920.00
1168,1920.00
1169,1840.00
1170,1920.00
1171,1920.00
1172,1920.00
1173,1920.00
1174,1920.00
1175,1920.00
1176,1920.00
1177,2000.00
1178,1920.00
1179,2000.00
1180,2000.00
1181,2000.00
1182,2080.00
1183,2080.00
1184,2080.00
1185,2080.00
1186,2080.00
1187,2080.00
1188,2080.00
1189,2080.00
1190,2080.00
1191,2080.00
1192,2080.00
1193,2080.00
1194,2080.00
1195,2080.00
1196,2080.00
1197,2160.00
1198,2160.00
1199,2160.00
1200,2160.00
1201,2240.00
1202,2160.00
1203,2160.00
1204,2240.00
1205,2160.00
1206,2240.00
1207,2320.00
1208,2240.00
1209,2320.00
1210,2320.00
1211,2320.00
1212,2320.00
1213,2320.00
1214,2320.00
1215,2320.00
1216,2320.00
1217,2320.00
1218,2400.00
1219,2400.00
1220,2320.00
1221,2400.00
1222,2400.00
1223,2400.00
1224,2400.00
1225,2400.00
1226,2480.00
1227,2480.00
1228,2480.00
1229,2480.00
1230,2480.00
1231,2480.00
1232,2480.00
1233,2480.00
1234,2480.00
1235,-2320.00
1236,-2320.00
1237,-2400.00
1238,-2320.00
1239,-2480.00
1240,-2400.00
1241,-2400.00
1242,-2320.00
1243,-2320.00
1244,-2320.00
1245,-2320.00
1246,-2320.00
1247,-2240.00
1248,-2240.00
1249,-2320.00
1250,-2240.00
1251,-2240.00
1252,-2240.00
1253,-2240.00
1254,-2240.00
1255,-2160.00
1256,-2160.00
1257,-2240.00
1258,-2160.00
1259,-2160.00
1260,-2160.00
1261,-2160.00
1262,-2160.00
1263,-2160.00
1264,-2160.00
1265,-2160.00
1266,-2160.00
1267,-2080.00
1268,-2080.00
1269,-2160.00
1270,-2080.00
1271,-2000.00
1272,-2000.00
1273,-2000.00
1274,-2000.00
1275,-2000.00
1276,-2000.00
1277,-2000.00
1278,-2000.00
1279,-2000.00
1280,-1920.00
1281,-1920.00
1282,-1920.00
1283,-1920.00
1284,-1920.00
1285,-1840.00
1286,-1840.00
1287,-1840.00
1288,-1840.00
1289,-1840.00
1290,-1840.00
1291,-1840.00
1292,-1840.00
1293,-1840.00
1294,-1840.00
1295,-1760.00
1296,-1760.00
1297,-1760.00
1298,-1760.00
1299,-1680.00
1300,-1760.00
1301,-1680.00
1302,-1680.00
1303,-1680.00
1304,-1680.00
1305,-1680.00
1306,-1680.00
1307,-1680.00
1308,-1680.00
1309,-1680.00
1310,-1680.00
1311,-1680.00
1312,-1680.00
1313,-1680.00
1314,-1680.00
1315,-1680.00
1316,-1680.00
1317,-1600.00
1318,-1600.00
1319,-1600.00
1320,-1680.00
1321,-1600.00
1322,-1600.00
1323,-1600.00
1324,-1600.00
1325,-1440.00
1326,-1600.00
1327,-1440.00
1328,-1520.00
1329,-1600.00
1330,-1520.00
1331,-1520.00
1332,-1440.00
1333,-1440.00
1334,-1440.00
1335,-1440.00
1336,-1440.00
1337,-1440.00
1338,-1360.00
1339,-1360.00
1340,-1440.00
1341,-1360.00
1342,-1360.00
1343,-1360.00
1344,-1280.00
1345,-1360.00
1346,-1280.00
1347,-1280.00
1348,-1280.00
1349,-1280.00
1350,-1280.00
1351,-1280.00
1352,-1280.00
1353,-1280.00
1354,-1280.00
1355,-1200.00
1356,-1200.00
1357,-1120.00
1358,-1200.00
1359,-1120.00
1360,-1040.00
1361,-1120.00
1362,-1120.00
1363,-1120.00
1364,-1120.00
1365,-1120.00
1366,-1120.00
1367,-1040.00
1368,-1040.00
1369,-1040.00
1370,-1040.00
1371,-1040.00
1372,-1040.00
1373,-960.00
1374,-960.00
1375,-960.00
1376,-960.00
1377,-960.00
1378,-960.00
1379,-960.00
1380,-960.00
1381,-960.00
1382,-960.00
1383,-960.00
1384,-960.00
1385,-960.00
1386,-880.00
1387,-960.00
1388,-880.00
1389,-880.00
1390,-880.00
1391,-880.00
1392,-880.00
1393,-880.00
1394,-880.00
1395,-880.00
1396,-880.00
1397,-800.00
1398,-720.00
1399,-800.00
1400,-800.00
1401,-800.00
1402,-800.00
1403,-800.00
1404,-720.00
1405,-720.00
1406,-720.00
1407,-720.00
1408,-720.00
1409,-560.00
1410,-640.00
1411,-720.00
1412,-560.00
1413,-720.00
1414,-720.00
1415,-720.00
1416,-560.00
1417,-560.00
1418,-560.00
1419,-560.00
1420,-560.00
1421,-560.00
1422,-560.00
1423,-480.00
1424,-480.00
1425,-560.00
1426,-560.00
1427,-480.00
1428,-480.00
1429,-480.00
1430,-480.00
1431,-480.00
1432,-400.00
1433,-400.00
1434,-400.00
1435,-400.00
1436,-400.00
1437,-400.00
1438,-400.00
1439,-320.00
1440,-400.00
1441,-320.00
1442,-320.00
1443,-400.00
1444,-320.00
1445,-400.00
1446,-320.00
1447,-240.00
1448,-240.00
1449,-240.00
1450,-240.00
1451,-240.00
1452,-240.00
1453,-240.00
1454,-240.00
1455,-160.00
1456,-160.00
1457,-160.00
1458,-160.00
1459,-160.00
1460,-160.00
1461,-160.00
1462,-160.00
1463,-160.00
1464,-160.00
1465,-160.00
1466,-160.00
1467,-160.00
1468,-160.00
1469,-160.00
1470,-160.00
1471,-160.00
1472,-160.00
1473,-160.00
1474,-160.00
1475,0.00
1476,0.00
1477,0.00
1478,0.00
1479,0.00
1480,-80.00
1481,0.00
1482,80.00
1483,80.00
1484,0.00
1485,0.00
1486,80.00
1487,0.00
1488,80.00
1489,80.00
1490,160.00
1491,160.00
1492,160.00
1493,160.00
1494,160.00
1495,160.00
1496,160.00
1497,160.00
1498,160.00
1499,160.00
1500,160.00
1501,160.00
1502,160.00
1503,160.00
1504,320.00
1505,320.00
1506,320.00
1507,320.00
1508,320.00
1509,320.00
1510,320.00
1511,400.00
1512,400.00
1513,400.00
1514,320.00
1515,400.00
1516,400.00
1517,400.00
1518,480.00
1519,400.00
1520,480.00
1521,480.00
1522,480.00
1523,480.00
1524,480.00
1525,480.00
1526,480.00
1527,480.00
1528,480.00
1529,480.00
1530,480.00
1531,480.00
1532,560.00
1533,560.00
1534,560.00
1535,560.00
1536,560.00
1537,480.00
1538,560.00
1539,640.00
1540,480.00
1541,640.00
1542,640.00
1543,560.00
1544,560.00
1545,560.00
1546,640.00
1547,640.00
1548,640.00
1549,720.00
1550,640.00
1551,720.00
1552,720.00
1553,720.00
1554,720.00
1555,720.00
1556,720.00
1557,720.00
1558,720.00
1559,720.00
1560,720.00
1561,800.00
1562,880.00
1563,720.00
1564,880.00
1565,880.00
1566,880.00
1567,880.00
1568,880.00
1569,880.00
1570,880.00
1571,880.00
1572,960.00
1573,880.00
1574,880.00
1575,960.00
1576,960.00
1577,960.00
1578,960.00
1579,960.00
1580,960.00
1581,1040.00
1582,1040.00
1583,1040.00
1584,1040.00
1585,1040.00
1586,1040.00
1587,1040.00
1588,1040.00
1589,1040.00
1590,1120.00
1591,1120.00
1592,1120.00
1593,1120.00
1594,1200.00
1595,1200.00
1596,1200.00
1597,1200.00
1598,1120.00
1599,1280.00
1600,1200.00
1601,1280.00
1602,1280.00
1603,1280.00
1604,1280.00
1605,1280.00
1606,1280.00
1607,1280.00
1608,1360.00
1609,1280.00
1610,1360.00
1611,1360.00
1612,1360.00
1613,1360.00
1614,1360.00
1615,1360.00
1616,1360.00
1617,1360.00
1618,1360.00
1619,1360.00
1620,1360.00
1621,1360.00
1622,1440.00
1623,1440.00
1624,1440.00
1625,1440.00
1626,1440.00
1627,1440.00
1628,1440.00
1629,1440.00
1630,1520.00
1631,1520.00
1632,1520.00
1633,1520.00
1634,1520.00
1635,1600.00
1636,1520.00
1637,1520.00
1638,1600.00
1639,1600.00
1640,1600.00
1641,1600.00
1642,1600.00
1643,1600.00
1644,1600.00
1645,1600.00
1646,1600.00
1647,1600.00
1648,1600.00
1649,1680.00
1650,1760.00
1651,1760.00
1652,1760.00
1653,1600.00
1654,1760.00
1655,1760.00
1656,1760.00
1657,1840.00
1658,1840.00
1659,1840.00
1660,1840.00
1661,1840.00
1662,1840.00
1663,1920.00
1664,1840.00
1665,1840.00
1666,1840.00
1667,1920.00
1668,1920.00
1669,1920.00
1670,1920.00
1671,1920.00
1672,1920.00
1673,1920.00
1674,1920.00
1675,1920.00
1676,1920.00
1677,2000.00
1678,1920.00
1679,1920.00
1680,2080.00
1681,2080.00
1682,2080.00
1683,2080.00
1684,2080.00
1685,2080.00
1686,2080.00
1687,2080.00
1688,2080.00
1689,2080.00
1690,2080.00
1691,2080.00
1692,2080.00
1693,2080.00
1694,2080.00
1695,2080.00
1696,2160.00
1697,2160.00
1698,2160.00
1699,2160.00
1700,2160.00
1701,2160.00
1702,2160.00
1703,2160.00
1704,2160.00
1705,2160.00
1706,2240.00
1707,2240.00
1708,2240.00
1709,2320.00
1710,2320.00
1711,2320.00
1712,2320.00
1713,2320.00
1714,2320.00
1715,2320.00
1716,2320.00
1717,2320.00
1718,2400.00
1719,2400.00
1720,2400.00
1721,2400.00
1722,2400.00
1723,2400.00
1724,2400.00
1725,2480.00
1726,2480.00
1727,2480.00
1728,2480.00
1729,2480.00
1730,2480.00
1731,2480.00
1732,2480.00
1733,2560.00
1734,2480.00
1735,-2320.00
1736,-2400.00
1737,-2400.00
1738,-2320.00
1739,-2400.00
1740,-2320.00
1741,-2400.00
1742,-2320.00
1743,-2320.00
1744,-2320.00
1745,-2320.00
1746,-2320.00
1747,-2320.00
1748,-2320.00
1749,-2240.00
1750,-2240.00
1751,-2320.00
1752,-2240.00
1753,-2240.00
1754,-2240.00
1755,-2240.00
1756,-2160.00
1757,-2160.00
1758,-2160.00
1759,-2160.00
1760,-2160.00
1761,-2160.00
1762,-2160.00
1763,-2160.00
1764,-2160.00
1765,-2080.00
1766,-2160.00
1767,-2160.00
1768,-2000.00
1769,-2000.00
1770,-2080.00
1771,-2000.00
1772,-2000.00
1773,-2000.00
1774,-2000.00
1775,-2000.00
1776,-1920.00
1777,-2000.00
1778,-2000.00
1779,-1920.00
1780,-1920.00
1781,-1920.00
1782,-1920.00
1783,-1920.00
1784,-1840.00
1785,-1840.00
1786,-1840.00
1787,-1840.00
1788,-1840.00
1789,-1840.00
1790,-1840.00
1791,-1840.00
1792,-1840.00
1793,-1840.00
1794,-1840.00
1795,-1760.00
1796,-1840.00
1797,-1760.00
1798,-1680.00
1799,-1680.00
1800,-1680.00
1801,-1680.00
1802,-1680.00
1803,-1680.00
1804,-1680.00
1805,-1760.00
1806,-1680.00
1807,-1680.00
1808,-1680.00
1809,-1680.00
1810,-1680.00
1811,-1680.00
1812,-1680.00
1813,-1680.00
1814,-1680.00
1815,-1680.00
1816,-1600.00
1817,-1600.00
1818,-1600.00
1819,-1600.00
1820,-1600.00
1821,-1600.00
1822,-1600.00
1823,-1600.00
1824,-1520.00
1825,-1520.00
1826,-1440.00
1827,-1440.00
1828,-1440.00
1829,-1440.00
1830,-1440.00
1831,-1440.00
1832,-1440.00
1833,-1440.00
1834,-1440.00
1835,-1440.00
1836,-1360.00
1837,-1440.00
1838,-1360.00
1839,-1280.00
1840,-1360.00
1841,-1360.00
1842,-1280.00
1843,-1280.00
1844,-1280.00
1845,-1280.00
1846,-1280.00
1847,-1280.00
1848,-1280.00
1849,-1280.00
1850,-1280.00
1851,-1280.00
1852,-1280.00
1853,-1280.00
1854,-1280.00
1855,-1120.00
1856,-1120.00
1857,-1200.00
1858,-1200.00
1859,-1120.00
1860,-1280.00
1861,-1120.00
1862,-1040.00
1863,-1040.00
1864,-1040.00
1865,-1120.00
1866,-1040.00
1867,-1040.00
1868,-1040.00
1869,-960.00
1870,-1040.00
1871,-1040.00
1872,-1040.00
1873,-960.00
1874,-960.00
1875,-960.00
1876,-960.00
1877,-960.00
1878,-960.00
1879,-960.00
1880,-960.00
1881,-960.00
1882,-960.00
1883,-960.00
1884,-880.00
1885,-880.00
1886,-880.00
1887,-880.00
1888,-880.00
1889,-880.00
1890,-800.00
1891,-880.00
1892,-880.00
1893,-880.00
1894,-800.00
1895,-880.00
1896,-800.00
1897,-720.00
1898,-720.00
1899,-800.00
1900,-720.00
1901,-720.00
1902,-800.00
1903,-720.00
1904,-720.00
1905,-720.00
1906,-720.00
1907,-720.00
1908,-720.00
1909,-640.00
1910,-720.00
1911,-640.00
1912,-720.00
1913,-560.00
1914,-560.00
1915,-560.00
1916,-560.00
1917,-560.00
1918,-560.00
1919,-480.00
1920,-560.00
1921,-560.00
1922,-480.00
1923,-480.00
1924,-480.00
1925,-480.00
1926,-480.00
1927,-480.00
1928,-400.00
1929,-400.00
1930,-480.00
1931,-400.00
1932,-480.00
1933,-400.00
1934,-400.00
1935,-400.00
1936,-400.00
1937,-400.00
1938,-400.00
1939,-400.00
1940,-320.00
1941,-400.00
1942,-240.00
1943,-240.00
1944,-240.00
1945,-240.00
1946,-240.00
1947,-160.00
1948,-240.00
1949,-240.00
1950,-160.00
1951,-160.00
1952,-160.00
1953,-240.00
1954,-240.00
1955,-160.00
1956,-160.00
1957,-160.00
1958,-160.00
1959,-160.00
1960,-160.00
1961,-160.00
1962,-160.00
1963,-160.00
1964,-160.00
1965,-160.00
1966,-160.00
1967,-160.00
1968,-160.00
1969,-80.00
1970,-80.00
1971,-80.00
1972,0.00
1973,0.00
1974,0.00
1975,0.00
1976,0.00
1977,0.00
1978,0.00
1979,-80.00
1980,80.00
1981,0.00
1982,80.00
1983,80.00
1984,0.00
1985,80.00
1986,160.00
1987,80.00
1988,80.00
1989,160.00
1990,160.00
1991,160.00
1992,160.00
1993,160.00
1994,160.00
1995,160.00
1996,160.00
1997,160.00
1998,240.00
1999,320.00
2000,160.00
2001,320.00
2002,320.00
2003,320.00
2004,320.00
2005,320.00
2006,320.00
2007,320.00
2008,320.00
2009,320.00
2010,320.00
2011,320.00
2012,320.00
2013,400.00
2014,480.00
2015,400.00
2016,480.00
2017,480.00
2018,400.00
2019,480.00
2020,480.00
2021,480.00
2022,480.00
2023,480.00
2024,480.00
2025,480.00
2026,480.00
2027,480.00
2028,560.00
2029,560.00
2030,560.00
2031,560.00
2032,560.00
2033,560.00
2034,560.00
2035,480.00
2036,560.00
2037,560.00
2038,560.00
2039,640.00
2040,640.00
2041,640.00
2042,560.00
2043,560.00
2044,640.00
2045,640.00
2046,640.00
2047,640.00
2048,720.00
2049,720.00
2050,720.00
2051,720.00
2052,720.00
2053,720.00
2054,720.00
2055,720.00
2056,720.00
2057,800.00
2058,720.00
2059,800.00
2060,880.00
2061,880.00
2062,880.00
2063,880.00
2064,880.00
2065,880.00
2066,880.00
2067,960.00
2068,960.00
2069,880.00
2070,880.00
2071,880.00
2072,960.00
2073,960.00
2074,960.00
2075,960.00
2076,1040.00
2077,1040.00
2078,1040.00
2079,1040.00
2080,1040.00
2081,1040.00
2082,1040.00
2083,1040.00
2084,1120.00
2085,1040.00
2086,1040.00
2087,1040.00
2088,1040.00
2089,1120.00
2090,1200.00
2091,1200.00
2092,1120.00
2093,1040.00
2094,1200.00
2095,1280.00
2096,1200.00
2097,1200.00
2098,1200.00
2099,1280.00
2100,1280.00
2101,1360.00
2102,1280.00
2103,1280.00
2104,1280.00
2105,1280.00
2106,1280.00
2107,1280.00
2108,1360.00
2109,1360.00
2110,1360.00
2111,1360.00
2112,1360.00
2113,1360.00
2114,1360.00
2115,1360.00
2116,1360.00
2117,1360.00
2118,1440.00
2119,1440.00
2120,1440.00
2121,1440.00
2122,1440.00
2123,1440.00
2124,1440.00
2125,1440.00
2126,1440.00
2127,1520.00
2128,1520.00
2129,1520.00
2130,1520.00
2131,1520.00
2132,1600.00
2133,1520.00
2134,1520.00
2135,1600.00
2136,1600.00
2137,1520.00
2138,1520.00
2139,1600.00
2140,1600.00
2141,1600.00
2142,1600.00
2143,1600.00
2144,1680.00
2145,1760.00
2146,1600.00
2147,1680.00
2148,1680.00
2149,1680.00
2150,1760.00
2151,1760.00
2152,1760.00
2153,1600.00
2154,1840.00
2155,1840.00
2156,1760.00
2157,1840.00
2158,1840.00
2159,1840.00
2160,1840.00
2161,1840.00
2162,1840.00
2163,1920.00
2164,1920.00
2165,1920.00
2166,1920.00
2167,1920.00
2168,1920.00
2169,1920.00
2170,1920.00
2171,1920.00
2172,2000.00
2173,2000.00
2174,2000.00
2175,2000.00
2176,2000.00
2177,2000.00
2178,2080.00
2179,2080.00
2180,2080.00
2181,2080.00
2182,2080.00
2183,2080.00
2184,2080.00
2185,2080.00
2186,2080.00
2187,2080.00
2188,2080.00
2189,2080.00
2190,2080.00
2191,2160.00
2192,2160.00
2193,2160.00
2194,2080.00
2195,2160.00
2196,2160.00
2197,2160.00
2198,2160.00
2199,2160.00
2200,2160.00
2201,2160.00
2202,2160.00
2203,2240.00
2204,2240.00
2205,2240.00
2206,2320.00
2207,2240.00
2208,2320.00
2209,2320.00
2210,2320.00
2211,2320.00
2212,2320.00
2213,2320.00
2214,2400.00
2215,2400.00
2216,2400.00
2217,2400.00
2218,2400.00
2219,2400.00
2220,2480.00
2221,2400.00
2222,2400.00
2223,2480.00
2224,2480.00
2225,2480.00
2226,2480.00
2227,2480.00
2228,2480.00
2229,2480.00
2230,2480.00
2231,2480.00
2232,2480.00
2233,-2320.00
2234,-2320.00
2235,-2480.00
2236,-2400.00
2237,-2400.00
2238,-2320.00
2239,-2320.00
2240,-2320.00
2241,-2320.00
2242,-2320.00
2243,-2320.00
2244,-2320.00
2245,-2240.00
2246,-2320.00
2247,-2320.00
2248,-2240.00
2249,-2240.00
2250,-2240.00
2251,-2240.00
2252,-2240.00
2253,-2240.00
2254,-2160.00
2255,-2160.00
2256,-2160.00
2257,-2160.00
2258,-2160.00
2259,-2160.00
2260,-2160.00
2261,-2160.00
2262,-2160.00
2263,-2160.00
2264,-2160.00
2265,-2080.00
2266,-2000.00
2267,-2160.00
2268,-2000.00
2269,-2000.00
2270,-2000.00
2271,-2000.00
2272,-2000.00
2273,-2000.00
2274,-2000.00
2275,-2000.00
2276,-2000.00
2277,-1920.00
2278,-1920.00
2279,-2000.00
2280,-1920.00
2281,-1920.00
2282,-1920.00
2283,-1920.00
2284,-1840.00
2285,-1840.00
2286,-1840.00
2287,-1840.00
2288,-1840.00
2289,-1840.00
2290,-1840.00
2291,-1840.00
2292,-1840.00
2293,-1840.00
2294,-1840.00
2295,-1840.00
2296,-1760.00
2297,-1680.00
2298,-1680.00
2299,-1680.00
2300,-1680.00
2301,-1680.00
2302,-1680.00
2303,-1680.00
2304,-1680.00
2305,-1680.00
2306,-1680.00
2307,-1680.00
2308,-1680.00
2309,-1680.00
2310,-1680.00
2311,-1680.00
2312,-1680.00
2313,-1680.00
2314,-1680.00
2315,-1600.00
2316,-1600.00
2317,-1600.00
2318,-1600.00
2319,-1680.00
2320,-1600.00
2321,-1600.00
2322,-1600.00
2323,-1600.00
2324,-1600.00
2325,-1440.00
2326,-1600.00
2327,-1520.00
2328,-1440.00
2329,-1440.00
2330,-1440.00
2331,-1440.00
2332,-1360.00
2333,-1440.00
2334,-1360.00
2335,-1440.00
2336,-1360.00
2337,-1360.00
2338,-1440.00
2339,-1360.00
2340,-1360.00
2341,-1280.00
2342,-1280.00
2343,-1360.00
2344,-1280.00
2345,-1280.00
2346,-1280.00
2347,-1280.00
2348,-1280.00
2349,-1280.00
2350,-1280.00
2351,-1280.00
2352,-1200.00
2353,-1120.00
2354,-1200.00
2355,-1120.00
2356,-1120.00
2357,-1200.00
2358,-1120.00
2359,-1200.00
2360,-1120.00
2361,-1200.00
2362,-1120.00
2363,-1040.00
2364,-1120.00
2365,-1040.00
2366,-1040.00
2367,-1040.00
2368,-1040.00
2369,-960.00
2370,-960.00
2371,-1040.00
2372,-1040.00
2373,-960.00
2374,-960.00
2375,-960.00
2376,-960.00
2377,-960.00
2378,-960.00
2379,-960.00
2380,-960.00
2381,-960.00
2382,-960.00
2383,-960.00
2384,-960.00
2385,-880.00
2386,-960.00
2387,-880.00
2388,-880.00
2389,-800.00
2390,-880.00
2391,-880.00
2392,-880.00
2393,-880.00
2394,-880.00
2395,-800.00
2396,-800.00
2397,-880.00
2398,-800.00
2399,-800.00
2400,-720.00
2401,-720.00
2402,-720.00
2403,-720.00
2404,-720.00
2405,-720.00
2406,-720.00
2407,-720.00
2408,-640.00
2409,-720.00
2410,-560.00
2411,-560.00
2412,-560.00
2413,-720.00
2414,-560.00
2415,-560.00
2416,-560.00
2417,-720.00
2418,-560.00
2419,-480.00
2420,-560.00
2421,-480.00
2422,-480.00
2423,-480.00
2424,-480.00
2425,-400.00
2426,-400.00
2427,-400.00
2428,-400.00
2429,-400.00
2430,-400.00
2431,-400.00
2432,-400.00
2433,-320.00
2434,-400.00
2435,-400.00
2436,-400.00
2437,-400.00
2438,-400.00
2439,-400.00
2440,-320.00
2441,-240.00
2442,-240.00
2443,-240.00
2444,-240.00
2445,-240.00
2446,-240.00
2447,-240.00
2448,-160.00
2449,-240.00
2450,-240.00
2451,-240.00
2452,-160.00
2453,-160.00
2454,-160.00
2455,-160.00
2456,-160.00
2457,-160.00
2458,-160.00
2459,-160.00
2460,-160.00
2461,-160.00
2462,-160.00
2463,-160.00
2464,-160.00
2465,-160.00
2466,-160.00
2467,-160.00
2468,-80.00
2469,0.00
2470,-80.00
2471,0.00
2472,0.00
2473,0.00
2474,0.00
2475,0.00
2476,0.00
2477,0.00
2478,0.00
2479,80.00
2480,80.00
2481,0.00
2482,0.00
2483,80.00
2484,80.00
2485,80.00
2486,160.00
2487,160.00
2488,160.00
2489,160.00
2490,160.00
2491,160.00
2492,160.00
2493,160.00
2494,160.00
2495,160.00
2496,160.00
2497,160.00
2498,240.00
2499,240.00
2500,320.00
2501,320.00
2502,320.00
2503,320.00
2504,320.00
2505,320.00
2506,320.00
2507,320.00
2508,400.00
2509,400.00
2510,400.00
2511,400.00
2512,400.00
2513,400.00
2514,400.00
2515,400.00
2516,400.00
2517,480.00
2518,480.00
2519,480.00
2520,480.00
2521,480.00
2522,480.00
2523,480.00
2524,480.00
2525,560.00
2526,560.00
2527,560.00
2528,560.00
2529,560.00
2530,560.00
2531,560.00
2532,560.00
2533,560.00
2534,560.00
2535,560.00
2536,560.00
2537,560.00
2538,640.00
2539,640.00
2540,560.00
2541,640.00
2542,560.00
2543,560.00
2544,560.00
2545,640.00
2546,720.00
2547,640.00
2548,720.00
2549,720.00
2550,720.00
2551,720.00
2552,720.00
2553,720.00
2554,720.00
2555,720.00
2556,880.00
2557,720.00
2558,720.00
2559,880.00
2560,880.00
2561,880.00
2562,880.00
2563,880.00
2564,880.00
2565,880.00
2566,880.00
2567,880.00
2568,880.00
2569,880.00
2570,960.00
2571,880.00
2572,880.00
2573,960.00
2574,960.00
2575,1040.00
2576,1040.00
2577,1040.00
2578,1040.00
2579,1040.00
2580,1040.00
2581,1040.00
2582,1040.00
2583,1040.00
2584,1040.00
2585,1040.00
2586,1120.00
2587,1040.00
2588,1200.00
2589,1200.00
2590,1200.00
2591,1200.00
2592,1200.00
2593,1200.00
2594,1200.00
2595,1200.00
2596,1200.00
2597,1200.00
2598,1200.00
2599,1280.00
2600,1280.00
2601,1280.00
2602,1360.00
2603,1280.00
2604,1280.00
2605,1280.00
2606,1360.00
2607,1360.00
2608,1360.00
2609,1360.00
2610,1360.00
2611,1360.00
2612,1360.00
2613,1360.00
2614,1360.00
2615,1360.00
2616,1360.00
2617,1440.00
2618,1440.00
2619,1440.00
2620,1440.00
2621,1440.00
2622,1440.00
2623,1440.00
2624,1440.00
2625,1440.00
2626,1440.00
2627,1440.00
2628,1440.00
2629,1520.00
2630,1520.00
2631,1600.00
2632,1600.00
2633,1520.00
2634,1520.00
2635,1600.00
2636,1600.00
2637,1600.00
2638,1600.00
2639,1600.00
2640,1600.00
2641,1600.00
2642,1600.00
2643,1600.00
2644,1680.00
2645,1680.00
2646,1760.00
2647,1600.00
2648,1680.00
2649,1760.00
2650,1680.00
2651,1760.00
2652,1680.00
2653,1840.00
2654,1760.00
2655,1760.00
2656,1840.00
2657,1840.00
2658,1840.00
2659,1920.00
2660,1920.00
2661,1920.00
2662,1840.00
2663,1920.00
2664,1920.00
2665,1920.00
2666,1920.00
2667,1920.00
2668,1920.00
2669,1920.00
2670,1920.00
2671,1920.00
2672,2000.00
2673,1920.00
2674,1920.00
2675,1920.00
2676,2080.00
2677,2080.00
2678,2080.00
2679,2080.00
2680,2080.00
2681,2080.00
2682,2080.00
2683,2080.00
2684,2080.00
2685,2080.00
2686,2080.00
2687,2080.00
2688,2080.00
2689,2080.00
2690,2160.00
2691,2080.00
2692,2080.00
2693,2160.00
2694,2160.00
2695,2160.00
2696,2160.00
2697,2160.00
2698,2160.00
2699,2160.00
2700,2240.00
2701,2240.00
2702,2160.00
2703,2240.00
2704,2320.00
2705,2320.00
2706,2320.00
2707,2320.00
2708,2320.00
2709,2320.00
2710,2320.00
2711,2320.00
2712,2320.00
2713,2320.00
2714,2400.00
2715,2400.00
2716,2400.00
2717,2400.00
2718,2400.00
2719,2400.00
2720,2480.00
2721,2480.00
2722,2480.00
2723,2480.00
2724,2480.00
2725,2480.00
2726,2480.00
2727,2480.00
2728,2480.00
2729,2480.00
2730,2480.00
2731,-2320.00
2732,-2400.00
2733,-2480.00
2734,-2400.00
2735,-2400.00
2736,-2320.00
2737,-2320.00
2738,-2320.00
2739,-2320.00
2740,-2320.00
2741,-2320.00
2742,-2320.00
2743,-2320.00
2744,-2320.00
2745,-2240.00
2746,-2240.00
2747,-2240.00
2748,-2240.00
2749,-2240.00
2750,-2240.00
2751,-2160.00
2752,-2160.00
2753,-2240.00
2754,-2160.00
2755,-2160.00
2756,-2160.00
2757,-2160.00
2758,-2160.00
2759,-2160.00
2760,-2160.00
2761,-2080.00
2762,-2160.00
2763,-2160.00
2764,-2000.00
2765,-2080.00
2766,-2080.00
2767,-2000.00
2768,-2000.00
2769,-2000.00
2770,-2000.00
2771,-2000.00
2772,-2000.00
2773,-2000.00
2774,-1920.00
2775,-1920.00
2776,-1920.00
2777,-1920.00
2778,-1920.00
2779,-1920.00
2780,-1920.00
2781,-1920.00
2782,-1840.00
2783,-1840.00
2784,-1840.00
2785,-1840.00
2786,-1840.00
2787,-1840.00
2788,-1840.00
2789,-1840.00
2790,-1840.00
2791,-1840.00
2792,-1840.00
2793,-1760.00
2794,-1760.00
2795,-1680.00
2796,-1680.00
2797,-1680.00
2798,-1680.00
2799,-1680.00
2800,-1680.00
2801,-1680.00
2802,-1680.00
2803,-1680.00
2804,-1680.00
2805,-1680.00
2806,-1680.00
2807,-1680.00
2808,-1680.00
2809,-1680.00
2810,-1680.00
2811,-1600.00
2812,-1680.00
2813,-1680.00
2814,-1600.00
2815,-1600.00
2816,-1600.00
2817,-1600.00
2818,-1600.00
2819,-1600.00
2820,-1600.00
2821,-1600.00
2822,-1600.00
2823,-1600.00
2824,-1440.00
2825,-1520.00
2826,-1440.00
2827,-1440.00
2828,-1440.00
2829,-1440.00
2830,-1440.00
2831,-1440.00
2832,-1440.00
2833,-1440.00
2834,-1360.00
2835,-1360.00
2836,-1360.00
2837,-1360.00
2838,-1360.00
2839,-1280.00
2840,-1280.00
2841,-1360.00
2842,-1280.00
2843,-1280.00
2844,-1280.00
2845,-1280.00
2846,-1280.00
2847,-1280.00
2848,-1200.00
2849,-1280.00
2850,-1200.00
2851,-1200.00
2852,-1120.00
2853,-1200.00
2854,-1280.00
2855,-1120.00
2856,-1120.00
2857,-1280.00
2858,-1120.00
2859,-1200.00
2860,-1120.00
2861,-1040.00
2862,-1120.00
2863,-1040.00
2864,-1040.00
2865,-1040.00
2866,-1040.00
2867,-960.00
2868,-1040.00
2869,-960.00
2870,-960.00
2871,-960.00
2872,-960.00
2873,-960.00
2874,-960.00
2875,-960.00
2876,-960.00
2877,-960.00
2878,-960.00
2879,-960.00
2880,-880.00
2881,-960.00
2882,-960.00
2883,-880.00
2884,-880.00
2885,-880.00
2886,-880.00
2887,-880.00
2888,-880.00
2889,-800.00
2890,-880.00
2891,-880.00
2892,-800.00
2893,-880.00
2894,-800.00
2895,-800.00
2896,-800.00
2897,-800.00
2898,-800.00
2899,-800.00
2900,-720.00
2901,-720.00
2902,-720.00
2903,-720.00
2904,-720.00
2905,-720.00
2906,-720.00
2907,-720.00
2908,-720.00
2909,-560.00
2910,-560.00
2911,-560.00
2912,-560.00
2913,-560.00
2914,-560.00
2915,-560.00
2916,-480.00
2917,-560.00
2918,-560.00
2919,-560.00
2920,-480.00
2921,-480.00
2922,-640.00
2923,-480.00
2924,-480.00
2925,-480.00
2926,-480.00
2927,-480.00
2928,-400.00
2929,-400.00
2930,-480.00
2931,-400.00
2932,-400.00
2933,-400.00
2934,-400.00
2935,-400.00
2936,-320.00
2937,-320.00
2938,-400.00
2939,-400.00
2940,-320.00
2941,-240.00
2942,-240.00
2943,-240.00
2944,-240.00
2945,-240.00
2946,-160.00
2947,-160.00
2948,-240.00
2949,-240.00
2950,-160.00
2951,-160.00
2952,-240.00
2953,-160.00
2954,-160.00
2955,-160.00
2956,-160.00
2957,-160.00
2958,-160.00
2959,-160.00
2960,-160.00
2961,-160.00
2962,-160.00
2963,-160.00
2964,-160.00
2965,-80.00
2966,-80.00
2967,-160.00
2968,-80.00
2969,-80.00
2970,0.00
2971,0.00
2972,0.00
2973,0.00
2974,0.00
2975,0.00
2976,0.00
2977,0.00
2978,0.00
2979,0.00
2980,80.00
2981,0.00
2982,0.00
2983,80.00
2984,80.00
2985,160.00
2986,160.00
2987,160.00
2988,160.00
2989,160.00
2990,160.00
2991,160.00
2992,160.00
2993,160.00
2994,160.00
2995,160.00
2996,240.00
2997,240.00
2998,240.00
2999,240.00
3000,320.00
3001,320.00
3002,320.00
3003,320.00
3004,320.00
3005,400.00
3006,320.00
3007,400.00
3008,400.00
3009,400.00
3010,400.00
3011,400.00
3012,480.00
3013,480.00
3014,480.00
3015,480.00
3016,480.00
3017,480.00
3018,480.00
3019,480.00
3020,480.00
3021,480.00
3022,480.00
3023,560.00
3024,560.00
3025,560.00
3026,560.00
3027,560.00
3028,560.00
3029,560.00
3030,560.00
3031,560.00
3032,560.00
3033,560.00
3034,560.00
3035,560.00
3036,640.00
3037,640.00
3038,640.00
3039,560.00
3040,640.00
3041,560.00
3042,640.00
3043,720.00
3044,720.00
3045,640.00
3046,720.00
3047,720.00
3048,720.00
3049,720.00
3050,720.00
3051,720.00
3052,720.00
3053,720.00
3054,800.00
3055,720.00
3056,880.00
3057,880.00
3058,880.00
3059,880.00
3060,880.00
3061,880.00
3062,880.00
3063,880.00
3064,880.00
3065,960.00
3066,880.00
3067,880.00
3068,880.00
3069,960.00
3070,960.00
3071,960.00
3072,960.00
3073,960.00
3074,1040.00
3075,1040.00
3076,1040.00
3077,1040.00
3078,1040.00
3079,1040.00
3080,1040.00
3081,1040.00
3082,1040.00
3083,1040.00
3084,1040.00
3085,1120.00
3086,1200.00
3087,1200.00
3088,1200.00
3089,1200.00
3090,1200.00
3091,1200.00
3092,1200.00
3093,1200.00
3094,1200.00
3095,1200.00
3096,1280.00
3097,1280.00
3098,1280.00
3099,1280.00
3100,1280.00
3101,1360.00
3102,1360.00
3103,1360.00
3104,1360.00
3105,1360.00
3106,1360.00
3107,1360.00
3108,1360.00
3109,1360.00
3110,1360.00
3111,1360.00
3112,1360.00
3113,1440.00
3114,1360.00
3115,1360.00
3116,1440.00
3117,1440.00
3118,1440.00
3119,1440.00
3120,1520.00
3121,1440.00
3122,1440.00
3123,1520.00
3124,1440.00
3125,1440.00
3126,1520.00
3127,1520.00
3128,1520.00
3129,1520.00
3130,1600.00
3131,1520.00
3132,1600.00
3133,1600.00
3134,1600.00
3135,1600.00
3136,1600.00
3137,1600.00
3138,1600.00
3139,1600.00
3140,1600.00
3141,1600.00
3142,1600.00
3143,1680.00
3144,1680.00
3145,1840.00
3146,1680.00
3147,1760.00
3148,1760.00
3149,1760.00
3150,1840.00
3151,1760.00
3152,1840.00
3153,1840.00
3154,1760.00
3155,1840.00
3156,1840.00
3157,1920.00
3158,1840.00
3159,1840.00
3160,1840.00
3161,1840.00
3162,1920.00
3163,1920.00
3164,1920.00
3165,2000.00
3166,1920.00
3167,1920.00
3168,1920.00
3169,1920.00
3170,1920.00
3171,2000.00
3172,2000.00
3173,2080.00
3174,2080.00
3175,2080.00
3176,2080.00
3177,2080.00
3178,2080.00
3179,2080.00
3180,2080.00
3181,2080.00
3182,2080.00
3183,2080.00
3184,2080.00
3185,2080.00
3186,2080.00
3187,2080.00
3188,2080.00
3189,2080.00
3190,2080.00
3191,2160.00
3192,2160.00
3193,2160.00
3194,2160.00
3195,2160.00
3196,2160.00
3197,2160.00
3198,2240.00
3199,2320.00
3200,2160.00
3201,2240.00
3202,2240.00
3203,2320.00
3204,2320.00
3205,2320.00
3206,2320.00
3207,2320.00
3208,2320.00
3209,2320.00
3210,2320.00
3211,2400.00
3212,2400.00
3213,2320.00
3214,2400.00
3215,2400.00
3216,2400.00
3217,2480.00
3218,2400.00
3219,2480.00
3220,2480.00
3221,2480.00
3222,2480.00
3223,2480.00
3224,2480.00
3225,2480.00
3226,2480.00
3227,2480.00
3228,2480.00
3229,-2320.00
3230,-2320.00
3231,-2320.00
3232,-2480.00
3233,-2400.00
3234,-2400.00
3235,-2320.00
3236,-2320.00
3237,-2320.00
3238,-2320.00
3239,-2320.00
3240,-2320.00
3241,-2320.00
3242,-2240.00
3243,-2320.00
3244,-2240.00
3245,-2240.00
3246,-2240.00
3247,-2240.00
3248,-2160.00
3249,-2240.00
3250,-2240.00
3251,-2160.00
3252,-2160.00
3253,-2160.00
3254,-2160.00
3255,-2160.00
3256,-2080.00
3257,-2160.00
3258,-2080.00
3259,-2080.00
3260,-2160.00
3261,-2000.00
3262,-2000.00
3263,-2080.00
3264,-2080.00
3265,-2000.00
3266,-2000.00
3267,-2000.00
3268,-2000.00
3269,-2000.00
3270,-2000.00
3271,-2000.00
3272,-2000.00
3273,-2000.00
3274,-1920.00
3275,-1920.00
3276,-1920.00
3277,-1920.00
3278,-1920.00
3279,-1840.00
3280,-1840.00
3281,-1840.00
3282,-1840.00
3283,-1840.00
3284,-1840.00
3285,-1840.00
3286,-1840.00
3287,-1840.00
3288,-1840.00
3289,-1840.00
3290,-1760.00
3291,-1840.00
3292,-1680.00
3293,-1680.00
3294,-1760.00
3295,-1680.00
3296,-1680.00
3297,-1680.00
3298,-1680.00
3299,-1680.00
3300,-1680.00
3301,-1680.00
3302,-1680.00
3303,-1680.00
3304,-1680.00
3305,-1680.00
3306,-1680.00
3307,-1680.00
3308,-1680.00
3309,-1680.00
3310,-1600.00
3311,-1600.00
3312,-1600.00
3313,-1600.00
3314,-1600.00
3315,-1600.00
3316,-1600.00
3317,-1600.00
3318,-1600.00
3319,-1440.00
3320,-1520.00
3321,-1440.00
3322,-1440.00
3323,-1520.00
3324,-1440.00
3325,-1520.00
3326,-1440.00
3327,-1440.00
3328,-1440.00
3329,-1440.00
3330,-1360.00
3331,-1440.00
3332,-1360.00
3333,-1360.00
3334,-1360.00
3335,-1360.00
3336,-1360.00
3337,-1360.00
3338,-1360.00
3339,-1280.00
3340,-1280.00
3341,-1280.00
3342,-1280.00
3343,-1280.00
3344,-1280.00
3345,-1280.00
3346,-1200.00
3347,-1280.00
3348,-1200.00
3349,-1120.00
3350,-1200.00
3351,-1120.00
3352,-1120.00
3353,-1120.00
3354,-1120.00
3355,-1040.00
3356,-1120.00
3357,-1120.00
3358,-1200.00
3359,-1040.00
3360,-1040.00
3361,-1040.00
3362,-1040.00
3363,-1040.00
3364,-1040.00
3365,-1040.00
3366,-960.00
3367,-1040.00
3368,-960.00
3369,-960.00
3370,-960.00
3371,-960.00
3372,-960.00
3373,-960.00
3374,-960.00
3375,-960.00
3376,-960.00
3377,-960.00
3378,-880.00
3379,-880.00
3380,-960.00
3381,-880.00
3382,-880.00
3383,-880.00
3384,-880.00
3385,-880.00
3386,-880.00
3387,-800.00
3388,-880.00
3389,-800.00
3390,-800.00
3391,-800.00
3392,-880.00
3393,-800.00
3394,-800.00
3395,-800.00
3396,-720.00
3397,-720.00
3398,-720.00
3399,-720.00
3400,-720.00
3401,-640.00
3402,-720.00
3403,-720.00
3404,-640.00
3405,-720.00
3406,-720.00
3407,-720.00
3408,-560.00
3409,-560.00
3410,-560.00
3411,-560.00
3412,-560.00
3413,-560.00
3414,-720.00
3415,-560.00
3416,-480.00
3417,-560.00
3418,-480.00
3419,-480.00
3420,-480.00
3421,-480.00
3422,-480.00
3423,-480.00
3424,-400.00
3425,-480.00
3426,-480.00
3427,-400.00
3428,-400.00
3429,-400.00
3430,-400.00
3431,-400.00
3432,-400.00
3433,-400.00
3434,-400.00
3435,-400.00
3436,-400.00
3437,-400.00
3438,-320.00
3439,-240.00
3440,-240.00
3441,-240.00
3442,-240.00
3443,-240.00
3444,-240.00
3445,-240.00
3446,-240.00
3447,-240.00
3448,-240.00
3449,-240.00
3450,-160.00
3451,-160.00
3452,-160.00
3453,-160.00
3454,-160.00
3455,-160.00
3456,-160.00
3457,-160.00
3458,-160.00
3459,-160.00
3460,-160.00
3461,-160.00
3462,-160.00
3463,-160.00
3464,-160.00
3465,-160.00
3466,0.00
3467,-160.00
3468,0.00
3469,0.00
3470,0.00
3471,0.00
3472,0.00
3473,0.00
3474,0.00
3475,0.00
3476,80.00
3477,80.00
3478,0.00
3479,0.00
3480,0.00
3481,0.00
3482,80.00
3483,160.00
3484,160.00
3485,160.00
3486,160.00
3487,160.00
3488,160.00
3489,160.00
3490,160.00
3491,160.00
3492,160.00
3493,240.00
3494,240.00
3495,240.00
3496,240.00
3497,320.00
3498,240.00
3499,320.00
3500,320.00
3501,320.00
3502,320.00
3503,400.00
3504,320.00
3505,400.00
3506,320.00
3507,320.00
3508,400.00
3509,400.00
3510,400.00
3511,400.00
3512,480.00
3513,480.00
3514,480.00
3515,480.00
3516,480.00
3517,480.00
3518,480.00
3519,480.00
3520,480.00
3521,480.00
3522,480.00
3523,480.00
3524,560.00
3525,480.00
3526,560.00
3527,560.00
3528,560.00
3529,560.00
3530,560.00
3531,560.00
3532,560.00
3533,560.00
3534,560.00
3535,560.00
3536,560.00
3537,560.00
3538,560.00
3539,560.00
3540,640.00
3541,560.00
3542,640.00
3543,720.00
3544,640.00
3545,720.00
3546,720.00
3547,720.00
3548,720.00
3549,720.00
3550,720.00
3551,720.00
3552,720.00
3553,720.00
3554,720.00
3555,720.00
3556,800.00
3557,800.00
3558,880.00
3559,880.00
3560,800.00
3561,880.00
3562,880.00
3563,880.00
3564,880.00
3565,960.00
3566,880.00
3567,960.00
3568,960.00
3569,960.00
3570,960.00
3571,960.00
3572,960.00
3573,1040.00
3574,1040.00
3575,1040.00
3576,960.00
3577,1040.00
3578,1040.00
3579,1040.00
3580,1040.00
3581,1040.00
3582,1040.00
3583,1120.00
3584,1120.00
3585,1200.00
3586,1200.00
3587,1200.00
3588,1200.00
3589,1200.00
3590,1200.00
3591,1200.00
3592,1280.00
3593,1280.00
3594,1200.00
3595,1280.00
3596,1280.00
3597,1280.00
3598,1280.00
3599,1280.00
3600,1360.00
3601,1360.00
3602,1360.00
3603,1360.00
3604,1360.00
3605,1360.00
3606,1360.00
3607,1360.00
3608,1360.00
3609,1360.00
3610,1360.00
3611,1360.00
3612,1440.00
3613,1440.00
3614,1440.00
3615,1440.00
3616,1440.00
3617,1440.00
3618,1440.00
3619,1440.00
3620,1520.00
3621,1440.00
3622,1440.00
3623,1440.00
3624,1520.00
3625,1520.00
3626,1520.00
3627,1520.00
3628,1600.00
3629,1600.00
3630,1600.00
3631,1600.00
3632,1520.00
3633,1600.00
3634,1600.00
3635,1600.00
3636,1600.00
3637,1600.00
3638,1600.00
3639,1600.00
3640,1600.00
3641,1600.00
3642,1760.00
3643,1760.00
3644,1680.00
3645,1760.00
3646,1840.00
3647,1680.00
3648,1760.00
3649,1840.00
3650,1840.00
3651,1840.00
3652,1840.00
3653,1840.00
3654,1840.00
3655,1920.00
3656,1840.00
3657,1920.00
3658,1840.00
3659,1920.00
3660,1920.00
3661,1920.00
3662,1920.00
3663,1920.00
3664,2000.00
3665,1920.00
3666,1920.00
3667,2000.00
3668,2000.00
3669,1920.00
3670,1920.00
3671,2080.00
3672,2000.00
3673,2080.00
3674,2080.00
3675,2080.00
3676,2080.00
3677,2080.00
3678,2080.00
3679,2080.00
3680,2080.00
3681,2080.00
3682,2080.00
3683,2080.00
3684,2080.00
3685,2080.00
3686,2080.00
3687,2080.00
3688,2160.00
3689,2160.00
3690,2160.00
3691,2160.00
3692,2160.00
3693,2160.00
3694,2160.00
3695,2160.00
3696,2160.00
3697,2160.00
3698,2320.00
3699,2320.00
3700,2240.00
3701,2320.00
3702,2320.00
3703,2320.00
3704,2320.00
3705,2320.00
3706,2320.00
3707,2320.00
3708,2320.00
3709,2320.00
3710,2320.00
3711,2320.00
3712,2400.00
3713,2400.00
3714,2400.00
3715,2400.00
3716,2400.00
3717,2400.00
3718,2480.00
3719,2480.00
3720,2480.00
3721,2480.00
3722,2480.00
3723,2480.00
3724,2480.00
3725,2480.00
3726,2560.00
3727,-2320.00
3728,-2320.00
3729,-2320.00
3730,-2400.00
3731,-2320.00
3732,-2320.00
3733,-2320.00
3734,-2320.00
3735,-2320.00
3736,-2320.00
3737,-2320.00
3738,-2320.00
3739,-2320.00
3740,-2320.00
3741,-2320.00
3742,-2320.00
3743,-2240.00
3744,-2240.00
3745,-2240.00
3746,-2160.00
3747,-2160.00
3748,-2160.00
3749,-2160.00
3750,-2160.00
3751,-2160.00
3752,-2160.00
3753,-2160.00
3754,-2080.00
3755,-2160.00
3756,-2160.00
3757,-2080.00
3758,-2160.00
3759,-2080.00
3760,-2080.00
3761,-2000.00
3762,-2000.00
3763,-2000.00
3764,-2000.00
3765,-2000.00
3766,-2000.00
3767,-2000.00
3768,-2000.00
3769,-2000.00
3770,-2000.00
3771,-2000.00
3772,-1920.00
3773,-1920.00
3774,-1920.00
3775,-1920.00
3776,-1840.00
3777,-1840.00
3778,-1840.00
3779,-1840.00
3780,-1840.00
3781,-1840.00
3782,-1840.00
3783,-1840.00
3784,-1840.00
3785,-1840.00
3786,-1840.00
3787,-1760.00
3788,-1680.00
3789,-1840.00
3790,-1760.00
3791,-1760.00
3792,-1760.00
3793,-1680.00
3794,-1680.00
3795,-1680.00
3796,-1680.00
3797,-1680.00
3798,-1680.00
3799,-1680.00
3800,-1680.00
3801,-1680.00
3802,-1680.00
3803,-1680.00
3804,-1680.00
3805,-1680.00
3806,-1680.00
3807,-1680.00
3808,-1680.00
3809,-1600.00
3810,-1600.00
3811,-1600.00
3812,-1600.00
3813,-1520.00
3814,-1440.00
3815,-1600.00
3816,-1520.00
3817,-1600.00
3818,-1600.00
3819,-1520.00
3820,-1440.00
3821,-1440.00
3822,-1440.00
3823,-1440.00
3824,-1440.00
3825,-1440.00
3826,-1440.00
3827,-1360.00
3828,-1440.00
3829,-1440.00
3830,-1360.00
3831,-1360.00
3832,-1440.00
3833,-1360.00
3834,-1360.00
3835,-1360.00
3836,-1280.00
3837,-1280.00
3838,-1280.00
3839,-1280.00
3840,-1280.00
3841,-1280.00
3842,-1280.00
3843,-1280.00
3844,-1280.00
3845,-1280.00
3846,-1280.00
3847,-1120.00
3848,-1120.00
3849,-1280.00
3850,-1200.00
3851,-1280.00
3852,-1200.00
3853,-1120.00
3854,-1120.00
3855,-1120.00
3856,-1040.00
3857,-1040.00
3858,-1040.00
3859,-1040.00
3860,-1040.00
3861,-1040.00
3862,-1040.00
3863,-960.00
3864,-960.00
3865,-1040.00
3866,-960.00
3867,-960.00
3868,-960.00
3869,-960.00
3870,-960.00
3871,-960.00
3872,-960.00
3873,-960.00
3874,-960.00
3875,-960.00
3876,-960.00
3877,-960.00
3878,-880.00
3879,-880.00
3880,-880.00
3881,-880.00
3882,-880.00
3883,-880.00
3884,-800.00
3885,-800.00
3886,-880.00
3887,-880.00
3888,-800.00
3889,-800.00
3890,-800.00
3891,-800.00
3892,-720.00
3893,-800.00
3894,-800.00
3895,-800.00
3896,-720.00
3897,-720.00
3898,-720.00
3899,-720.00
3900,-720.00
3901,-720.00
3902,-720.00
3903,-720.00
3904,-560.00
3905,-560.00
3906,-720.00
3907,-560.00
3908,-560.00
3909,-560.00
3910,-560.00
3911,-560.00
3912,-560.00
3913,-560.00
3914,-560.00
3915,-480.00
3916,-560.00
3917,-640.00
3918,-480.00
3919,-480.00
3920,-480.00
3921,-400.00
3922,-400.00
3923,-400.00
3924,-400.00
3925,-400.00
3926,-400.00
3927,-400.00
3928,-400.00
3929,-400.00
3930,-400.00
3931,-400.00
3932,-400.00
3933,-320.00
3934,-320.00
3935,-240.00
3936,-240.00
3937,-240.00
3938,-240.00
3939,-240.00
3940,-240.00
3941,-240.00
3942,-240.00
3943,-240.00
3944,-240.00
3945,-240.00
3946,-240.00
3947,-240.00
3948,-160.00
3949,-160.00
3950,-160.00
3951,-160.00
3952,-160.00
3953,-160.00
3954,-160.00
3955,-160.00
3956,-160.00
3957,-160.00
3958,-160.00
3959,-160.00
3960,-160.00
3961,-160.00
3962,-80.00
3963,-80.00
3964,-160.00
3965,0.00
3966,-80.00
3967,0.00
3968,-80.00
3969,0.00
3970,0.00
3971,0.00
3972,0.00
3973,0.00
3974,0.00
3975,80.00
3976,0.00
3977,80.00
3978,80.00
3979,80.00
3980,80.00
3981,80.00
3982,80.00
3983,160.00
3984,160.00
3985,160.00
3986,160.00
3987,160.00
3988,160.00
3989,160.00
3990,160.00
3991,160.00
3992,160.00
3993,160.00
3994,160.00
3995,240.00
3996,320.00
3997,320.00
3998,320.00
3999,320.00
