EESchema Schematic File Version 4
EELAYER 30 0
EELAYER END
$Descr A4 11693 8268
encoding utf-8
Sheet 1 1
Title ""
Date ""
Rev ""
Comp ""
Comment1 ""
Comment2 ""
Comment3 ""
Comment4 ""
$EndDescr
$Comp
L organised-atoms:Transistor_xtal Q?
U 1 1 65013B01
P 6950 5500
F 0 "Q?" H 7141 5500 50  0001 L CNN
F 1 "Crystal" H 6750 5700 50  0000 L CNN
F 2 "Package_TO_SOT_THT:TO-92_Inline" H 7150 5425 50  0001 L CIN
F 3 "https://www.fairchildsemi.com/datasheets/2N/2N3906.pdf" H 6950 5500 50  0001 L CNN
	1    6950 5500
	1    0    0    -1  
$EndComp
$Comp
L 74xGxx:74AHC1G04 U?
U 1 1 65035583
P 3600 6350
F 0 "U?" H 3575 6617 50  0001 C CNN
F 1 " " H 3575 6525 50  0001 C CNN
F 2 "" H 3600 6350 50  0001 C CNN
F 3 "http://www.ti.com/lit/sg/scyt129e/scyt129e.pdf" H 3600 6350 50  0001 C CNN
	1    3600 6350
	1    0    0    -1  
$EndComp
$Comp
L 74xGxx:74AHC1G04 U?
U 1 1 6503558D
P 3600 6350
F 0 "U?" H 3575 6617 50  0001 C CNN
F 1 " " H 3575 6525 50  0000 C CNN
F 2 "" H 3600 6350 50  0001 C CNN
F 3 "http://www.ti.com/lit/sg/scyt129e/scyt129e.pdf" H 3600 6350 50  0001 C CNN
	1    3600 6350
	1    0    0    -1  
$EndComp
$Comp
L Device:CP C?
U 1 1 65035597
P 900 2600
F 0 "C?" H 1018 2646 50  0001 L CNN
F 1 "2.2 μF" H 1018 2600 50  0001 L CNN
F 2 "" H 938 2450 50  0001 C CNN
F 3 "~" H 900 2600 50  0001 C CNN
	1    900  2600
	1    0    0    -1  
$EndComp
Connection ~ 3300 6350
$Comp
L power:Earth #PWR?
U 1 1 650355A2
P 3300 7000
F 0 "#PWR?" H 3300 6750 50  0001 C CNN
F 1 "Earth" H 3300 6850 50  0001 C CNN
F 2 "" H 3300 7000 50  0001 C CNN
F 3 "~" H 3300 7000 50  0001 C CNN
	1    3300 7000
	1    0    0    -1  
$EndComp
Wire Wire Line
	3300 6350 3300 6100
Wire Wire Line
	3850 6350 3850 6100
Connection ~ 3850 6350
Wire Wire Line
	3300 6100 3450 6100
Wire Wire Line
	3750 6100 3850 6100
$Comp
L power:Earth #PWR?
U 1 1 650355CF
P 4450 7000
F 0 "#PWR?" H 4450 6750 50  0001 C CNN
F 1 "Earth" H 4450 6850 50  0001 C CNN
F 2 "" H 4450 7000 50  0001 C CNN
F 3 "~" H 4450 7000 50  0001 C CNN
	1    4450 7000
	1    0    0    -1  
$EndComp
Wire Wire Line
	4450 6550 4450 6700
Wire Wire Line
	3300 6350 3300 6700
Wire Wire Line
	4450 6150 4450 6100
Wire Wire Line
	4450 6100 5000 6100
Wire Wire Line
	5000 6550 5000 6100
$Comp
L Device:R_US R?
U 1 1 650355E2
P 3600 6100
F 0 "R?" V 3395 6100 50  0001 C CNN
F 1 "1KΩ" V 3487 6100 50  0001 C CNN
F 2 "" V 3640 6090 50  0001 C CNN
F 3 "~" H 3600 6100 50  0001 C CNN
	1    3600 6100
	0    1    1    0   
$EndComp
$Comp
L Transistor_BJT:BC107 Q?
U 1 1 6503BD8B
P 4350 6350
F 0 "Q?" H 4541 6396 50  0001 L CNN
F 1 "BC107" H 4541 6350 50  0001 L CNN
F 2 "Package_TO_SOT_THT:TO-18-3" H 4550 6275 50  0001 L CIN
F 3 "http://www.b-kainka.de/Daten/Transistor/BC108.pdf" H 4350 6350 50  0001 L CNN
	1    4350 6350
	1    0    0    -1  
$EndComp
$Comp
L Device:R_US R?
U 1 1 6503CC3D
P 4000 6350
F 0 "R?" V 3795 6350 50  0001 C CNN
F 1 "R_US" V 3887 6350 50  0001 C CNN
F 2 "" V 4040 6340 50  0001 C CNN
F 3 "~" H 4000 6350 50  0001 C CNN
	1    4000 6350
	0    1    1    0   
$EndComp
Connection ~ 4450 6550
$Comp
L 74xGxx:74AHC1G04 U?
U 1 1 65047096
P 1550 6550
F 0 "U?" H 1525 6817 50  0001 C CNN
F 1 " " H 1525 6725 50  0001 C CNN
F 2 "" H 1550 6550 50  0001 C CNN
F 3 "http://www.ti.com/lit/sg/scyt129e/scyt129e.pdf" H 1550 6550 50  0001 C CNN
	1    1550 6550
	1    0    0    -1  
$EndComp
$Comp
L 74xGxx:74AHC1G04 U?
U 1 1 650470A0
P 1550 6550
F 0 "U?" H 1525 6817 50  0001 C CNN
F 1 " " H 1525 6725 50  0000 C CNN
F 2 "" H 1550 6550 50  0001 C CNN
F 3 "http://www.ti.com/lit/sg/scyt129e/scyt129e.pdf" H 1550 6550 50  0001 C CNN
	1    1550 6550
	1    0    0    -1  
$EndComp
$Comp
L Device:CP C?
U 1 1 650470AA
P 800 3150
F 0 "C?" H 918 3196 50  0001 L CNN
F 1 "2.2 μF" H 918 3150 50  0000 L CNN
F 2 "" H 838 3000 50  0001 C CNN
F 3 "~" H 800 3150 50  0001 C CNN
	1    800  3150
	1    0    0    -1  
$EndComp
Connection ~ 1250 6550
$Comp
L power:Earth #PWR?
U 1 1 650470B5
P 1250 6950
F 0 "#PWR?" H 1250 6700 50  0001 C CNN
F 1 "Earth" H 1250 6800 50  0001 C CNN
F 2 "" H 1250 6950 50  0001 C CNN
F 3 "~" H 1250 6950 50  0001 C CNN
	1    1250 6950
	1    0    0    -1  
$EndComp
Wire Wire Line
	1250 6550 1250 6300
Wire Wire Line
	1800 6550 1800 6300
Connection ~ 1800 6550
Wire Wire Line
	1250 6300 1400 6300
Wire Wire Line
	1700 6300 1800 6300
$Comp
L Device:R_US R?
U 1 1 650470C5
P 1550 6300
F 0 "R?" V 1345 6300 50  0001 C CNN
F 1 "1KΩ" V 1437 6300 50  0001 C CNN
F 2 "" V 1590 6290 50  0001 C CNN
F 3 "~" H 1550 6300 50  0001 C CNN
	1    1550 6300
	0    1    1    0   
$EndComp
Wire Wire Line
	1950 6550 1800 6550
$Comp
L Device:C C?
U 1 1 65059907
P 3300 6850
F 0 "C?" H 3415 6896 50  0001 L CNN
F 1 "C" H 3415 6850 50  0001 L CNN
F 2 "" H 3338 6700 50  0001 C CNN
F 3 "~" H 3300 6850 50  0001 C CNN
	1    3300 6850
	1    0    0    -1  
$EndComp
$Comp
L Device:C C?
U 1 1 650617D7
P 4450 6850
F 0 "C?" H 4565 6896 50  0001 L CNN
F 1 "C" H 4565 6850 50  0001 L CNN
F 2 "" H 4488 6700 50  0001 C CNN
F 3 "~" H 4450 6850 50  0001 C CNN
	1    4450 6850
	1    0    0    -1  
$EndComp
$Comp
L Device:C C?
U 1 1 650657C8
P 1250 6800
F 0 "C?" H 1365 6846 50  0001 L CNN
F 1 "C" H 1365 6800 50  0001 L CNN
F 2 "" H 1288 6650 50  0001 C CNN
F 3 "~" H 1250 6800 50  0001 C CNN
	1    1250 6800
	1    0    0    -1  
$EndComp
Wire Wire Line
	1250 6550 1250 6650
$Comp
L 74xGxx:74AHC1G04 U?
U 1 1 6507DBB0
P 4750 6550
F 0 "U?" H 4725 6725 50  0001 C CNN
F 1 "74AHC1G04" H 4725 6726 50  0001 C CNN
F 2 "" H 4750 6550 50  0001 C CNN
F 3 "http://www.ti.com/lit/sg/scyt129e/scyt129e.pdf" H 4750 6550 50  0001 C CNN
	1    4750 6550
	1    0    0    -1  
$EndComp
$Comp
L Device:LED D?
U 1 1 65149497
P 1950 4400
F 0 "D?" H 1943 4236 50  0001 C CNN
F 1 "LED" H 1943 4236 50  0001 C CNN
F 2 "" H 1950 4400 50  0001 C CNN
F 3 "~" H 1950 4400 50  0001 C CNN
	1    1950 4400
	-1   0    0    1   
$EndComp
$Comp
L power:Earth #PWR?
U 1 1 65149D55
P 2250 4400
F 0 "#PWR?" H 2250 4150 50  0001 C CNN
F 1 "Earth" H 2250 4250 50  0001 C CNN
F 2 "" H 2250 4400 50  0001 C CNN
F 3 "~" H 2250 4400 50  0001 C CNN
	1    2250 4400
	1    0    0    -1  
$EndComp
Wire Wire Line
	1250 4400 1400 4400
Wire Wire Line
	1700 4400 1800 4400
Wire Wire Line
	2100 4400 2250 4400
$Comp
L Device:LED D?
U 1 1 65157586
P 1950 4700
F 0 "D?" H 1943 4536 50  0001 C CNN
F 1 "LED" H 1943 4536 50  0001 C CNN
F 2 "" H 1950 4700 50  0001 C CNN
F 3 "~" H 1950 4700 50  0001 C CNN
	1    1950 4700
	-1   0    0    1   
$EndComp
$Comp
L power:Earth #PWR?
U 1 1 65157590
P 2250 4700
F 0 "#PWR?" H 2250 4450 50  0001 C CNN
F 1 "Earth" H 2250 4550 50  0001 C CNN
F 2 "" H 2250 4700 50  0001 C CNN
F 3 "~" H 2250 4700 50  0001 C CNN
	1    2250 4700
	1    0    0    -1  
$EndComp
Wire Wire Line
	1700 4700 1800 4700
Wire Wire Line
	2100 4700 2250 4700
$Comp
L Device:R_POT_US RV?
U 1 1 65159E4E
P 1550 4700
F 0 "RV?" V 1437 4700 50  0001 C CNN
F 1 "R_POT_US" V 1436 4700 50  0001 C CNN
F 2 "" H 1550 4700 50  0001 C CNN
F 3 "~" H 1550 4700 50  0001 C CNN
	1    1550 4700
	0    1    1    0   
$EndComp
$Comp
L Device:R_US R?
U 1 1 6515B987
P 1550 4400
F 0 "R?" V 1345 4400 50  0001 C CNN
F 1 "R_US" V 1437 4400 50  0001 C CNN
F 2 "" V 1590 4390 50  0001 C CNN
F 3 "~" H 1550 4400 50  0001 C CNN
	1    1550 4400
	0    1    1    0   
$EndComp
Wire Wire Line
	1250 4850 1550 4850
$Comp
L Device:LED D?
U 1 1 65182D9F
P 1950 5200
F 0 "D?" H 1943 5036 50  0001 C CNN
F 1 "LED" H 1943 5036 50  0001 C CNN
F 2 "" H 1950 5200 50  0001 C CNN
F 3 "~" H 1950 5200 50  0001 C CNN
	1    1950 5200
	-1   0    0    1   
$EndComp
$Comp
L power:Earth #PWR?
U 1 1 65182DA9
P 2250 5200
F 0 "#PWR?" H 2250 4950 50  0001 C CNN
F 1 "Earth" H 2250 5050 50  0001 C CNN
F 2 "" H 2250 5200 50  0001 C CNN
F 3 "~" H 2250 5200 50  0001 C CNN
	1    2250 5200
	1    0    0    -1  
$EndComp
Wire Wire Line
	1250 5200 1400 5200
Wire Wire Line
	1700 5200 1800 5200
Wire Wire Line
	2100 5200 2250 5200
$Comp
L Device:R_US R?
U 1 1 65182DB6
P 1550 5200
F 0 "R?" V 1345 5200 50  0001 C CNN
F 1 "R_US" V 1437 5200 50  0001 C CNN
F 2 "" V 1590 5190 50  0001 C CNN
F 3 "~" H 1550 5200 50  0001 C CNN
	1    1550 5200
	0    1    1    0   
$EndComp
$Comp
L Device:LED D?
U 1 1 6519CA39
P 2650 5700
F 0 "D?" H 2643 5536 50  0001 C CNN
F 1 "LED" H 2643 5536 50  0001 C CNN
F 2 "" H 2650 5700 50  0001 C CNN
F 3 "~" H 2650 5700 50  0001 C CNN
	1    2650 5700
	-1   0    0    1   
$EndComp
$Comp
L power:Earth #PWR?
U 1 1 6519CA43
P 2950 5700
F 0 "#PWR?" H 2950 5450 50  0001 C CNN
F 1 "Earth" H 2950 5550 50  0001 C CNN
F 2 "" H 2950 5700 50  0001 C CNN
F 3 "~" H 2950 5700 50  0001 C CNN
	1    2950 5700
	1    0    0    -1  
$EndComp
Wire Wire Line
	2800 5700 2950 5700
$Comp
L Device:R_US R?
U 1 1 6519CA50
P 2350 5700
F 0 "R?" V 2145 5700 50  0001 C CNN
F 1 "R_US" V 2237 5700 50  0001 C CNN
F 2 "" V 2390 5690 50  0001 C CNN
F 3 "~" H 2350 5700 50  0001 C CNN
	1    2350 5700
	0    1    1    0   
$EndComp
$Comp
L 74xGxx:74AHC1G04 U?
U 1 1 651A43AC
P 1950 5700
F 0 "U?" H 1925 5967 50  0001 C CNN
F 1 " " H 1925 5875 50  0001 C CNN
F 2 "" H 1950 5700 50  0001 C CNN
F 3 "http://www.ti.com/lit/sg/scyt129e/scyt129e.pdf" H 1950 5700 50  0001 C CNN
	1    1950 5700
	1    0    0    -1  
$EndComp
$Comp
L 74xGxx:74AHC1G04 U?
U 1 1 651A43B6
P 1950 5700
F 0 "U?" H 1925 5967 50  0001 C CNN
F 1 " " H 1925 5875 50  0000 C CNN
F 2 "" H 1950 5700 50  0001 C CNN
F 3 "http://www.ti.com/lit/sg/scyt129e/scyt129e.pdf" H 1950 5700 50  0001 C CNN
	1    1950 5700
	1    0    0    -1  
$EndComp
$Comp
L power:Earth #PWR?
U 1 1 651BB16B
P 1250 5800
F 0 "#PWR?" H 1250 5550 50  0001 C CNN
F 1 "Earth" H 1250 5650 50  0001 C CNN
F 2 "" H 1250 5800 50  0001 C CNN
F 3 "~" H 1250 5800 50  0001 C CNN
	1    1250 5800
	1    0    0    -1  
$EndComp
$Comp
L Switch:SW_SPDT SW?
U 1 1 651C0392
P 1450 5700
F 0 "SW?" H 1450 5467 50  0001 C CNN
F 1 "SW_SPDT" H 1450 5466 50  0001 C CNN
F 2 "" H 1450 5700 50  0001 C CNN
F 3 "~" H 1450 5700 50  0001 C CNN
	1    1450 5700
	-1   0    0    1   
$EndComp
$Comp
L Device:LED D?
U 1 1 652072FF
P 2400 6550
F 0 "D?" H 2393 6386 50  0001 C CNN
F 1 "LED" H 2393 6386 50  0001 C CNN
F 2 "" H 2400 6550 50  0001 C CNN
F 3 "~" H 2400 6550 50  0001 C CNN
	1    2400 6550
	-1   0    0    1   
$EndComp
$Comp
L power:Earth #PWR?
U 1 1 65207309
P 2700 6550
F 0 "#PWR?" H 2700 6300 50  0001 C CNN
F 1 "Earth" H 2700 6400 50  0001 C CNN
F 2 "" H 2700 6550 50  0001 C CNN
F 3 "~" H 2700 6550 50  0001 C CNN
	1    2700 6550
	1    0    0    -1  
$EndComp
Wire Wire Line
	2550 6550 2700 6550
$Comp
L Device:R_US R?
U 1 1 65207314
P 2100 6550
F 0 "R?" V 1895 6550 50  0001 C CNN
F 1 "R_US" V 1987 6550 50  0001 C CNN
F 2 "" V 2140 6540 50  0001 C CNN
F 3 "~" H 2100 6550 50  0001 C CNN
	1    2100 6550
	0    1    1    0   
$EndComp
$Comp
L 74xGxx:74AHC1G04 U?
U 1 1 652172B2
P 3800 5450
F 0 "U?" H 3775 5717 50  0001 C CNN
F 1 " " H 3775 5625 50  0001 C CNN
F 2 "" H 3800 5450 50  0001 C CNN
F 3 "http://www.ti.com/lit/sg/scyt129e/scyt129e.pdf" H 3800 5450 50  0001 C CNN
	1    3800 5450
	1    0    0    -1  
$EndComp
$Comp
L 74xGxx:74AHC1G04 U?
U 1 1 652172BC
P 3800 5450
F 0 "U?" H 3775 5717 50  0001 C CNN
F 1 " " H 3775 5625 50  0000 C CNN
F 2 "" H 3800 5450 50  0001 C CNN
F 3 "http://www.ti.com/lit/sg/scyt129e/scyt129e.pdf" H 3800 5450 50  0001 C CNN
	1    3800 5450
	1    0    0    -1  
$EndComp
Connection ~ 3500 5450
$Comp
L power:Earth #PWR?
U 1 1 652172C7
P 3500 5850
F 0 "#PWR?" H 3500 5600 50  0001 C CNN
F 1 "Earth" H 3500 5700 50  0001 C CNN
F 2 "" H 3500 5850 50  0001 C CNN
F 3 "~" H 3500 5850 50  0001 C CNN
	1    3500 5850
	1    0    0    -1  
$EndComp
Wire Wire Line
	3500 5450 3500 5200
Connection ~ 4050 5450
Wire Wire Line
	4200 5450 4050 5450
$Comp
L Device:C C?
U 1 1 652172E1
P 3500 5700
F 0 "C?" H 3615 5746 50  0001 L CNN
F 1 "C" H 3615 5700 50  0001 L CNN
F 2 "" H 3538 5550 50  0001 C CNN
F 3 "~" H 3500 5700 50  0001 C CNN
	1    3500 5700
	1    0    0    -1  
$EndComp
Wire Wire Line
	3500 5450 3500 5550
$Comp
L Device:LED D?
U 1 1 652172EC
P 4650 5450
F 0 "D?" H 4643 5286 50  0001 C CNN
F 1 "LED" H 4643 5286 50  0001 C CNN
F 2 "" H 4650 5450 50  0001 C CNN
F 3 "~" H 4650 5450 50  0001 C CNN
	1    4650 5450
	-1   0    0    1   
$EndComp
$Comp
L power:Earth #PWR?
U 1 1 652172F6
P 4950 5450
F 0 "#PWR?" H 4950 5200 50  0001 C CNN
F 1 "Earth" H 4950 5300 50  0001 C CNN
F 2 "" H 4950 5450 50  0001 C CNN
F 3 "~" H 4950 5450 50  0001 C CNN
	1    4950 5450
	1    0    0    -1  
$EndComp
Wire Wire Line
	4800 5450 4950 5450
$Comp
L Device:R_US R?
U 1 1 65217301
P 4350 5450
F 0 "R?" V 4145 5450 50  0001 C CNN
F 1 "R_US" V 4237 5450 50  0001 C CNN
F 2 "" V 4390 5440 50  0001 C CNN
F 3 "~" H 4350 5450 50  0001 C CNN
	1    4350 5450
	0    1    1    0   
$EndComp
$Comp
L Device:R_POT_US RV?
U 1 1 6521E34D
P 3800 5050
F 0 "RV?" V 3687 5050 50  0001 C CNN
F 1 "R_POT_US" V 3686 5050 50  0001 C CNN
F 2 "" H 3800 5050 50  0001 C CNN
F 3 "~" H 3800 5050 50  0001 C CNN
	1    3800 5050
	0    1    1    0   
$EndComp
Wire Wire Line
	3500 5200 3800 5200
Wire Wire Line
	3950 5050 4050 5050
$Comp
L Device:Speaker LS?
U 1 1 652379EE
P 4700 5750
F 0 "LS?" H 4870 5746 50  0001 L CNN
F 1 "Speaker" H 4870 5700 50  0001 L CNN
F 2 "" H 4700 5550 50  0001 C CNN
F 3 "~" H 4690 5700 50  0001 C CNN
	1    4700 5750
	1    0    0    -1  
$EndComp
$Comp
L power:Earth #PWR?
U 1 1 6523859A
P 4500 5850
F 0 "#PWR?" H 4500 5600 50  0001 C CNN
F 1 "Earth" H 4500 5700 50  0001 C CNN
F 2 "" H 4500 5850 50  0001 C CNN
F 3 "~" H 4500 5850 50  0001 C CNN
	1    4500 5850
	1    0    0    -1  
$EndComp
Wire Wire Line
	4050 5050 4050 5450
Wire Wire Line
	4050 5450 4050 5750
Wire Wire Line
	4050 5750 4500 5750
$Comp
L Device:Speaker LS?
U 1 1 6526766A
P 5350 6550
F 0 "LS?" H 5520 6546 50  0001 L CNN
F 1 "Speaker" H 5520 6500 50  0001 L CNN
F 2 "" H 5350 6350 50  0001 C CNN
F 3 "~" H 5340 6500 50  0001 C CNN
	1    5350 6550
	1    0    0    -1  
$EndComp
$Comp
L power:Earth #PWR?
U 1 1 65267674
P 5150 6650
F 0 "#PWR?" H 5150 6400 50  0001 C CNN
F 1 "Earth" H 5150 6500 50  0001 C CNN
F 2 "" H 5150 6650 50  0001 C CNN
F 3 "~" H 5150 6650 50  0001 C CNN
	1    5150 6650
	1    0    0    -1  
$EndComp
Wire Wire Line
	5000 6550 5150 6550
Connection ~ 5000 6550
$Comp
L 74xGxx:74AHC1G04 U?
U 1 1 65283A4B
P 6150 4150
F 0 "U?" H 6125 4417 50  0001 C CNN
F 1 " " H 6125 4325 50  0001 C CNN
F 2 "" H 6150 4150 50  0001 C CNN
F 3 "http://www.ti.com/lit/sg/scyt129e/scyt129e.pdf" H 6150 4150 50  0001 C CNN
	1    6150 4150
	1    0    0    -1  
$EndComp
$Comp
L 74xGxx:74AHC1G04 U?
U 1 1 65283A55
P 6150 4150
F 0 "U?" H 6125 4417 50  0001 C CNN
F 1 " " H 6125 4325 50  0000 C CNN
F 2 "" H 6150 4150 50  0001 C CNN
F 3 "http://www.ti.com/lit/sg/scyt129e/scyt129e.pdf" H 6150 4150 50  0001 C CNN
	1    6150 4150
	1    0    0    -1  
$EndComp
Connection ~ 5850 4150
$Comp
L power:Earth #PWR?
U 1 1 65283A60
P 5850 4800
F 0 "#PWR?" H 5850 4550 50  0001 C CNN
F 1 "Earth" H 5850 4650 50  0001 C CNN
F 2 "" H 5850 4800 50  0001 C CNN
F 3 "~" H 5850 4800 50  0001 C CNN
	1    5850 4800
	1    0    0    -1  
$EndComp
Wire Wire Line
	5850 4150 5850 3900
Wire Wire Line
	6400 4150 6400 3900
Connection ~ 6400 4150
Wire Wire Line
	5850 3900 6000 3900
Wire Wire Line
	6300 3900 6400 3900
$Comp
L power:Earth #PWR?
U 1 1 65283A6F
P 7000 4800
F 0 "#PWR?" H 7000 4550 50  0001 C CNN
F 1 "Earth" H 7000 4650 50  0001 C CNN
F 2 "" H 7000 4800 50  0001 C CNN
F 3 "~" H 7000 4800 50  0001 C CNN
	1    7000 4800
	1    0    0    -1  
$EndComp
Wire Wire Line
	7000 4350 7000 4500
Wire Wire Line
	5850 4150 5850 4500
Wire Wire Line
	7000 3950 7000 3900
Wire Wire Line
	7750 4350 7750 3900
$Comp
L Device:R_US R?
U 1 1 65283A7E
P 6150 3900
F 0 "R?" V 5945 3900 50  0001 C CNN
F 1 "1KΩ" V 6037 3900 50  0001 C CNN
F 2 "" V 6190 3890 50  0001 C CNN
F 3 "~" H 6150 3900 50  0001 C CNN
	1    6150 3900
	0    1    1    0   
$EndComp
$Comp
L Transistor_BJT:BC107 Q?
U 1 1 65283A88
P 6900 4150
F 0 "Q?" H 7091 4196 50  0001 L CNN
F 1 "BC107" H 7091 4150 50  0001 L CNN
F 2 "Package_TO_SOT_THT:TO-18-3" H 7100 4075 50  0001 L CIN
F 3 "http://www.b-kainka.de/Daten/Transistor/BC108.pdf" H 6900 4150 50  0001 L CNN
	1    6900 4150
	1    0    0    -1  
$EndComp
$Comp
L Device:R_US R?
U 1 1 65283A92
P 6550 4150
F 0 "R?" V 6345 4150 50  0001 C CNN
F 1 "R_US" V 6437 4150 50  0001 C CNN
F 2 "" V 6590 4140 50  0001 C CNN
F 3 "~" H 6550 4150 50  0001 C CNN
	1    6550 4150
	0    1    1    0   
$EndComp
$Comp
L Device:C C?
U 1 1 65283A9D
P 5850 4650
F 0 "C?" H 5965 4696 50  0001 L CNN
F 1 "C" H 5965 4650 50  0001 L CNN
F 2 "" H 5888 4500 50  0001 C CNN
F 3 "~" H 5850 4650 50  0001 C CNN
	1    5850 4650
	1    0    0    -1  
$EndComp
$Comp
L Device:C C?
U 1 1 65283AA7
P 7000 4650
F 0 "C?" H 7115 4696 50  0001 L CNN
F 1 "C" H 7115 4650 50  0001 L CNN
F 2 "" H 7038 4500 50  0001 C CNN
F 3 "~" H 7000 4650 50  0001 C CNN
	1    7000 4650
	1    0    0    -1  
$EndComp
$Comp
L 74xGxx:74AHC1G04 U?
U 1 1 65283AB1
P 7500 4350
F 0 "U?" H 7475 4525 50  0001 C CNN
F 1 "74AHC1G04" H 7475 4526 50  0001 C CNN
F 2 "" H 7500 4350 50  0001 C CNN
F 3 "http://www.ti.com/lit/sg/scyt129e/scyt129e.pdf" H 7500 4350 50  0001 C CNN
	1    7500 4350
	1    0    0    -1  
$EndComp
$Comp
L Device:Speaker LS?
U 1 1 65283ABB
P 8100 4350
F 0 "LS?" H 8270 4346 50  0001 L CNN
F 1 "Speaker" H 8270 4300 50  0001 L CNN
F 2 "" H 8100 4150 50  0001 C CNN
F 3 "~" H 8090 4300 50  0001 C CNN
	1    8100 4350
	1    0    0    -1  
$EndComp
$Comp
L power:Earth #PWR?
U 1 1 65283AC5
P 7900 4450
F 0 "#PWR?" H 7900 4200 50  0001 C CNN
F 1 "Earth" H 7900 4300 50  0001 C CNN
F 2 "" H 7900 4450 50  0001 C CNN
F 3 "~" H 7900 4450 50  0001 C CNN
	1    7900 4450
	1    0    0    -1  
$EndComp
Wire Wire Line
	7750 4350 7900 4350
Connection ~ 7750 4350
Wire Wire Line
	7000 3900 7200 3900
Wire Wire Line
	7000 4350 7200 4350
Connection ~ 7000 4350
$Comp
L Device:R_US R?
U 1 1 652967B1
P 7200 4100
F 0 "R?" V 6995 4100 50  0001 C CNN
F 1 "R_US" V 7087 4100 50  0001 C CNN
F 2 "" V 7240 4090 50  0001 C CNN
F 3 "~" H 7200 4100 50  0001 C CNN
	1    7200 4100
	-1   0    0    1   
$EndComp
Connection ~ 7200 3900
Wire Wire Line
	7200 3900 7750 3900
Wire Wire Line
	7200 3950 7200 3900
Wire Wire Line
	7200 4250 7200 4350
Connection ~ 7200 4350
$Comp
L 74xGxx:74AHC1G04 U?
U 1 1 652C5728
P 3750 4450
F 0 "U?" H 3725 4717 50  0001 C CNN
F 1 " " H 3725 4625 50  0001 C CNN
F 2 "" H 3750 4450 50  0001 C CNN
F 3 "http://www.ti.com/lit/sg/scyt129e/scyt129e.pdf" H 3750 4450 50  0001 C CNN
	1    3750 4450
	1    0    0    -1  
$EndComp
$Comp
L 74xGxx:74AHC1G04 U?
U 1 1 652C5732
P 3750 4450
F 0 "U?" H 3725 4717 50  0001 C CNN
F 1 " " H 3725 4625 50  0000 C CNN
F 2 "" H 3750 4450 50  0001 C CNN
F 3 "http://www.ti.com/lit/sg/scyt129e/scyt129e.pdf" H 3750 4450 50  0001 C CNN
	1    3750 4450
	1    0    0    -1  
$EndComp
Connection ~ 3450 4450
$Comp
L power:Earth #PWR?
U 1 1 652C573D
P 3450 4850
F 0 "#PWR?" H 3450 4600 50  0001 C CNN
F 1 "Earth" H 3450 4700 50  0001 C CNN
F 2 "" H 3450 4850 50  0001 C CNN
F 3 "~" H 3450 4850 50  0001 C CNN
	1    3450 4850
	1    0    0    -1  
$EndComp
Wire Wire Line
	3450 4450 3450 4200
Connection ~ 4000 4450
Wire Wire Line
	4150 4450 4000 4450
$Comp
L Device:C C?
U 1 1 652C574A
P 3450 4700
F 0 "C?" H 3565 4746 50  0001 L CNN
F 1 "C" H 3565 4700 50  0001 L CNN
F 2 "" H 3488 4550 50  0001 C CNN
F 3 "~" H 3450 4700 50  0001 C CNN
	1    3450 4700
	1    0    0    -1  
$EndComp
Wire Wire Line
	3450 4450 3450 4550
$Comp
L Device:LED D?
U 1 1 652C5755
P 4600 4450
F 0 "D?" H 4593 4286 50  0001 C CNN
F 1 "LED" H 4593 4286 50  0001 C CNN
F 2 "" H 4600 4450 50  0001 C CNN
F 3 "~" H 4600 4450 50  0001 C CNN
	1    4600 4450
	-1   0    0    1   
$EndComp
$Comp
L power:Earth #PWR?
U 1 1 652C575F
P 4900 4450
F 0 "#PWR?" H 4900 4200 50  0001 C CNN
F 1 "Earth" H 4900 4300 50  0001 C CNN
F 2 "" H 4900 4450 50  0001 C CNN
F 3 "~" H 4900 4450 50  0001 C CNN
	1    4900 4450
	1    0    0    -1  
$EndComp
Wire Wire Line
	4750 4450 4900 4450
$Comp
L Device:R_US R?
U 1 1 652C576A
P 4300 4450
F 0 "R?" V 4095 4450 50  0001 C CNN
F 1 "R_US" V 4187 4450 50  0001 C CNN
F 2 "" V 4340 4440 50  0001 C CNN
F 3 "~" H 4300 4450 50  0001 C CNN
	1    4300 4450
	0    1    1    0   
$EndComp
$Comp
L Device:R_POT_US RV?
U 1 1 652C5774
P 3750 4050
F 0 "RV?" V 3637 4050 50  0001 C CNN
F 1 "R_POT_US" V 3636 4050 50  0001 C CNN
F 2 "" H 3750 4050 50  0001 C CNN
F 3 "~" H 3750 4050 50  0001 C CNN
	1    3750 4050
	0    1    1    0   
$EndComp
Wire Wire Line
	3450 4200 3750 4200
Wire Wire Line
	3900 4050 4000 4050
Wire Wire Line
	4000 4050 4000 4450
$Comp
L 74xGxx:74AHC1G04 U?
U 1 1 652E2FE7
P 6200 5500
F 0 "U?" H 6175 5767 50  0001 C CNN
F 1 " " H 6175 5675 50  0001 C CNN
F 2 "" H 6200 5500 50  0001 C CNN
F 3 "http://www.ti.com/lit/sg/scyt129e/scyt129e.pdf" H 6200 5500 50  0001 C CNN
	1    6200 5500
	1    0    0    -1  
$EndComp
$Comp
L 74xGxx:74AHC1G04 U?
U 1 1 652E2FF1
P 6200 5500
F 0 "U?" H 6175 5767 50  0001 C CNN
F 1 " " H 6175 5675 50  0000 C CNN
F 2 "" H 6200 5500 50  0001 C CNN
F 3 "http://www.ti.com/lit/sg/scyt129e/scyt129e.pdf" H 6200 5500 50  0001 C CNN
	1    6200 5500
	1    0    0    -1  
$EndComp
Connection ~ 5900 5500
$Comp
L power:Earth #PWR?
U 1 1 652E2FFC
P 5900 6150
F 0 "#PWR?" H 5900 5900 50  0001 C CNN
F 1 "Earth" H 5900 6000 50  0001 C CNN
F 2 "" H 5900 6150 50  0001 C CNN
F 3 "~" H 5900 6150 50  0001 C CNN
	1    5900 6150
	1    0    0    -1  
$EndComp
Wire Wire Line
	5900 5500 5900 5250
Wire Wire Line
	6450 5500 6450 5250
Connection ~ 6450 5500
Wire Wire Line
	5900 5250 6050 5250
Wire Wire Line
	6350 5250 6450 5250
$Comp
L power:Earth #PWR?
U 1 1 652E300B
P 7050 6150
F 0 "#PWR?" H 7050 5900 50  0001 C CNN
F 1 "Earth" H 7050 6000 50  0001 C CNN
F 2 "" H 7050 6150 50  0001 C CNN
F 3 "~" H 7050 6150 50  0001 C CNN
	1    7050 6150
	1    0    0    -1  
$EndComp
Wire Wire Line
	7050 5700 7050 5850
Wire Wire Line
	5900 5500 5900 5850
Wire Wire Line
	7050 5300 7050 5250
Wire Wire Line
	7800 5700 7800 5250
$Comp
L Device:R_US R?
U 1 1 652E3019
P 6200 5250
F 0 "R?" V 5995 5250 50  0001 C CNN
F 1 "1KΩ" V 6087 5250 50  0001 C CNN
F 2 "" V 6240 5240 50  0001 C CNN
F 3 "~" H 6200 5250 50  0001 C CNN
	1    6200 5250
	0    1    1    0   
$EndComp
$Comp
L Device:C C?
U 1 1 652E3037
P 5900 6000
F 0 "C?" H 6015 6046 50  0001 L CNN
F 1 "C" H 6015 6000 50  0001 L CNN
F 2 "" H 5938 5850 50  0001 C CNN
F 3 "~" H 5900 6000 50  0001 C CNN
	1    5900 6000
	1    0    0    -1  
$EndComp
$Comp
L Device:C C?
U 1 1 652E3041
P 7050 6000
F 0 "C?" H 7165 6046 50  0001 L CNN
F 1 "C" H 7165 6000 50  0001 L CNN
F 2 "" H 7088 5850 50  0001 C CNN
F 3 "~" H 7050 6000 50  0001 C CNN
	1    7050 6000
	1    0    0    -1  
$EndComp
$Comp
L 74xGxx:74AHC1G04 U?
U 1 1 652E304B
P 7550 5700
F 0 "U?" H 7525 5875 50  0001 C CNN
F 1 "74AHC1G04" H 7525 5876 50  0001 C CNN
F 2 "" H 7550 5700 50  0001 C CNN
F 3 "http://www.ti.com/lit/sg/scyt129e/scyt129e.pdf" H 7550 5700 50  0001 C CNN
	1    7550 5700
	1    0    0    -1  
$EndComp
$Comp
L Device:Speaker LS?
U 1 1 652E3055
P 8150 5700
F 0 "LS?" H 8320 5696 50  0001 L CNN
F 1 "Speaker" H 8320 5650 50  0001 L CNN
F 2 "" H 8150 5500 50  0001 C CNN
F 3 "~" H 8140 5650 50  0001 C CNN
	1    8150 5700
	1    0    0    -1  
$EndComp
$Comp
L power:Earth #PWR?
U 1 1 652E305F
P 7950 5800
F 0 "#PWR?" H 7950 5550 50  0001 C CNN
F 1 "Earth" H 7950 5650 50  0001 C CNN
F 2 "" H 7950 5800 50  0001 C CNN
F 3 "~" H 7950 5800 50  0001 C CNN
	1    7950 5800
	1    0    0    -1  
$EndComp
Wire Wire Line
	7800 5700 7950 5700
Connection ~ 7800 5700
Wire Wire Line
	7050 5250 7250 5250
Wire Wire Line
	7050 5700 7250 5700
$Comp
L Device:R_US R?
U 1 1 652E306E
P 7250 5450
F 0 "R?" V 7045 5450 50  0001 C CNN
F 1 "R_US" V 7137 5450 50  0001 C CNN
F 2 "" V 7290 5440 50  0001 C CNN
F 3 "~" H 7250 5450 50  0001 C CNN
	1    7250 5450
	-1   0    0    1   
$EndComp
Connection ~ 7250 5250
Wire Wire Line
	7250 5250 7800 5250
Wire Wire Line
	7250 5300 7250 5250
Wire Wire Line
	7250 5600 7250 5700
Connection ~ 7250 5700
Connection ~ 7050 5700
Connection ~ 1650 5700
Connection ~ 2200 5700
$Comp
L power:+6V #PWR?
U 1 1 653B504E
P 1250 4400
F 0 "#PWR?" H 1250 4250 50  0001 C CNN
F 1 "+6V" H 1265 4573 50  0000 C CNN
F 2 "" H 1250 4400 50  0001 C CNN
F 3 "" H 1250 4400 50  0001 C CNN
	1    1250 4400
	1    0    0    -1  
$EndComp
$Comp
L power:+6V #PWR?
U 1 1 653B7E26
P 1250 4850
F 0 "#PWR?" H 1250 4700 50  0001 C CNN
F 1 "+6V" H 1265 5023 50  0000 C CNN
F 2 "" H 1250 4850 50  0001 C CNN
F 3 "" H 1250 4850 50  0001 C CNN
	1    1250 4850
	1    0    0    -1  
$EndComp
$Comp
L power:+6V #PWR?
U 1 1 653C2DFE
P 1250 5200
F 0 "#PWR?" H 1250 5050 50  0001 C CNN
F 1 "+6V" H 1265 5373 50  0000 C CNN
F 2 "" H 1250 5200 50  0001 C CNN
F 3 "" H 1250 5200 50  0001 C CNN
	1    1250 5200
	1    0    0    -1  
$EndComp
$Comp
L power:+6V #PWR?
U 1 1 653C75F3
P 1250 5600
F 0 "#PWR?" H 1250 5450 50  0001 C CNN
F 1 "+6V" H 1265 5773 50  0000 C CNN
F 2 "" H 1250 5600 50  0001 C CNN
F 3 "" H 1250 5600 50  0001 C CNN
	1    1250 5600
	1    0    0    -1  
$EndComp
$Comp
L 74xGxx:74AHC1G04 U?
U 1 1 652108F2
P 6200 2650
F 0 "U?" H 6175 2917 50  0001 C CNN
F 1 " " H 6175 2825 50  0001 C CNN
F 2 "" H 6200 2650 50  0001 C CNN
F 3 "http://www.ti.com/lit/sg/scyt129e/scyt129e.pdf" H 6200 2650 50  0001 C CNN
	1    6200 2650
	1    0    0    -1  
$EndComp
$Comp
L 74xGxx:74AHC1G04 U?
U 1 1 652108FC
P 6200 2650
F 0 "U?" H 6175 2917 50  0001 C CNN
F 1 " " H 6175 2825 50  0000 C CNN
F 2 "" H 6200 2650 50  0001 C CNN
F 3 "http://www.ti.com/lit/sg/scyt129e/scyt129e.pdf" H 6200 2650 50  0001 C CNN
	1    6200 2650
	1    0    0    -1  
$EndComp
Connection ~ 5900 2650
$Comp
L power:Earth #PWR?
U 1 1 65210907
P 5900 3300
F 0 "#PWR?" H 5900 3050 50  0001 C CNN
F 1 "Earth" H 5900 3150 50  0001 C CNN
F 2 "" H 5900 3300 50  0001 C CNN
F 3 "~" H 5900 3300 50  0001 C CNN
	1    5900 3300
	1    0    0    -1  
$EndComp
Wire Wire Line
	5900 2650 5900 2400
Wire Wire Line
	6450 2650 6450 2400
Connection ~ 6450 2650
Wire Wire Line
	5900 2400 6050 2400
Wire Wire Line
	6350 2400 6450 2400
$Comp
L power:Earth #PWR?
U 1 1 65210916
P 7050 3300
F 0 "#PWR?" H 7050 3050 50  0001 C CNN
F 1 "Earth" H 7050 3150 50  0001 C CNN
F 2 "" H 7050 3300 50  0001 C CNN
F 3 "~" H 7050 3300 50  0001 C CNN
	1    7050 3300
	1    0    0    -1  
$EndComp
Wire Wire Line
	7050 2850 7050 3000
Wire Wire Line
	5900 2650 5900 3000
Wire Wire Line
	7050 2450 7050 2400
Wire Wire Line
	7800 2850 7800 2400
$Comp
L Device:R_US R?
U 1 1 65210924
P 6200 2400
F 0 "R?" V 5995 2400 50  0001 C CNN
F 1 "1KΩ" V 6087 2400 50  0001 C CNN
F 2 "" V 6240 2390 50  0001 C CNN
F 3 "~" H 6200 2400 50  0001 C CNN
	1    6200 2400
	0    1    1    0   
$EndComp
$Comp
L Transistor_BJT:BC107 Q?
U 1 1 6521092E
P 6950 2650
F 0 "Q?" H 7141 2696 50  0001 L CNN
F 1 "BC107" H 7141 2650 50  0001 L CNN
F 2 "Package_TO_SOT_THT:TO-18-3" H 7150 2575 50  0001 L CIN
F 3 "http://www.b-kainka.de/Daten/Transistor/BC108.pdf" H 6950 2650 50  0001 L CNN
	1    6950 2650
	1    0    0    -1  
$EndComp
$Comp
L Device:R_US R?
U 1 1 65210938
P 6600 2650
F 0 "R?" V 6395 2650 50  0001 C CNN
F 1 "R_US" V 6487 2650 50  0001 C CNN
F 2 "" V 6640 2640 50  0001 C CNN
F 3 "~" H 6600 2650 50  0001 C CNN
	1    6600 2650
	0    1    1    0   
$EndComp
$Comp
L Device:C C?
U 1 1 65210942
P 5900 3150
F 0 "C?" H 6015 3196 50  0001 L CNN
F 1 "C" H 6015 3150 50  0001 L CNN
F 2 "" H 5938 3000 50  0001 C CNN
F 3 "~" H 5900 3150 50  0001 C CNN
	1    5900 3150
	1    0    0    -1  
$EndComp
$Comp
L Device:C C?
U 1 1 6521094C
P 7050 3150
F 0 "C?" H 7165 3196 50  0001 L CNN
F 1 "C" H 7165 3150 50  0001 L CNN
F 2 "" H 7088 3000 50  0001 C CNN
F 3 "~" H 7050 3150 50  0001 C CNN
	1    7050 3150
	1    0    0    -1  
$EndComp
$Comp
L 74xGxx:74AHC1G04 U?
U 1 1 65210956
P 7550 2850
F 0 "U?" H 7525 3025 50  0001 C CNN
F 1 "74AHC1G04" H 7525 3026 50  0001 C CNN
F 2 "" H 7550 2850 50  0001 C CNN
F 3 "http://www.ti.com/lit/sg/scyt129e/scyt129e.pdf" H 7550 2850 50  0001 C CNN
	1    7550 2850
	1    0    0    -1  
$EndComp
Wire Wire Line
	7050 2400 7250 2400
Wire Wire Line
	7050 2850 7250 2850
Connection ~ 7050 2850
$Comp
L Device:R_US R?
U 1 1 65210979
P 7250 2600
F 0 "R?" V 7045 2600 50  0001 C CNN
F 1 "R_US" V 7137 2600 50  0001 C CNN
F 2 "" V 7290 2590 50  0001 C CNN
F 3 "~" H 7250 2600 50  0001 C CNN
	1    7250 2600
	-1   0    0    1   
$EndComp
Connection ~ 7250 2400
Wire Wire Line
	7250 2400 7800 2400
Wire Wire Line
	7250 2450 7250 2400
Wire Wire Line
	7250 2750 7250 2850
Connection ~ 7250 2850
Wire Wire Line
	6450 5500 6750 5500
$Comp
L organised-atoms:Transistor_xtal Q?
U 1 1 6524790B
P 8050 2850
F 0 "Q?" H 8241 2850 50  0001 L CNN
F 1 "Crystal" H 7850 3050 50  0000 L CNN
F 2 "Package_TO_SOT_THT:TO-92_Inline" H 8250 2775 50  0001 L CIN
F 3 "https://www.fairchildsemi.com/datasheets/2N/2N3906.pdf" H 8050 2850 50  0001 L CNN
	1    8050 2850
	1    0    0    -1  
$EndComp
$Comp
L power:Earth #PWR?
U 1 1 65247915
P 8150 3500
F 0 "#PWR?" H 8150 3250 50  0001 C CNN
F 1 "Earth" H 8150 3350 50  0001 C CNN
F 2 "" H 8150 3500 50  0001 C CNN
F 3 "~" H 8150 3500 50  0001 C CNN
	1    8150 3500
	1    0    0    -1  
$EndComp
Wire Wire Line
	8150 3050 8150 3200
Wire Wire Line
	8150 2650 8150 2600
Wire Wire Line
	8900 3050 8900 2600
$Comp
L Device:C C?
U 1 1 65247922
P 8150 3350
F 0 "C?" H 8265 3396 50  0001 L CNN
F 1 "C" H 8265 3350 50  0001 L CNN
F 2 "" H 8188 3200 50  0001 C CNN
F 3 "~" H 8150 3350 50  0001 C CNN
	1    8150 3350
	1    0    0    -1  
$EndComp
$Comp
L 74xGxx:74AHC1G04 U?
U 1 1 6524792C
P 8650 3050
F 0 "U?" H 8625 3225 50  0001 C CNN
F 1 "74AHC1G04" H 8625 3226 50  0001 C CNN
F 2 "" H 8650 3050 50  0001 C CNN
F 3 "http://www.ti.com/lit/sg/scyt129e/scyt129e.pdf" H 8650 3050 50  0001 C CNN
	1    8650 3050
	1    0    0    -1  
$EndComp
$Comp
L Device:Speaker LS?
U 1 1 65247936
P 9250 3050
F 0 "LS?" H 9420 3046 50  0001 L CNN
F 1 "Speaker" H 9420 3000 50  0001 L CNN
F 2 "" H 9250 2850 50  0001 C CNN
F 3 "~" H 9240 3000 50  0001 C CNN
	1    9250 3050
	1    0    0    -1  
$EndComp
$Comp
L power:Earth #PWR?
U 1 1 65247940
P 9050 3150
F 0 "#PWR?" H 9050 2900 50  0001 C CNN
F 1 "Earth" H 9050 3000 50  0001 C CNN
F 2 "" H 9050 3150 50  0001 C CNN
F 3 "~" H 9050 3150 50  0001 C CNN
	1    9050 3150
	1    0    0    -1  
$EndComp
Wire Wire Line
	8900 3050 9050 3050
Connection ~ 8900 3050
Wire Wire Line
	8150 3050 8350 3050
Connection ~ 8150 3050
Wire Wire Line
	7800 2850 7850 2850
Connection ~ 7800 2850
Wire Wire Line
	8150 2600 8900 2600
$Comp
L 74xGxx:74AHC1G04 U?
U 1 1 652A7350
P 3150 2000
F 0 "U?" H 3125 2267 50  0001 C CNN
F 1 " " H 3125 2175 50  0001 C CNN
F 2 "" H 3150 2000 50  0001 C CNN
F 3 "http://www.ti.com/lit/sg/scyt129e/scyt129e.pdf" H 3150 2000 50  0001 C CNN
	1    3150 2000
	1    0    0    -1  
$EndComp
$Comp
L 74xGxx:74AHC1G04 U?
U 1 1 652A735A
P 3150 2000
F 0 "U?" H 3125 2267 50  0001 C CNN
F 1 " " H 3125 2175 50  0000 C CNN
F 2 "" H 3150 2000 50  0001 C CNN
F 3 "http://www.ti.com/lit/sg/scyt129e/scyt129e.pdf" H 3150 2000 50  0001 C CNN
	1    3150 2000
	1    0    0    -1  
$EndComp
Connection ~ 2850 2000
$Comp
L power:Earth #PWR?
U 1 1 652A7365
P 2850 2650
F 0 "#PWR?" H 2850 2400 50  0001 C CNN
F 1 "Earth" H 2850 2500 50  0001 C CNN
F 2 "" H 2850 2650 50  0001 C CNN
F 3 "~" H 2850 2650 50  0001 C CNN
	1    2850 2650
	1    0    0    -1  
$EndComp
Wire Wire Line
	2850 2000 2850 1750
Wire Wire Line
	3400 2000 3400 1750
Connection ~ 3400 2000
Wire Wire Line
	2850 1750 3000 1750
Wire Wire Line
	3300 1750 3400 1750
$Comp
L power:Earth #PWR?
U 1 1 652A7374
P 4000 2650
F 0 "#PWR?" H 4000 2400 50  0001 C CNN
F 1 "Earth" H 4000 2500 50  0001 C CNN
F 2 "" H 4000 2650 50  0001 C CNN
F 3 "~" H 4000 2650 50  0001 C CNN
	1    4000 2650
	1    0    0    -1  
$EndComp
Wire Wire Line
	4000 2200 4000 2350
Wire Wire Line
	2850 2000 2850 2350
Wire Wire Line
	4000 1800 4000 1750
Wire Wire Line
	4750 2200 4750 1750
$Comp
L Device:R_US R?
U 1 1 652A7382
P 3150 1750
F 0 "R?" V 2945 1750 50  0001 C CNN
F 1 "1KΩ" V 3037 1750 50  0001 C CNN
F 2 "" V 3190 1740 50  0001 C CNN
F 3 "~" H 3150 1750 50  0001 C CNN
	1    3150 1750
	0    1    1    0   
$EndComp
$Comp
L Transistor_BJT:BC107 Q?
U 1 1 652A738C
P 3900 2000
F 0 "Q?" H 4091 2046 50  0001 L CNN
F 1 "BC107" H 4091 2000 50  0001 L CNN
F 2 "Package_TO_SOT_THT:TO-18-3" H 4100 1925 50  0001 L CIN
F 3 "http://www.b-kainka.de/Daten/Transistor/BC108.pdf" H 3900 2000 50  0001 L CNN
	1    3900 2000
	1    0    0    -1  
$EndComp
$Comp
L Device:R_US R?
U 1 1 652A7396
P 3550 2000
F 0 "R?" V 3345 2000 50  0001 C CNN
F 1 "R_US" V 3437 2000 50  0001 C CNN
F 2 "" V 3590 1990 50  0001 C CNN
F 3 "~" H 3550 2000 50  0001 C CNN
	1    3550 2000
	0    1    1    0   
$EndComp
$Comp
L Device:C C?
U 1 1 652A73A0
P 2850 2500
F 0 "C?" H 2965 2546 50  0001 L CNN
F 1 "C" H 2965 2500 50  0001 L CNN
F 2 "" H 2888 2350 50  0001 C CNN
F 3 "~" H 2850 2500 50  0001 C CNN
	1    2850 2500
	1    0    0    -1  
$EndComp
$Comp
L Device:C C?
U 1 1 652A73AA
P 4000 2500
F 0 "C?" H 4115 2546 50  0001 L CNN
F 1 "C" H 4115 2500 50  0001 L CNN
F 2 "" H 4038 2350 50  0001 C CNN
F 3 "~" H 4000 2500 50  0001 C CNN
	1    4000 2500
	1    0    0    -1  
$EndComp
$Comp
L 74xGxx:74AHC1G04 U?
U 1 1 652A73B4
P 4500 2200
F 0 "U?" H 4475 2375 50  0001 C CNN
F 1 "74AHC1G04" H 4475 2376 50  0001 C CNN
F 2 "" H 4500 2200 50  0001 C CNN
F 3 "http://www.ti.com/lit/sg/scyt129e/scyt129e.pdf" H 4500 2200 50  0001 C CNN
	1    4500 2200
	1    0    0    -1  
$EndComp
$Comp
L Device:Speaker LS?
U 1 1 652A73BE
P 5100 2200
F 0 "LS?" H 5270 2196 50  0001 L CNN
F 1 "Speaker" H 5270 2150 50  0001 L CNN
F 2 "" H 5100 2000 50  0001 C CNN
F 3 "~" H 5090 2150 50  0001 C CNN
	1    5100 2200
	1    0    0    -1  
$EndComp
$Comp
L power:Earth #PWR?
U 1 1 652A73C8
P 4900 2300
F 0 "#PWR?" H 4900 2050 50  0001 C CNN
F 1 "Earth" H 4900 2150 50  0001 C CNN
F 2 "" H 4900 2300 50  0001 C CNN
F 3 "~" H 4900 2300 50  0001 C CNN
	1    4900 2300
	1    0    0    -1  
$EndComp
Wire Wire Line
	4750 2200 4900 2200
Connection ~ 4750 2200
Wire Wire Line
	4000 1750 4200 1750
Wire Wire Line
	4000 2200 4200 2200
Connection ~ 4000 2200
$Comp
L Device:R_US R?
U 1 1 652A73D7
P 4200 1950
F 0 "R?" V 3995 1950 50  0001 C CNN
F 1 "R_US" V 4087 1950 50  0001 C CNN
F 2 "" V 4240 1940 50  0001 C CNN
F 3 "~" H 4200 1950 50  0001 C CNN
	1    4200 1950
	-1   0    0    1   
$EndComp
Connection ~ 4200 1750
Wire Wire Line
	4200 1750 4750 1750
Wire Wire Line
	4200 1800 4200 1750
Wire Wire Line
	4200 2100 4200 2200
Connection ~ 4200 2200
$Comp
L power:Earth #PWR?
U 1 1 652BDDF4
P 3750 2650
F 0 "#PWR?" H 3750 2400 50  0001 C CNN
F 1 "Earth" H 3750 2500 50  0001 C CNN
F 2 "" H 3750 2650 50  0001 C CNN
F 3 "~" H 3750 2650 50  0001 C CNN
	1    3750 2650
	1    0    0    -1  
$EndComp
Wire Wire Line
	3750 2000 3750 2350
$Comp
L Device:C C?
U 1 1 652BDDFF
P 3750 2500
F 0 "C?" H 3865 2546 50  0001 L CNN
F 1 "C" H 3865 2500 50  0001 L CNN
F 2 "" H 3788 2350 50  0001 C CNN
F 3 "~" H 3750 2500 50  0001 C CNN
	1    3750 2500
	1    0    0    -1  
$EndComp
$Comp
L 74xGxx:74AHC1G04 U?
U 1 1 652C9045
P 3150 3150
F 0 "U?" H 3125 3417 50  0001 C CNN
F 1 " " H 3125 3325 50  0001 C CNN
F 2 "" H 3150 3150 50  0001 C CNN
F 3 "http://www.ti.com/lit/sg/scyt129e/scyt129e.pdf" H 3150 3150 50  0001 C CNN
	1    3150 3150
	1    0    0    -1  
$EndComp
$Comp
L 74xGxx:74AHC1G04 U?
U 1 1 652C904F
P 3150 3150
F 0 "U?" H 3125 3417 50  0001 C CNN
F 1 " " H 3125 3325 50  0000 C CNN
F 2 "" H 3150 3150 50  0001 C CNN
F 3 "http://www.ti.com/lit/sg/scyt129e/scyt129e.pdf" H 3150 3150 50  0001 C CNN
	1    3150 3150
	1    0    0    -1  
$EndComp
Connection ~ 2850 3150
$Comp
L power:Earth #PWR?
U 1 1 652C905A
P 2850 3800
F 0 "#PWR?" H 2850 3550 50  0001 C CNN
F 1 "Earth" H 2850 3650 50  0001 C CNN
F 2 "" H 2850 3800 50  0001 C CNN
F 3 "~" H 2850 3800 50  0001 C CNN
	1    2850 3800
	1    0    0    -1  
$EndComp
Wire Wire Line
	2850 3150 2850 2900
Wire Wire Line
	3400 3150 3400 2900
Connection ~ 3400 3150
Wire Wire Line
	2850 2900 3000 2900
Wire Wire Line
	3300 2900 3400 2900
$Comp
L power:Earth #PWR?
U 1 1 652C9069
P 4000 3800
F 0 "#PWR?" H 4000 3550 50  0001 C CNN
F 1 "Earth" H 4000 3650 50  0001 C CNN
F 2 "" H 4000 3800 50  0001 C CNN
F 3 "~" H 4000 3800 50  0001 C CNN
	1    4000 3800
	1    0    0    -1  
$EndComp
Wire Wire Line
	4000 3350 4000 3500
Wire Wire Line
	2850 3150 2850 3500
Wire Wire Line
	4000 2950 4000 2900
Wire Wire Line
	4750 3350 4750 2900
$Comp
L Device:R_US R?
U 1 1 652C9077
P 3150 2900
F 0 "R?" V 2945 2900 50  0001 C CNN
F 1 "1KΩ" V 3037 2900 50  0001 C CNN
F 2 "" V 3190 2890 50  0001 C CNN
F 3 "~" H 3150 2900 50  0001 C CNN
	1    3150 2900
	0    1    1    0   
$EndComp
$Comp
L Transistor_BJT:BC107 Q?
U 1 1 652C9081
P 3900 3150
F 0 "Q?" H 4091 3196 50  0001 L CNN
F 1 "BC107" H 4091 3150 50  0001 L CNN
F 2 "Package_TO_SOT_THT:TO-18-3" H 4100 3075 50  0001 L CIN
F 3 "http://www.b-kainka.de/Daten/Transistor/BC108.pdf" H 3900 3150 50  0001 L CNN
	1    3900 3150
	1    0    0    -1  
$EndComp
$Comp
L Device:R_US R?
U 1 1 652C908B
P 3700 3650
F 0 "R?" V 3495 3650 50  0001 C CNN
F 1 "R_US" V 3587 3650 50  0001 C CNN
F 2 "" V 3740 3640 50  0001 C CNN
F 3 "~" H 3700 3650 50  0001 C CNN
	1    3700 3650
	-1   0    0    1   
$EndComp
$Comp
L Device:C C?
U 1 1 652C9095
P 2850 3650
F 0 "C?" H 2965 3696 50  0001 L CNN
F 1 "C" H 2965 3650 50  0001 L CNN
F 2 "" H 2888 3500 50  0001 C CNN
F 3 "~" H 2850 3650 50  0001 C CNN
	1    2850 3650
	1    0    0    -1  
$EndComp
$Comp
L Device:C C?
U 1 1 652C909F
P 4000 3650
F 0 "C?" H 4115 3696 50  0001 L CNN
F 1 "C" H 4115 3650 50  0001 L CNN
F 2 "" H 4038 3500 50  0001 C CNN
F 3 "~" H 4000 3650 50  0001 C CNN
	1    4000 3650
	1    0    0    -1  
$EndComp
$Comp
L 74xGxx:74AHC1G04 U?
U 1 1 652C90A9
P 4500 3350
F 0 "U?" H 4475 3525 50  0001 C CNN
F 1 "74AHC1G04" H 4475 3526 50  0001 C CNN
F 2 "" H 4500 3350 50  0001 C CNN
F 3 "http://www.ti.com/lit/sg/scyt129e/scyt129e.pdf" H 4500 3350 50  0001 C CNN
	1    4500 3350
	1    0    0    -1  
$EndComp
$Comp
L Device:Speaker LS?
U 1 1 652C90B3
P 5100 3350
F 0 "LS?" H 5270 3346 50  0001 L CNN
F 1 "Speaker" H 5270 3300 50  0001 L CNN
F 2 "" H 5100 3150 50  0001 C CNN
F 3 "~" H 5090 3300 50  0001 C CNN
	1    5100 3350
	1    0    0    -1  
$EndComp
$Comp
L power:Earth #PWR?
U 1 1 652C90BD
P 4900 3450
F 0 "#PWR?" H 4900 3200 50  0001 C CNN
F 1 "Earth" H 4900 3300 50  0001 C CNN
F 2 "" H 4900 3450 50  0001 C CNN
F 3 "~" H 4900 3450 50  0001 C CNN
	1    4900 3450
	1    0    0    -1  
$EndComp
Wire Wire Line
	4750 3350 4900 3350
Connection ~ 4750 3350
Wire Wire Line
	4000 2900 4200 2900
Wire Wire Line
	4000 3350 4200 3350
Connection ~ 4000 3350
$Comp
L Device:R_US R?
U 1 1 652C90CC
P 4200 3100
F 0 "R?" V 3995 3100 50  0001 C CNN
F 1 "R_US" V 4087 3100 50  0001 C CNN
F 2 "" V 4240 3090 50  0001 C CNN
F 3 "~" H 4200 3100 50  0001 C CNN
	1    4200 3100
	-1   0    0    1   
$EndComp
Connection ~ 4200 2900
Wire Wire Line
	4200 2900 4750 2900
Wire Wire Line
	4200 2950 4200 2900
Wire Wire Line
	4200 3250 4200 3350
Connection ~ 4200 3350
$Comp
L power:Earth #PWR?
U 1 1 652C90DB
P 3700 3800
F 0 "#PWR?" H 3700 3550 50  0001 C CNN
F 1 "Earth" H 3700 3650 50  0001 C CNN
F 2 "" H 3700 3800 50  0001 C CNN
F 3 "~" H 3700 3800 50  0001 C CNN
	1    3700 3800
	1    0    0    -1  
$EndComp
Wire Wire Line
	3700 3150 3700 3500
$Comp
L Device:C C?
U 1 1 652C90E6
P 3550 3150
F 0 "C?" H 3665 3196 50  0001 L CNN
F 1 "C" H 3665 3150 50  0001 L CNN
F 2 "" H 3588 3000 50  0001 C CNN
F 3 "~" H 3550 3150 50  0001 C CNN
	1    3550 3150
	0    1    1    0   
$EndComp
Connection ~ 3700 3150
$Comp
L 74xGxx:74AHC1G04 U?
U 1 1 65332B91
P 6250 1450
F 0 "U?" H 6225 1717 50  0001 C CNN
F 1 " " H 6225 1625 50  0001 C CNN
F 2 "" H 6250 1450 50  0001 C CNN
F 3 "http://www.ti.com/lit/sg/scyt129e/scyt129e.pdf" H 6250 1450 50  0001 C CNN
	1    6250 1450
	1    0    0    -1  
$EndComp
$Comp
L 74xGxx:74AHC1G04 U?
U 1 1 65332B9B
P 6250 1450
F 0 "U?" H 6225 1717 50  0001 C CNN
F 1 " " H 6225 1625 50  0000 C CNN
F 2 "" H 6250 1450 50  0001 C CNN
F 3 "http://www.ti.com/lit/sg/scyt129e/scyt129e.pdf" H 6250 1450 50  0001 C CNN
	1    6250 1450
	1    0    0    -1  
$EndComp
Connection ~ 5950 1450
$Comp
L power:Earth #PWR?
U 1 1 65332BA6
P 5950 2100
F 0 "#PWR?" H 5950 1850 50  0001 C CNN
F 1 "Earth" H 5950 1950 50  0001 C CNN
F 2 "" H 5950 2100 50  0001 C CNN
F 3 "~" H 5950 2100 50  0001 C CNN
	1    5950 2100
	1    0    0    -1  
$EndComp
Wire Wire Line
	5950 1450 5950 1200
Wire Wire Line
	6500 1450 6500 1200
Connection ~ 6500 1450
Wire Wire Line
	5950 1200 6100 1200
Wire Wire Line
	6400 1200 6500 1200
$Comp
L power:Earth #PWR?
U 1 1 65332BB5
P 7100 2100
F 0 "#PWR?" H 7100 1850 50  0001 C CNN
F 1 "Earth" H 7100 1950 50  0001 C CNN
F 2 "" H 7100 2100 50  0001 C CNN
F 3 "~" H 7100 2100 50  0001 C CNN
	1    7100 2100
	1    0    0    -1  
$EndComp
Wire Wire Line
	7100 1650 7100 1800
Wire Wire Line
	5950 1450 5950 1800
Wire Wire Line
	7100 1250 7100 1200
Wire Wire Line
	7850 1650 7850 1200
$Comp
L Device:R_US R?
U 1 1 65332BC3
P 6250 1200
F 0 "R?" V 6045 1200 50  0001 C CNN
F 1 "1KΩ" V 6137 1200 50  0001 C CNN
F 2 "" V 6290 1190 50  0001 C CNN
F 3 "~" H 6250 1200 50  0001 C CNN
	1    6250 1200
	0    1    1    0   
$EndComp
$Comp
L Transistor_BJT:BC107 Q?
U 1 1 65332BCD
P 7000 1450
F 0 "Q?" H 7191 1496 50  0001 L CNN
F 1 "BC107" H 7191 1450 50  0001 L CNN
F 2 "Package_TO_SOT_THT:TO-18-3" H 7200 1375 50  0001 L CIN
F 3 "http://www.b-kainka.de/Daten/Transistor/BC108.pdf" H 7000 1450 50  0001 L CNN
	1    7000 1450
	1    0    0    -1  
$EndComp
$Comp
L Device:R_US R?
U 1 1 65332BD7
P 6800 1950
F 0 "R?" V 6595 1950 50  0001 C CNN
F 1 "R_US" V 6687 1950 50  0001 C CNN
F 2 "" V 6840 1940 50  0001 C CNN
F 3 "~" H 6800 1950 50  0001 C CNN
	1    6800 1950
	-1   0    0    1   
$EndComp
$Comp
L Device:C C?
U 1 1 65332BE1
P 5950 1950
F 0 "C?" H 6065 1996 50  0001 L CNN
F 1 "C" H 6065 1950 50  0001 L CNN
F 2 "" H 5988 1800 50  0001 C CNN
F 3 "~" H 5950 1950 50  0001 C CNN
	1    5950 1950
	1    0    0    -1  
$EndComp
$Comp
L Device:C C?
U 1 1 65332BEB
P 7100 1950
F 0 "C?" H 7215 1996 50  0001 L CNN
F 1 "C" H 7215 1950 50  0001 L CNN
F 2 "" H 7138 1800 50  0001 C CNN
F 3 "~" H 7100 1950 50  0001 C CNN
	1    7100 1950
	1    0    0    -1  
$EndComp
$Comp
L 74xGxx:74AHC1G04 U?
U 1 1 65332BF5
P 7600 1650
F 0 "U?" H 7575 1825 50  0001 C CNN
F 1 "74AHC1G04" H 7575 1826 50  0001 C CNN
F 2 "" H 7600 1650 50  0001 C CNN
F 3 "http://www.ti.com/lit/sg/scyt129e/scyt129e.pdf" H 7600 1650 50  0001 C CNN
	1    7600 1650
	1    0    0    -1  
$EndComp
$Comp
L Device:Speaker LS?
U 1 1 65332BFF
P 8200 1650
F 0 "LS?" H 8370 1646 50  0001 L CNN
F 1 "Speaker" H 8370 1600 50  0001 L CNN
F 2 "" H 8200 1450 50  0001 C CNN
F 3 "~" H 8190 1600 50  0001 C CNN
	1    8200 1650
	1    0    0    -1  
$EndComp
$Comp
L power:Earth #PWR?
U 1 1 65332C09
P 8000 1750
F 0 "#PWR?" H 8000 1500 50  0001 C CNN
F 1 "Earth" H 8000 1600 50  0001 C CNN
F 2 "" H 8000 1750 50  0001 C CNN
F 3 "~" H 8000 1750 50  0001 C CNN
	1    8000 1750
	1    0    0    -1  
$EndComp
Wire Wire Line
	7850 1650 8000 1650
Connection ~ 7850 1650
Wire Wire Line
	7100 1200 7300 1200
Wire Wire Line
	7100 1650 7300 1650
Connection ~ 7100 1650
$Comp
L Device:R_US R?
U 1 1 65332C18
P 7300 1400
F 0 "R?" V 7095 1400 50  0001 C CNN
F 1 "R_US" V 7187 1400 50  0001 C CNN
F 2 "" V 7340 1390 50  0001 C CNN
F 3 "~" H 7300 1400 50  0001 C CNN
	1    7300 1400
	-1   0    0    1   
$EndComp
Connection ~ 7300 1200
Wire Wire Line
	7300 1200 7850 1200
Wire Wire Line
	7300 1250 7300 1200
Wire Wire Line
	7300 1550 7300 1650
Connection ~ 7300 1650
$Comp
L power:Earth #PWR?
U 1 1 65332C27
P 6800 2100
F 0 "#PWR?" H 6800 1850 50  0001 C CNN
F 1 "Earth" H 6800 1950 50  0001 C CNN
F 2 "" H 6800 2100 50  0001 C CNN
F 3 "~" H 6800 2100 50  0001 C CNN
	1    6800 2100
	1    0    0    -1  
$EndComp
$Comp
L Device:C C?
U 1 1 65332C32
P 6650 1450
F 0 "C?" H 6765 1496 50  0001 L CNN
F 1 "C" H 6765 1450 50  0001 L CNN
F 2 "" H 6688 1300 50  0001 C CNN
F 3 "~" H 6650 1450 50  0001 C CNN
	1    6650 1450
	0    1    1    0   
$EndComp
Connection ~ 6800 1450
$Comp
L Device:R_US R?
U 1 1 65346F06
P 6800 1250
F 0 "R?" V 6595 1250 50  0001 C CNN
F 1 "R_US" V 6687 1250 50  0001 C CNN
F 2 "" V 6840 1240 50  0001 C CNN
F 3 "~" H 6800 1250 50  0001 C CNN
	1    6800 1250
	1    0    0    -1  
$EndComp
Wire Wire Line
	6800 1450 6800 1400
Wire Wire Line
	6800 1450 6800 1800
$Comp
L power:+6V #PWR?
U 1 1 6535BCCB
P 6800 1100
F 0 "#PWR?" H 6800 950 50  0001 C CNN
F 1 "+6V" H 6815 1273 50  0000 C CNN
F 2 "" H 6800 1100 50  0001 C CNN
F 3 "" H 6800 1100 50  0001 C CNN
	1    6800 1100
	1    0    0    -1  
$EndComp
$Comp
L power:Earth #PWR?
U 1 1 653988BA
P 15200 4900
F 0 "#PWR?" H 15200 4650 50  0001 C CNN
F 1 "Earth" H 15200 4750 50  0001 C CNN
F 2 "" H 15200 4900 50  0001 C CNN
F 3 "~" H 15200 4900 50  0001 C CNN
	1    15200 4900
	1    0    0    -1  
$EndComp
Wire Wire Line
	15200 4450 15200 4600
Wire Wire Line
	15200 4050 15200 4000
$Comp
L Transistor_BJT:BC107 Q?
U 1 1 653988C7
P 15100 4250
F 0 "Q?" H 15291 4296 50  0001 L CNN
F 1 "BC107" H 15291 4250 50  0001 L CNN
F 2 "Package_TO_SOT_THT:TO-18-3" H 15300 4175 50  0001 L CIN
F 3 "http://www.b-kainka.de/Daten/Transistor/BC108.pdf" H 15100 4250 50  0001 L CNN
	1    15100 4250
	1    0    0    -1  
$EndComp
$Comp
L Device:C C?
U 1 1 653988D1
P 15200 4750
F 0 "C?" H 15315 4796 50  0001 L CNN
F 1 "C" H 15315 4750 50  0001 L CNN
F 2 "" H 15238 4600 50  0001 C CNN
F 3 "~" H 15200 4750 50  0001 C CNN
	1    15200 4750
	1    0    0    -1  
$EndComp
$Comp
L 74xGxx:74AHC1G04 U?
U 1 1 653988DB
P 15750 4450
F 0 "U?" H 15725 4625 50  0001 C CNN
F 1 "74AHC1G04" H 15725 4626 50  0001 C CNN
F 2 "" H 15750 4450 50  0001 C CNN
F 3 "http://www.ti.com/lit/sg/scyt129e/scyt129e.pdf" H 15750 4450 50  0001 C CNN
	1    15750 4450
	1    0    0    -1  
$EndComp
$Comp
L Device:Speaker LS?
U 1 1 653988E5
P 16300 4450
F 0 "LS?" H 16470 4446 50  0001 L CNN
F 1 "Speaker" H 16470 4400 50  0001 L CNN
F 2 "" H 16300 4250 50  0001 C CNN
F 3 "~" H 16290 4400 50  0001 C CNN
	1    16300 4450
	1    0    0    -1  
$EndComp
$Comp
L power:Earth #PWR?
U 1 1 653988EF
P 16100 4550
F 0 "#PWR?" H 16100 4300 50  0001 C CNN
F 1 "Earth" H 16100 4400 50  0001 C CNN
F 2 "" H 16100 4550 50  0001 C CNN
F 3 "~" H 16100 4550 50  0001 C CNN
	1    16100 4550
	1    0    0    -1  
$EndComp
Connection ~ 15200 4450
$Comp
L Device:R_POT_US RV?
U 1 1 653B7615
P 15450 4250
F 0 "RV?" V 15337 4250 50  0001 C CNN
F 1 "R_POT_US" V 15336 4250 50  0001 C CNN
F 2 "" H 15450 4250 50  0001 C CNN
F 3 "~" H 15450 4250 50  0001 C CNN
	1    15450 4250
	-1   0    0    1   
$EndComp
Wire Wire Line
	15200 4000 15300 4000
Wire Wire Line
	15450 4400 15450 4450
Wire Wire Line
	15300 4250 15300 4000
Connection ~ 15300 4000
Connection ~ 16000 4450
Wire Wire Line
	16000 4450 16100 4450
Wire Wire Line
	15200 4450 15450 4450
Connection ~ 15450 4450
Wire Wire Line
	16000 4000 16000 4450
Wire Wire Line
	15300 4000 16000 4000
$Comp
L power:+6V #PWR?
U 1 1 65402C40
P 14300 4250
F 0 "#PWR?" H 14300 4100 50  0001 C CNN
F 1 "+6V" H 14315 4423 50  0000 C CNN
F 2 "" H 14300 4250 50  0001 C CNN
F 3 "" H 14300 4250 50  0001 C CNN
	1    14300 4250
	1    0    0    -1  
$EndComp
$Comp
L Device:R_US R?
U 1 1 65404C04
P 14450 4250
F 0 "R?" V 14245 4250 50  0001 C CNN
F 1 "1KΩ" V 14337 4250 50  0001 C CNN
F 2 "" V 14490 4240 50  0001 C CNN
F 3 "~" H 14450 4250 50  0001 C CNN
	1    14450 4250
	0    1    1    0   
$EndComp
$Comp
L Device:C C?
U 1 1 65407D84
P 14750 4250
F 0 "C?" V 14590 4250 50  0001 C CNN
F 1 "C" V 14589 4250 50  0001 C CNN
F 2 "" H 14788 4100 50  0001 C CNN
F 3 "~" H 14750 4250 50  0001 C CNN
	1    14750 4250
	0    1    1    0   
$EndComp
$Comp
L Switch:SW_SPST SW?
U 1 1 6541E5FA
P 14900 4450
F 0 "SW?" V 14854 4548 50  0001 L CNN
F 1 "SW_SPST" V 14900 4548 50  0001 L CNN
F 2 "" H 14900 4450 50  0001 C CNN
F 3 "~" H 14900 4450 50  0001 C CNN
	1    14900 4450
	0    1    1    0   
$EndComp
$Comp
L Device:R_US R?
U 1 1 6541EF58
P 14600 4400
F 0 "R?" V 14395 4400 50  0001 C CNN
F 1 "1KΩ" V 14487 4400 50  0001 C CNN
F 2 "" V 14640 4390 50  0001 C CNN
F 3 "~" H 14600 4400 50  0001 C CNN
	1    14600 4400
	-1   0    0    1   
$EndComp
Connection ~ 14900 4250
Connection ~ 14600 4250
Wire Wire Line
	14600 4550 14600 4650
Wire Wire Line
	14600 4650 14900 4650
$Comp
L 74xGxx:74AHC1G04 U?
U 1 1 6544A856
P 13850 6650
F 0 "U?" H 13825 6917 50  0001 C CNN
F 1 " " H 13825 6825 50  0001 C CNN
F 2 "" H 13850 6650 50  0001 C CNN
F 3 "http://www.ti.com/lit/sg/scyt129e/scyt129e.pdf" H 13850 6650 50  0001 C CNN
	1    13850 6650
	1    0    0    -1  
$EndComp
$Comp
L 74xGxx:74AHC1G04 U?
U 1 1 6544A860
P 13850 6650
F 0 "U?" H 13825 6917 50  0001 C CNN
F 1 " " H 13825 6825 50  0000 C CNN
F 2 "" H 13850 6650 50  0001 C CNN
F 3 "http://www.ti.com/lit/sg/scyt129e/scyt129e.pdf" H 13850 6650 50  0001 C CNN
	1    13850 6650
	1    0    0    -1  
$EndComp
Connection ~ 13550 6650
$Comp
L power:Earth #PWR?
U 1 1 6544A86B
P 13550 7050
F 0 "#PWR?" H 13550 6800 50  0001 C CNN
F 1 "Earth" H 13550 6900 50  0001 C CNN
F 2 "" H 13550 7050 50  0001 C CNN
F 3 "~" H 13550 7050 50  0001 C CNN
	1    13550 7050
	1    0    0    -1  
$EndComp
Wire Wire Line
	13550 6650 13550 6400
Connection ~ 14100 6650
Wire Wire Line
	14250 6650 14100 6650
$Comp
L Device:C C?
U 1 1 6544A878
P 13550 6900
F 0 "C?" H 13665 6946 50  0001 L CNN
F 1 "C" H 13665 6900 50  0001 L CNN
F 2 "" H 13588 6750 50  0001 C CNN
F 3 "~" H 13550 6900 50  0001 C CNN
	1    13550 6900
	1    0    0    -1  
$EndComp
Wire Wire Line
	13550 6650 13550 6750
$Comp
L Device:R_US R?
U 1 1 6544A898
P 14400 6650
F 0 "R?" V 14195 6650 50  0001 C CNN
F 1 "R_US" V 14287 6650 50  0001 C CNN
F 2 "" V 14440 6640 50  0001 C CNN
F 3 "~" H 14400 6650 50  0001 C CNN
	1    14400 6650
	0    1    1    0   
$EndComp
$Comp
L Device:Speaker LS?
U 1 1 6544A8AE
P 14900 6950
F 0 "LS?" H 15070 6946 50  0001 L CNN
F 1 "Speaker" H 15070 6900 50  0001 L CNN
F 2 "" H 14900 6750 50  0001 C CNN
F 3 "~" H 14890 6900 50  0001 C CNN
	1    14900 6950
	1    0    0    -1  
$EndComp
$Comp
L power:Earth #PWR?
U 1 1 6544A8B8
P 14700 7050
F 0 "#PWR?" H 14700 6800 50  0001 C CNN
F 1 "Earth" H 14700 6900 50  0001 C CNN
F 2 "" H 14700 7050 50  0001 C CNN
F 3 "~" H 14700 7050 50  0001 C CNN
	1    14700 7050
	1    0    0    -1  
$EndComp
$Comp
L Device:R_US R?
U 1 1 65475CE3
P 13800 6400
F 0 "R?" V 13595 6400 50  0001 C CNN
F 1 "R_US" V 13687 6400 50  0001 C CNN
F 2 "" V 13840 6390 50  0001 C CNN
F 3 "~" H 13800 6400 50  0001 C CNN
	1    13800 6400
	0    1    1    0   
$EndComp
Wire Wire Line
	13550 6400 13650 6400
Wire Wire Line
	13950 6400 14100 6400
Wire Wire Line
	14100 6400 14100 6650
$Comp
L 74xGxx:74AHC1G04 U?
U 1 1 654844C0
P 13850 7500
F 0 "U?" H 13825 7767 50  0001 C CNN
F 1 " " H 13825 7675 50  0001 C CNN
F 2 "" H 13850 7500 50  0001 C CNN
F 3 "http://www.ti.com/lit/sg/scyt129e/scyt129e.pdf" H 13850 7500 50  0001 C CNN
	1    13850 7500
	1    0    0    -1  
$EndComp
$Comp
L 74xGxx:74AHC1G04 U?
U 1 1 654844CA
P 13850 7500
F 0 "U?" H 13825 7767 50  0001 C CNN
F 1 " " H 13825 7675 50  0000 C CNN
F 2 "" H 13850 7500 50  0001 C CNN
F 3 "http://www.ti.com/lit/sg/scyt129e/scyt129e.pdf" H 13850 7500 50  0001 C CNN
	1    13850 7500
	1    0    0    -1  
$EndComp
Connection ~ 13550 7500
$Comp
L power:Earth #PWR?
U 1 1 654844D5
P 13550 7900
F 0 "#PWR?" H 13550 7650 50  0001 C CNN
F 1 "Earth" H 13550 7750 50  0001 C CNN
F 2 "" H 13550 7900 50  0001 C CNN
F 3 "~" H 13550 7900 50  0001 C CNN
	1    13550 7900
	1    0    0    -1  
$EndComp
Wire Wire Line
	13550 7500 13550 7250
Connection ~ 14100 7500
Wire Wire Line
	14250 7500 14100 7500
$Comp
L Device:C C?
U 1 1 654844E2
P 13550 7750
F 0 "C?" H 13665 7796 50  0001 L CNN
F 1 "C" H 13665 7750 50  0001 L CNN
F 2 "" H 13588 7600 50  0001 C CNN
F 3 "~" H 13550 7750 50  0001 C CNN
	1    13550 7750
	1    0    0    -1  
$EndComp
Wire Wire Line
	13550 7500 13550 7600
$Comp
L Device:R_US R?
U 1 1 654844ED
P 14400 7500
F 0 "R?" V 14195 7500 50  0001 C CNN
F 1 "R_US" V 14287 7500 50  0001 C CNN
F 2 "" V 14440 7490 50  0001 C CNN
F 3 "~" H 14400 7500 50  0001 C CNN
	1    14400 7500
	0    1    1    0   
$EndComp
$Comp
L Device:R_US R?
U 1 1 654844F7
P 13800 7250
F 0 "R?" V 13595 7250 50  0001 C CNN
F 1 "R_US" V 13687 7250 50  0001 C CNN
F 2 "" V 13840 7240 50  0001 C CNN
F 3 "~" H 13800 7250 50  0001 C CNN
	1    13800 7250
	0    1    1    0   
$EndComp
Wire Wire Line
	13550 7250 13650 7250
Wire Wire Line
	13950 7250 14100 7250
Wire Wire Line
	14100 7250 14100 7500
Wire Wire Line
	14550 6650 14550 6950
Wire Wire Line
	14550 6950 14700 6950
Wire Wire Line
	14550 6950 14550 7500
Connection ~ 14550 6950
$Comp
L organised-atoms:Transistor_xtal Q?
U 1 1 654B5495
P 9350 4050
F 0 "Q?" H 9541 4050 50  0001 L CNN
F 1 "Crystal" H 9150 4250 50  0000 L CNN
F 2 "Package_TO_SOT_THT:TO-92_Inline" H 9550 3975 50  0001 L CIN
F 3 "https://www.fairchildsemi.com/datasheets/2N/2N3906.pdf" H 9350 4050 50  0001 L CNN
	1    9350 4050
	1    0    0    -1  
$EndComp
$Comp
L power:Earth #PWR?
U 1 1 654B549F
P 9450 4700
F 0 "#PWR?" H 9450 4450 50  0001 C CNN
F 1 "Earth" H 9450 4550 50  0001 C CNN
F 2 "" H 9450 4700 50  0001 C CNN
F 3 "~" H 9450 4700 50  0001 C CNN
	1    9450 4700
	1    0    0    -1  
$EndComp
Wire Wire Line
	9450 4250 9450 4400
Wire Wire Line
	9450 3850 9450 3800
Wire Wire Line
	10200 4250 10200 3800
$Comp
L Device:C C?
U 1 1 654B54AC
P 9450 4550
F 0 "C?" H 9565 4596 50  0001 L CNN
F 1 "C" H 9565 4550 50  0001 L CNN
F 2 "" H 9488 4400 50  0001 C CNN
F 3 "~" H 9450 4550 50  0001 C CNN
	1    9450 4550
	1    0    0    -1  
$EndComp
$Comp
L 74xGxx:74AHC1G04 U?
U 1 1 654B54B6
P 9950 4250
F 0 "U?" H 9925 4425 50  0001 C CNN
F 1 "74AHC1G04" H 9925 4426 50  0001 C CNN
F 2 "" H 9950 4250 50  0001 C CNN
F 3 "http://www.ti.com/lit/sg/scyt129e/scyt129e.pdf" H 9950 4250 50  0001 C CNN
	1    9950 4250
	1    0    0    -1  
$EndComp
$Comp
L Device:Speaker LS?
U 1 1 654B54C0
P 10550 4250
F 0 "LS?" H 10720 4246 50  0001 L CNN
F 1 "Speaker" H 10720 4200 50  0001 L CNN
F 2 "" H 10550 4050 50  0001 C CNN
F 3 "~" H 10540 4200 50  0001 C CNN
	1    10550 4250
	1    0    0    -1  
$EndComp
$Comp
L power:Earth #PWR?
U 1 1 654B54CA
P 10350 4350
F 0 "#PWR?" H 10350 4100 50  0001 C CNN
F 1 "Earth" H 10350 4200 50  0001 C CNN
F 2 "" H 10350 4350 50  0001 C CNN
F 3 "~" H 10350 4350 50  0001 C CNN
	1    10350 4350
	1    0    0    -1  
$EndComp
Wire Wire Line
	10200 4250 10350 4250
Connection ~ 10200 4250
Wire Wire Line
	9450 4250 9650 4250
Connection ~ 9450 4250
Wire Wire Line
	9450 3800 10200 3800
$EndSCHEMATC
